# 1 "../deps/brotli/c/enc/entropy_encode.c"
# 1 "<built-in>"
# 1 "<command-line>"
# 1 "/usr/include/stdc-predef.h" 1 3 4
# 1 "<command-line>" 2
# 1 "../deps/brotli/c/enc/entropy_encode.c"
# 9 "../deps/brotli/c/enc/entropy_encode.c"
# 1 "../deps/brotli/c/enc/./entropy_encode.h" 1
# 12 "../deps/brotli/c/enc/./entropy_encode.h"
# 1 "../deps/brotli/c/enc/./../common/platform.h" 1
# 26 "../deps/brotli/c/enc/./../common/platform.h"
# 1 "/usr/include/string.h" 1 3 4
# 26 "/usr/include/string.h" 3 4
# 1 "/usr/include/x86_64-linux-gnu/bits/libc-header-start.h" 1 3 4
# 33 "/usr/include/x86_64-linux-gnu/bits/libc-header-start.h" 3 4
# 1 "/usr/include/features.h" 1 3 4
# 461 "/usr/include/features.h" 3 4
# 1 "/usr/include/x86_64-linux-gnu/sys/cdefs.h" 1 3 4
# 452 "/usr/include/x86_64-linux-gnu/sys/cdefs.h" 3 4
# 1 "/usr/include/x86_64-linux-gnu/bits/wordsize.h" 1 3 4
# 453 "/usr/include/x86_64-linux-gnu/sys/cdefs.h" 2 3 4
# 1 "/usr/include/x86_64-linux-gnu/bits/long-double.h" 1 3 4
# 454 "/usr/include/x86_64-linux-gnu/sys/cdefs.h" 2 3 4
# 462 "/usr/include/features.h" 2 3 4
# 485 "/usr/include/features.h" 3 4
# 1 "/usr/include/x86_64-linux-gnu/gnu/stubs.h" 1 3 4
# 10 "/usr/include/x86_64-linux-gnu/gnu/stubs.h" 3 4
# 1 "/usr/include/x86_64-linux-gnu/gnu/stubs-64.h" 1 3 4
# 11 "/usr/include/x86_64-linux-gnu/gnu/stubs.h" 2 3 4
# 486 "/usr/include/features.h" 2 3 4
# 34 "/usr/include/x86_64-linux-gnu/bits/libc-header-start.h" 2 3 4
# 27 "/usr/include/string.h" 2 3 4






# 1 "/usr/lib/gcc/x86_64-linux-gnu/9/include/stddef.h" 1 3 4
# 209 "/usr/lib/gcc/x86_64-linux-gnu/9/include/stddef.h" 3 4

# 209 "/usr/lib/gcc/x86_64-linux-gnu/9/include/stddef.h" 3 4
typedef long unsigned int size_t;
# 34 "/usr/include/string.h" 2 3 4
# 43 "/usr/include/string.h" 3 4
extern void *memcpy (void *__restrict __dest, const void *__restrict __src,
       size_t __n) __attribute__ ((__nothrow__ , __leaf__)) __attribute__ ((__nonnull__ (1, 2)));


extern void *memmove (void *__dest, const void *__src, size_t __n)
     __attribute__ ((__nothrow__ , __leaf__)) __attribute__ ((__nonnull__ (1, 2)));





extern void *memccpy (void *__restrict __dest, const void *__restrict __src,
        int __c, size_t __n)
     __attribute__ ((__nothrow__ , __leaf__)) __attribute__ ((__nonnull__ (1, 2)));




extern void *memset (void *__s, int __c, size_t __n) __attribute__ ((__nothrow__ , __leaf__)) __attribute__ ((__nonnull__ (1)));


extern int memcmp (const void *__s1, const void *__s2, size_t __n)
     __attribute__ ((__nothrow__ , __leaf__)) __attribute__ ((__pure__)) __attribute__ ((__nonnull__ (1, 2)));
# 91 "/usr/include/string.h" 3 4
extern void *memchr (const void *__s, int __c, size_t __n)
      __attribute__ ((__nothrow__ , __leaf__)) __attribute__ ((__pure__)) __attribute__ ((__nonnull__ (1)));
# 122 "/usr/include/string.h" 3 4
extern char *strcpy (char *__restrict __dest, const char *__restrict __src)
     __attribute__ ((__nothrow__ , __leaf__)) __attribute__ ((__nonnull__ (1, 2)));

extern char *strncpy (char *__restrict __dest,
        const char *__restrict __src, size_t __n)
     __attribute__ ((__nothrow__ , __leaf__)) __attribute__ ((__nonnull__ (1, 2)));


extern char *strcat (char *__restrict __dest, const char *__restrict __src)
     __attribute__ ((__nothrow__ , __leaf__)) __attribute__ ((__nonnull__ (1, 2)));

extern char *strncat (char *__restrict __dest, const char *__restrict __src,
        size_t __n) __attribute__ ((__nothrow__ , __leaf__)) __attribute__ ((__nonnull__ (1, 2)));


extern int strcmp (const char *__s1, const char *__s2)
     __attribute__ ((__nothrow__ , __leaf__)) __attribute__ ((__pure__)) __attribute__ ((__nonnull__ (1, 2)));

extern int strncmp (const char *__s1, const char *__s2, size_t __n)
     __attribute__ ((__nothrow__ , __leaf__)) __attribute__ ((__pure__)) __attribute__ ((__nonnull__ (1, 2)));


extern int strcoll (const char *__s1, const char *__s2)
     __attribute__ ((__nothrow__ , __leaf__)) __attribute__ ((__pure__)) __attribute__ ((__nonnull__ (1, 2)));

extern size_t strxfrm (char *__restrict __dest,
         const char *__restrict __src, size_t __n)
     __attribute__ ((__nothrow__ , __leaf__)) __attribute__ ((__nonnull__ (2)));



# 1 "/usr/include/x86_64-linux-gnu/bits/types/locale_t.h" 1 3 4
# 22 "/usr/include/x86_64-linux-gnu/bits/types/locale_t.h" 3 4
# 1 "/usr/include/x86_64-linux-gnu/bits/types/__locale_t.h" 1 3 4
# 28 "/usr/include/x86_64-linux-gnu/bits/types/__locale_t.h" 3 4
struct __locale_struct
{

  struct __locale_data *__locales[13];


  const unsigned short int *__ctype_b;
  const int *__ctype_tolower;
  const int *__ctype_toupper;


  const char *__names[13];
};

typedef struct __locale_struct *__locale_t;
# 23 "/usr/include/x86_64-linux-gnu/bits/types/locale_t.h" 2 3 4

typedef __locale_t locale_t;
# 154 "/usr/include/string.h" 2 3 4


extern int strcoll_l (const char *__s1, const char *__s2, locale_t __l)
     __attribute__ ((__nothrow__ , __leaf__)) __attribute__ ((__pure__)) __attribute__ ((__nonnull__ (1, 2, 3)));


extern size_t strxfrm_l (char *__dest, const char *__src, size_t __n,
    locale_t __l) __attribute__ ((__nothrow__ , __leaf__)) __attribute__ ((__nonnull__ (2, 4)));





extern char *strdup (const char *__s)
     __attribute__ ((__nothrow__ , __leaf__)) __attribute__ ((__malloc__)) __attribute__ ((__nonnull__ (1)));






extern char *strndup (const char *__string, size_t __n)
     __attribute__ ((__nothrow__ , __leaf__)) __attribute__ ((__malloc__)) __attribute__ ((__nonnull__ (1)));
# 226 "/usr/include/string.h" 3 4
extern char *strchr (const char *__s, int __c)
     __attribute__ ((__nothrow__ , __leaf__)) __attribute__ ((__pure__)) __attribute__ ((__nonnull__ (1)));
# 253 "/usr/include/string.h" 3 4
extern char *strrchr (const char *__s, int __c)
     __attribute__ ((__nothrow__ , __leaf__)) __attribute__ ((__pure__)) __attribute__ ((__nonnull__ (1)));
# 273 "/usr/include/string.h" 3 4
extern size_t strcspn (const char *__s, const char *__reject)
     __attribute__ ((__nothrow__ , __leaf__)) __attribute__ ((__pure__)) __attribute__ ((__nonnull__ (1, 2)));


extern size_t strspn (const char *__s, const char *__accept)
     __attribute__ ((__nothrow__ , __leaf__)) __attribute__ ((__pure__)) __attribute__ ((__nonnull__ (1, 2)));
# 303 "/usr/include/string.h" 3 4
extern char *strpbrk (const char *__s, const char *__accept)
     __attribute__ ((__nothrow__ , __leaf__)) __attribute__ ((__pure__)) __attribute__ ((__nonnull__ (1, 2)));
# 330 "/usr/include/string.h" 3 4
extern char *strstr (const char *__haystack, const char *__needle)
     __attribute__ ((__nothrow__ , __leaf__)) __attribute__ ((__pure__)) __attribute__ ((__nonnull__ (1, 2)));




extern char *strtok (char *__restrict __s, const char *__restrict __delim)
     __attribute__ ((__nothrow__ , __leaf__)) __attribute__ ((__nonnull__ (2)));



extern char *__strtok_r (char *__restrict __s,
    const char *__restrict __delim,
    char **__restrict __save_ptr)
     __attribute__ ((__nothrow__ , __leaf__)) __attribute__ ((__nonnull__ (2, 3)));

extern char *strtok_r (char *__restrict __s, const char *__restrict __delim,
         char **__restrict __save_ptr)
     __attribute__ ((__nothrow__ , __leaf__)) __attribute__ ((__nonnull__ (2, 3)));
# 385 "/usr/include/string.h" 3 4
extern size_t strlen (const char *__s)
     __attribute__ ((__nothrow__ , __leaf__)) __attribute__ ((__pure__)) __attribute__ ((__nonnull__ (1)));




extern size_t strnlen (const char *__string, size_t __maxlen)
     __attribute__ ((__nothrow__ , __leaf__)) __attribute__ ((__pure__)) __attribute__ ((__nonnull__ (1)));




extern char *strerror (int __errnum) __attribute__ ((__nothrow__ , __leaf__));
# 410 "/usr/include/string.h" 3 4
extern int strerror_r (int __errnum, char *__buf, size_t __buflen) __asm__ ("" "__xpg_strerror_r") __attribute__ ((__nothrow__ , __leaf__))

                        __attribute__ ((__nonnull__ (2)));
# 428 "/usr/include/string.h" 3 4
extern char *strerror_l (int __errnum, locale_t __l) __attribute__ ((__nothrow__ , __leaf__));



# 1 "/usr/include/strings.h" 1 3 4
# 23 "/usr/include/strings.h" 3 4
# 1 "/usr/lib/gcc/x86_64-linux-gnu/9/include/stddef.h" 1 3 4
# 24 "/usr/include/strings.h" 2 3 4










extern int bcmp (const void *__s1, const void *__s2, size_t __n)
     __attribute__ ((__nothrow__ , __leaf__)) __attribute__ ((__pure__)) __attribute__ ((__nonnull__ (1, 2)));


extern void bcopy (const void *__src, void *__dest, size_t __n)
  __attribute__ ((__nothrow__ , __leaf__)) __attribute__ ((__nonnull__ (1, 2)));


extern void bzero (void *__s, size_t __n) __attribute__ ((__nothrow__ , __leaf__)) __attribute__ ((__nonnull__ (1)));
# 68 "/usr/include/strings.h" 3 4
extern char *index (const char *__s, int __c)
     __attribute__ ((__nothrow__ , __leaf__)) __attribute__ ((__pure__)) __attribute__ ((__nonnull__ (1)));
# 96 "/usr/include/strings.h" 3 4
extern char *rindex (const char *__s, int __c)
     __attribute__ ((__nothrow__ , __leaf__)) __attribute__ ((__pure__)) __attribute__ ((__nonnull__ (1)));






extern int ffs (int __i) __attribute__ ((__nothrow__ , __leaf__)) __attribute__ ((__const__));





extern int ffsl (long int __l) __attribute__ ((__nothrow__ , __leaf__)) __attribute__ ((__const__));
__extension__ extern int ffsll (long long int __ll)
     __attribute__ ((__nothrow__ , __leaf__)) __attribute__ ((__const__));



extern int strcasecmp (const char *__s1, const char *__s2)
     __attribute__ ((__nothrow__ , __leaf__)) __attribute__ ((__pure__)) __attribute__ ((__nonnull__ (1, 2)));


extern int strncasecmp (const char *__s1, const char *__s2, size_t __n)
     __attribute__ ((__nothrow__ , __leaf__)) __attribute__ ((__pure__)) __attribute__ ((__nonnull__ (1, 2)));






extern int strcasecmp_l (const char *__s1, const char *__s2, locale_t __loc)
     __attribute__ ((__nothrow__ , __leaf__)) __attribute__ ((__pure__)) __attribute__ ((__nonnull__ (1, 2, 3)));



extern int strncasecmp_l (const char *__s1, const char *__s2,
     size_t __n, locale_t __loc)
     __attribute__ ((__nothrow__ , __leaf__)) __attribute__ ((__pure__)) __attribute__ ((__nonnull__ (1, 2, 4)));








# 1 "/usr/include/x86_64-linux-gnu/bits/strings_fortified.h" 1 3 4
# 22 "/usr/include/x86_64-linux-gnu/bits/strings_fortified.h" 3 4
extern __inline __attribute__ ((__always_inline__)) __attribute__ ((__gnu_inline__)) __attribute__ ((__artificial__)) void
__attribute__ ((__nothrow__ , __leaf__)) bcopy (const void *__src, void *__dest, size_t __len)
{
  (void) __builtin___memmove_chk (__dest, __src, __len, __builtin_object_size (__dest, 0));
}

extern __inline __attribute__ ((__always_inline__)) __attribute__ ((__gnu_inline__)) __attribute__ ((__artificial__)) void
__attribute__ ((__nothrow__ , __leaf__)) bzero (void *__dest, size_t __len)
{
  (void) __builtin___memset_chk (__dest, '\0', __len, __builtin_object_size (__dest, 0));
}
# 145 "/usr/include/strings.h" 2 3 4
# 433 "/usr/include/string.h" 2 3 4



extern void explicit_bzero (void *__s, size_t __n) __attribute__ ((__nothrow__ , __leaf__)) __attribute__ ((__nonnull__ (1)));



extern char *strsep (char **__restrict __stringp,
       const char *__restrict __delim)
     __attribute__ ((__nothrow__ , __leaf__)) __attribute__ ((__nonnull__ (1, 2)));




extern char *strsignal (int __sig) __attribute__ ((__nothrow__ , __leaf__));


extern char *__stpcpy (char *__restrict __dest, const char *__restrict __src)
     __attribute__ ((__nothrow__ , __leaf__)) __attribute__ ((__nonnull__ (1, 2)));
extern char *stpcpy (char *__restrict __dest, const char *__restrict __src)
     __attribute__ ((__nothrow__ , __leaf__)) __attribute__ ((__nonnull__ (1, 2)));



extern char *__stpncpy (char *__restrict __dest,
   const char *__restrict __src, size_t __n)
     __attribute__ ((__nothrow__ , __leaf__)) __attribute__ ((__nonnull__ (1, 2)));
extern char *stpncpy (char *__restrict __dest,
        const char *__restrict __src, size_t __n)
     __attribute__ ((__nothrow__ , __leaf__)) __attribute__ ((__nonnull__ (1, 2)));
# 495 "/usr/include/string.h" 3 4
# 1 "/usr/include/x86_64-linux-gnu/bits/string_fortified.h" 1 3 4
# 30 "/usr/include/x86_64-linux-gnu/bits/string_fortified.h" 3 4
extern __inline __attribute__ ((__always_inline__)) __attribute__ ((__gnu_inline__)) __attribute__ ((__artificial__)) void *
__attribute__ ((__nothrow__ , __leaf__)) memcpy (void *__restrict __dest, const void *__restrict __src, size_t __len)

{
  return __builtin___memcpy_chk (__dest, __src, __len, __builtin_object_size (__dest, 0));
}

extern __inline __attribute__ ((__always_inline__)) __attribute__ ((__gnu_inline__)) __attribute__ ((__artificial__)) void *
__attribute__ ((__nothrow__ , __leaf__)) memmove (void *__dest, const void *__src, size_t __len)
{
  return __builtin___memmove_chk (__dest, __src, __len, __builtin_object_size (__dest, 0));
}
# 58 "/usr/include/x86_64-linux-gnu/bits/string_fortified.h" 3 4
extern __inline __attribute__ ((__always_inline__)) __attribute__ ((__gnu_inline__)) __attribute__ ((__artificial__)) void *
__attribute__ ((__nothrow__ , __leaf__)) memset (void *__dest, int __ch, size_t __len)
{
# 71 "/usr/include/x86_64-linux-gnu/bits/string_fortified.h" 3 4
  return __builtin___memset_chk (__dest, __ch, __len, __builtin_object_size (__dest, 0));
}




void __explicit_bzero_chk (void *__dest, size_t __len, size_t __destlen)
  __attribute__ ((__nothrow__ , __leaf__)) __attribute__ ((__nonnull__ (1)));

extern __inline __attribute__ ((__always_inline__)) __attribute__ ((__gnu_inline__)) __attribute__ ((__artificial__)) void
__attribute__ ((__nothrow__ , __leaf__)) explicit_bzero (void *__dest, size_t __len)
{
  __explicit_bzero_chk (__dest, __len, __builtin_object_size (__dest, 0));
}


extern __inline __attribute__ ((__always_inline__)) __attribute__ ((__gnu_inline__)) __attribute__ ((__artificial__)) char *
__attribute__ ((__nothrow__ , __leaf__)) strcpy (char *__restrict __dest, const char *__restrict __src)
{
  return __builtin___strcpy_chk (__dest, __src, __builtin_object_size (__dest, 2 > 1));
}
# 102 "/usr/include/x86_64-linux-gnu/bits/string_fortified.h" 3 4
extern __inline __attribute__ ((__always_inline__)) __attribute__ ((__gnu_inline__)) __attribute__ ((__artificial__)) char *
__attribute__ ((__nothrow__ , __leaf__)) strncpy (char *__restrict __dest, const char *__restrict __src, size_t __len)

{
  return __builtin___strncpy_chk (__dest, __src, __len, __builtin_object_size (__dest, 2 > 1));
}


extern char *__stpncpy_chk (char *__dest, const char *__src, size_t __n,
       size_t __destlen) __attribute__ ((__nothrow__ , __leaf__));
extern char *__stpncpy_alias (char *__dest, const char *__src, size_t __n) __asm__ ("" "stpncpy") __attribute__ ((__nothrow__ , __leaf__))
                                 ;

extern __inline __attribute__ ((__always_inline__)) __attribute__ ((__gnu_inline__)) __attribute__ ((__artificial__)) char *
__attribute__ ((__nothrow__ , __leaf__)) stpncpy (char *__dest, const char *__src, size_t __n)
{
  if (__builtin_object_size (__dest, 2 > 1) != (size_t) -1
      && (!__builtin_constant_p (__n) || __n > __builtin_object_size (__dest, 2 > 1)))
    return __stpncpy_chk (__dest, __src, __n, __builtin_object_size (__dest, 2 > 1));
  return __stpncpy_alias (__dest, __src, __n);
}


extern __inline __attribute__ ((__always_inline__)) __attribute__ ((__gnu_inline__)) __attribute__ ((__artificial__)) char *
__attribute__ ((__nothrow__ , __leaf__)) strcat (char *__restrict __dest, const char *__restrict __src)
{
  return __builtin___strcat_chk (__dest, __src, __builtin_object_size (__dest, 2 > 1));
}


extern __inline __attribute__ ((__always_inline__)) __attribute__ ((__gnu_inline__)) __attribute__ ((__artificial__)) char *
__attribute__ ((__nothrow__ , __leaf__)) strncat (char *__restrict __dest, const char *__restrict __src, size_t __len)

{
  return __builtin___strncat_chk (__dest, __src, __len, __builtin_object_size (__dest, 2 > 1));
}
# 496 "/usr/include/string.h" 2 3 4




# 27 "../deps/brotli/c/enc/./../common/platform.h" 2
# 1 "/usr/include/stdlib.h" 1 3 4
# 25 "/usr/include/stdlib.h" 3 4
# 1 "/usr/include/x86_64-linux-gnu/bits/libc-header-start.h" 1 3 4
# 26 "/usr/include/stdlib.h" 2 3 4





# 1 "/usr/lib/gcc/x86_64-linux-gnu/9/include/stddef.h" 1 3 4
# 321 "/usr/lib/gcc/x86_64-linux-gnu/9/include/stddef.h" 3 4
typedef int wchar_t;
# 32 "/usr/include/stdlib.h" 2 3 4







# 1 "/usr/include/x86_64-linux-gnu/bits/waitflags.h" 1 3 4
# 52 "/usr/include/x86_64-linux-gnu/bits/waitflags.h" 3 4
typedef enum
{
  P_ALL,
  P_PID,
  P_PGID
} idtype_t;
# 40 "/usr/include/stdlib.h" 2 3 4
# 1 "/usr/include/x86_64-linux-gnu/bits/waitstatus.h" 1 3 4
# 41 "/usr/include/stdlib.h" 2 3 4
# 55 "/usr/include/stdlib.h" 3 4
# 1 "/usr/include/x86_64-linux-gnu/bits/floatn.h" 1 3 4
# 120 "/usr/include/x86_64-linux-gnu/bits/floatn.h" 3 4
# 1 "/usr/include/x86_64-linux-gnu/bits/floatn-common.h" 1 3 4
# 24 "/usr/include/x86_64-linux-gnu/bits/floatn-common.h" 3 4
# 1 "/usr/include/x86_64-linux-gnu/bits/long-double.h" 1 3 4
# 25 "/usr/include/x86_64-linux-gnu/bits/floatn-common.h" 2 3 4
# 121 "/usr/include/x86_64-linux-gnu/bits/floatn.h" 2 3 4
# 56 "/usr/include/stdlib.h" 2 3 4


typedef struct
  {
    int quot;
    int rem;
  } div_t;



typedef struct
  {
    long int quot;
    long int rem;
  } ldiv_t;





__extension__ typedef struct
  {
    long long int quot;
    long long int rem;
  } lldiv_t;
# 97 "/usr/include/stdlib.h" 3 4
extern size_t __ctype_get_mb_cur_max (void) __attribute__ ((__nothrow__ , __leaf__)) __attribute__ ((__warn_unused_result__));



extern double atof (const char *__nptr)
     __attribute__ ((__nothrow__ , __leaf__)) __attribute__ ((__pure__)) __attribute__ ((__nonnull__ (1))) __attribute__ ((__warn_unused_result__));

extern int atoi (const char *__nptr)
     __attribute__ ((__nothrow__ , __leaf__)) __attribute__ ((__pure__)) __attribute__ ((__nonnull__ (1))) __attribute__ ((__warn_unused_result__));

extern long int atol (const char *__nptr)
     __attribute__ ((__nothrow__ , __leaf__)) __attribute__ ((__pure__)) __attribute__ ((__nonnull__ (1))) __attribute__ ((__warn_unused_result__));



__extension__ extern long long int atoll (const char *__nptr)
     __attribute__ ((__nothrow__ , __leaf__)) __attribute__ ((__pure__)) __attribute__ ((__nonnull__ (1))) __attribute__ ((__warn_unused_result__));



extern double strtod (const char *__restrict __nptr,
        char **__restrict __endptr)
     __attribute__ ((__nothrow__ , __leaf__)) __attribute__ ((__nonnull__ (1)));



extern float strtof (const char *__restrict __nptr,
       char **__restrict __endptr) __attribute__ ((__nothrow__ , __leaf__)) __attribute__ ((__nonnull__ (1)));

extern long double strtold (const char *__restrict __nptr,
       char **__restrict __endptr)
     __attribute__ ((__nothrow__ , __leaf__)) __attribute__ ((__nonnull__ (1)));
# 176 "/usr/include/stdlib.h" 3 4
extern long int strtol (const char *__restrict __nptr,
   char **__restrict __endptr, int __base)
     __attribute__ ((__nothrow__ , __leaf__)) __attribute__ ((__nonnull__ (1)));

extern unsigned long int strtoul (const char *__restrict __nptr,
      char **__restrict __endptr, int __base)
     __attribute__ ((__nothrow__ , __leaf__)) __attribute__ ((__nonnull__ (1)));



__extension__
extern long long int strtoq (const char *__restrict __nptr,
        char **__restrict __endptr, int __base)
     __attribute__ ((__nothrow__ , __leaf__)) __attribute__ ((__nonnull__ (1)));

__extension__
extern unsigned long long int strtouq (const char *__restrict __nptr,
           char **__restrict __endptr, int __base)
     __attribute__ ((__nothrow__ , __leaf__)) __attribute__ ((__nonnull__ (1)));




__extension__
extern long long int strtoll (const char *__restrict __nptr,
         char **__restrict __endptr, int __base)
     __attribute__ ((__nothrow__ , __leaf__)) __attribute__ ((__nonnull__ (1)));

__extension__
extern unsigned long long int strtoull (const char *__restrict __nptr,
     char **__restrict __endptr, int __base)
     __attribute__ ((__nothrow__ , __leaf__)) __attribute__ ((__nonnull__ (1)));
# 360 "/usr/include/stdlib.h" 3 4
extern __inline __attribute__ ((__gnu_inline__)) int
__attribute__ ((__nothrow__ , __leaf__)) atoi (const char *__nptr)
{
  return (int) strtol (__nptr, (char **) ((void *)0), 10);
}
extern __inline __attribute__ ((__gnu_inline__)) long int
__attribute__ ((__nothrow__ , __leaf__)) atol (const char *__nptr)
{
  return strtol (__nptr, (char **) ((void *)0), 10);
}


__extension__ extern __inline __attribute__ ((__gnu_inline__)) long long int
__attribute__ ((__nothrow__ , __leaf__)) atoll (const char *__nptr)
{
  return strtoll (__nptr, (char **) ((void *)0), 10);
}
# 385 "/usr/include/stdlib.h" 3 4
extern char *l64a (long int __n) __attribute__ ((__nothrow__ , __leaf__)) __attribute__ ((__warn_unused_result__));


extern long int a64l (const char *__s)
     __attribute__ ((__nothrow__ , __leaf__)) __attribute__ ((__pure__)) __attribute__ ((__nonnull__ (1))) __attribute__ ((__warn_unused_result__));




# 1 "/usr/include/x86_64-linux-gnu/sys/types.h" 1 3 4
# 27 "/usr/include/x86_64-linux-gnu/sys/types.h" 3 4


# 1 "/usr/include/x86_64-linux-gnu/bits/types.h" 1 3 4
# 27 "/usr/include/x86_64-linux-gnu/bits/types.h" 3 4
# 1 "/usr/include/x86_64-linux-gnu/bits/wordsize.h" 1 3 4
# 28 "/usr/include/x86_64-linux-gnu/bits/types.h" 2 3 4
# 1 "/usr/include/x86_64-linux-gnu/bits/timesize.h" 1 3 4
# 29 "/usr/include/x86_64-linux-gnu/bits/types.h" 2 3 4


typedef unsigned char __u_char;
typedef unsigned short int __u_short;
typedef unsigned int __u_int;
typedef unsigned long int __u_long;


typedef signed char __int8_t;
typedef unsigned char __uint8_t;
typedef signed short int __int16_t;
typedef unsigned short int __uint16_t;
typedef signed int __int32_t;
typedef unsigned int __uint32_t;

typedef signed long int __int64_t;
typedef unsigned long int __uint64_t;






typedef __int8_t __int_least8_t;
typedef __uint8_t __uint_least8_t;
typedef __int16_t __int_least16_t;
typedef __uint16_t __uint_least16_t;
typedef __int32_t __int_least32_t;
typedef __uint32_t __uint_least32_t;
typedef __int64_t __int_least64_t;
typedef __uint64_t __uint_least64_t;



typedef long int __quad_t;
typedef unsigned long int __u_quad_t;







typedef long int __intmax_t;
typedef unsigned long int __uintmax_t;
# 141 "/usr/include/x86_64-linux-gnu/bits/types.h" 3 4
# 1 "/usr/include/x86_64-linux-gnu/bits/typesizes.h" 1 3 4
# 142 "/usr/include/x86_64-linux-gnu/bits/types.h" 2 3 4
# 1 "/usr/include/x86_64-linux-gnu/bits/time64.h" 1 3 4
# 143 "/usr/include/x86_64-linux-gnu/bits/types.h" 2 3 4


typedef unsigned long int __dev_t;
typedef unsigned int __uid_t;
typedef unsigned int __gid_t;
typedef unsigned long int __ino_t;
typedef unsigned long int __ino64_t;
typedef unsigned int __mode_t;
typedef unsigned long int __nlink_t;
typedef long int __off_t;
typedef long int __off64_t;
typedef int __pid_t;
typedef struct { int __val[2]; } __fsid_t;
typedef long int __clock_t;
typedef unsigned long int __rlim_t;
typedef unsigned long int __rlim64_t;
typedef unsigned int __id_t;
typedef long int __time_t;
typedef unsigned int __useconds_t;
typedef long int __suseconds_t;

typedef int __daddr_t;
typedef int __key_t;


typedef int __clockid_t;


typedef void * __timer_t;


typedef long int __blksize_t;




typedef long int __blkcnt_t;
typedef long int __blkcnt64_t;


typedef unsigned long int __fsblkcnt_t;
typedef unsigned long int __fsblkcnt64_t;


typedef unsigned long int __fsfilcnt_t;
typedef unsigned long int __fsfilcnt64_t;


typedef long int __fsword_t;

typedef long int __ssize_t;


typedef long int __syscall_slong_t;

typedef unsigned long int __syscall_ulong_t;



typedef __off64_t __loff_t;
typedef char *__caddr_t;


typedef long int __intptr_t;


typedef unsigned int __socklen_t;




typedef int __sig_atomic_t;
# 30 "/usr/include/x86_64-linux-gnu/sys/types.h" 2 3 4



typedef __u_char u_char;
typedef __u_short u_short;
typedef __u_int u_int;
typedef __u_long u_long;
typedef __quad_t quad_t;
typedef __u_quad_t u_quad_t;
typedef __fsid_t fsid_t;


typedef __loff_t loff_t;




typedef __ino_t ino_t;
# 59 "/usr/include/x86_64-linux-gnu/sys/types.h" 3 4
typedef __dev_t dev_t;




typedef __gid_t gid_t;




typedef __mode_t mode_t;




typedef __nlink_t nlink_t;




typedef __uid_t uid_t;





typedef __off_t off_t;
# 97 "/usr/include/x86_64-linux-gnu/sys/types.h" 3 4
typedef __pid_t pid_t;





typedef __id_t id_t;




typedef __ssize_t ssize_t;





typedef __daddr_t daddr_t;
typedef __caddr_t caddr_t;





typedef __key_t key_t;




# 1 "/usr/include/x86_64-linux-gnu/bits/types/clock_t.h" 1 3 4






typedef __clock_t clock_t;
# 127 "/usr/include/x86_64-linux-gnu/sys/types.h" 2 3 4

# 1 "/usr/include/x86_64-linux-gnu/bits/types/clockid_t.h" 1 3 4






typedef __clockid_t clockid_t;
# 129 "/usr/include/x86_64-linux-gnu/sys/types.h" 2 3 4
# 1 "/usr/include/x86_64-linux-gnu/bits/types/time_t.h" 1 3 4






typedef __time_t time_t;
# 130 "/usr/include/x86_64-linux-gnu/sys/types.h" 2 3 4
# 1 "/usr/include/x86_64-linux-gnu/bits/types/timer_t.h" 1 3 4






typedef __timer_t timer_t;
# 131 "/usr/include/x86_64-linux-gnu/sys/types.h" 2 3 4
# 144 "/usr/include/x86_64-linux-gnu/sys/types.h" 3 4
# 1 "/usr/lib/gcc/x86_64-linux-gnu/9/include/stddef.h" 1 3 4
# 145 "/usr/include/x86_64-linux-gnu/sys/types.h" 2 3 4



typedef unsigned long int ulong;
typedef unsigned short int ushort;
typedef unsigned int uint;




# 1 "/usr/include/x86_64-linux-gnu/bits/stdint-intn.h" 1 3 4
# 24 "/usr/include/x86_64-linux-gnu/bits/stdint-intn.h" 3 4
typedef __int8_t int8_t;
typedef __int16_t int16_t;
typedef __int32_t int32_t;
typedef __int64_t int64_t;
# 156 "/usr/include/x86_64-linux-gnu/sys/types.h" 2 3 4


typedef __uint8_t u_int8_t;
typedef __uint16_t u_int16_t;
typedef __uint32_t u_int32_t;
typedef __uint64_t u_int64_t;


typedef int register_t __attribute__ ((__mode__ (__word__)));
# 176 "/usr/include/x86_64-linux-gnu/sys/types.h" 3 4
# 1 "/usr/include/endian.h" 1 3 4
# 24 "/usr/include/endian.h" 3 4
# 1 "/usr/include/x86_64-linux-gnu/bits/endian.h" 1 3 4
# 35 "/usr/include/x86_64-linux-gnu/bits/endian.h" 3 4
# 1 "/usr/include/x86_64-linux-gnu/bits/endianness.h" 1 3 4
# 36 "/usr/include/x86_64-linux-gnu/bits/endian.h" 2 3 4
# 25 "/usr/include/endian.h" 2 3 4
# 35 "/usr/include/endian.h" 3 4
# 1 "/usr/include/x86_64-linux-gnu/bits/byteswap.h" 1 3 4
# 33 "/usr/include/x86_64-linux-gnu/bits/byteswap.h" 3 4
static __inline __uint16_t
__bswap_16 (__uint16_t __bsx)
{

  return __builtin_bswap16 (__bsx);



}






static __inline __uint32_t
__bswap_32 (__uint32_t __bsx)
{

  return __builtin_bswap32 (__bsx);



}
# 69 "/usr/include/x86_64-linux-gnu/bits/byteswap.h" 3 4
__extension__ static __inline __uint64_t
__bswap_64 (__uint64_t __bsx)
{

  return __builtin_bswap64 (__bsx);



}
# 36 "/usr/include/endian.h" 2 3 4
# 1 "/usr/include/x86_64-linux-gnu/bits/uintn-identity.h" 1 3 4
# 32 "/usr/include/x86_64-linux-gnu/bits/uintn-identity.h" 3 4
static __inline __uint16_t
__uint16_identity (__uint16_t __x)
{
  return __x;
}

static __inline __uint32_t
__uint32_identity (__uint32_t __x)
{
  return __x;
}

static __inline __uint64_t
__uint64_identity (__uint64_t __x)
{
  return __x;
}
# 37 "/usr/include/endian.h" 2 3 4
# 177 "/usr/include/x86_64-linux-gnu/sys/types.h" 2 3 4


# 1 "/usr/include/x86_64-linux-gnu/sys/select.h" 1 3 4
# 30 "/usr/include/x86_64-linux-gnu/sys/select.h" 3 4
# 1 "/usr/include/x86_64-linux-gnu/bits/select.h" 1 3 4
# 22 "/usr/include/x86_64-linux-gnu/bits/select.h" 3 4
# 1 "/usr/include/x86_64-linux-gnu/bits/wordsize.h" 1 3 4
# 23 "/usr/include/x86_64-linux-gnu/bits/select.h" 2 3 4
# 31 "/usr/include/x86_64-linux-gnu/sys/select.h" 2 3 4


# 1 "/usr/include/x86_64-linux-gnu/bits/types/sigset_t.h" 1 3 4



# 1 "/usr/include/x86_64-linux-gnu/bits/types/__sigset_t.h" 1 3 4




typedef struct
{
  unsigned long int __val[(1024 / (8 * sizeof (unsigned long int)))];
} __sigset_t;
# 5 "/usr/include/x86_64-linux-gnu/bits/types/sigset_t.h" 2 3 4


typedef __sigset_t sigset_t;
# 34 "/usr/include/x86_64-linux-gnu/sys/select.h" 2 3 4



# 1 "/usr/include/x86_64-linux-gnu/bits/types/struct_timeval.h" 1 3 4







struct timeval
{
  __time_t tv_sec;
  __suseconds_t tv_usec;
};
# 38 "/usr/include/x86_64-linux-gnu/sys/select.h" 2 3 4

# 1 "/usr/include/x86_64-linux-gnu/bits/types/struct_timespec.h" 1 3 4
# 10 "/usr/include/x86_64-linux-gnu/bits/types/struct_timespec.h" 3 4
struct timespec
{
  __time_t tv_sec;



  __syscall_slong_t tv_nsec;
# 26 "/usr/include/x86_64-linux-gnu/bits/types/struct_timespec.h" 3 4
};
# 40 "/usr/include/x86_64-linux-gnu/sys/select.h" 2 3 4



typedef __suseconds_t suseconds_t;





typedef long int __fd_mask;
# 59 "/usr/include/x86_64-linux-gnu/sys/select.h" 3 4
typedef struct
  {






    __fd_mask __fds_bits[1024 / (8 * (int) sizeof (__fd_mask))];


  } fd_set;






typedef __fd_mask fd_mask;
# 91 "/usr/include/x86_64-linux-gnu/sys/select.h" 3 4

# 101 "/usr/include/x86_64-linux-gnu/sys/select.h" 3 4
extern int select (int __nfds, fd_set *__restrict __readfds,
     fd_set *__restrict __writefds,
     fd_set *__restrict __exceptfds,
     struct timeval *__restrict __timeout);
# 113 "/usr/include/x86_64-linux-gnu/sys/select.h" 3 4
extern int pselect (int __nfds, fd_set *__restrict __readfds,
      fd_set *__restrict __writefds,
      fd_set *__restrict __exceptfds,
      const struct timespec *__restrict __timeout,
      const __sigset_t *__restrict __sigmask);





# 1 "/usr/include/x86_64-linux-gnu/bits/select2.h" 1 3 4
# 24 "/usr/include/x86_64-linux-gnu/bits/select2.h" 3 4
extern long int __fdelt_chk (long int __d);
extern long int __fdelt_warn (long int __d)
  __attribute__((__warning__ ("bit outside of fd_set selected")));
# 124 "/usr/include/x86_64-linux-gnu/sys/select.h" 2 3 4



# 180 "/usr/include/x86_64-linux-gnu/sys/types.h" 2 3 4





typedef __blksize_t blksize_t;






typedef __blkcnt_t blkcnt_t;



typedef __fsblkcnt_t fsblkcnt_t;



typedef __fsfilcnt_t fsfilcnt_t;
# 227 "/usr/include/x86_64-linux-gnu/sys/types.h" 3 4
# 1 "/usr/include/x86_64-linux-gnu/bits/pthreadtypes.h" 1 3 4
# 23 "/usr/include/x86_64-linux-gnu/bits/pthreadtypes.h" 3 4
# 1 "/usr/include/x86_64-linux-gnu/bits/thread-shared-types.h" 1 3 4
# 44 "/usr/include/x86_64-linux-gnu/bits/thread-shared-types.h" 3 4
# 1 "/usr/include/x86_64-linux-gnu/bits/pthreadtypes-arch.h" 1 3 4
# 21 "/usr/include/x86_64-linux-gnu/bits/pthreadtypes-arch.h" 3 4
# 1 "/usr/include/x86_64-linux-gnu/bits/wordsize.h" 1 3 4
# 22 "/usr/include/x86_64-linux-gnu/bits/pthreadtypes-arch.h" 2 3 4
# 45 "/usr/include/x86_64-linux-gnu/bits/thread-shared-types.h" 2 3 4




typedef struct __pthread_internal_list
{
  struct __pthread_internal_list *__prev;
  struct __pthread_internal_list *__next;
} __pthread_list_t;

typedef struct __pthread_internal_slist
{
  struct __pthread_internal_slist *__next;
} __pthread_slist_t;
# 74 "/usr/include/x86_64-linux-gnu/bits/thread-shared-types.h" 3 4
# 1 "/usr/include/x86_64-linux-gnu/bits/struct_mutex.h" 1 3 4
# 22 "/usr/include/x86_64-linux-gnu/bits/struct_mutex.h" 3 4
struct __pthread_mutex_s
{
  int __lock;
  unsigned int __count;
  int __owner;

  unsigned int __nusers;



  int __kind;

  short __spins;
  short __elision;
  __pthread_list_t __list;
# 53 "/usr/include/x86_64-linux-gnu/bits/struct_mutex.h" 3 4
};
# 75 "/usr/include/x86_64-linux-gnu/bits/thread-shared-types.h" 2 3 4
# 87 "/usr/include/x86_64-linux-gnu/bits/thread-shared-types.h" 3 4
# 1 "/usr/include/x86_64-linux-gnu/bits/struct_rwlock.h" 1 3 4
# 23 "/usr/include/x86_64-linux-gnu/bits/struct_rwlock.h" 3 4
struct __pthread_rwlock_arch_t
{
  unsigned int __readers;
  unsigned int __writers;
  unsigned int __wrphase_futex;
  unsigned int __writers_futex;
  unsigned int __pad3;
  unsigned int __pad4;

  int __cur_writer;
  int __shared;
  signed char __rwelision;




  unsigned char __pad1[7];


  unsigned long int __pad2;


  unsigned int __flags;
# 55 "/usr/include/x86_64-linux-gnu/bits/struct_rwlock.h" 3 4
};
# 88 "/usr/include/x86_64-linux-gnu/bits/thread-shared-types.h" 2 3 4




struct __pthread_cond_s
{
  __extension__ union
  {
    __extension__ unsigned long long int __wseq;
    struct
    {
      unsigned int __low;
      unsigned int __high;
    } __wseq32;
  };
  __extension__ union
  {
    __extension__ unsigned long long int __g1_start;
    struct
    {
      unsigned int __low;
      unsigned int __high;
    } __g1_start32;
  };
  unsigned int __g_refs[2] ;
  unsigned int __g_size[2];
  unsigned int __g1_orig_size;
  unsigned int __wrefs;
  unsigned int __g_signals[2];
};
# 24 "/usr/include/x86_64-linux-gnu/bits/pthreadtypes.h" 2 3 4



typedef unsigned long int pthread_t;




typedef union
{
  char __size[4];
  int __align;
} pthread_mutexattr_t;




typedef union
{
  char __size[4];
  int __align;
} pthread_condattr_t;



typedef unsigned int pthread_key_t;



typedef int pthread_once_t;


union pthread_attr_t
{
  char __size[56];
  long int __align;
};

typedef union pthread_attr_t pthread_attr_t;




typedef union
{
  struct __pthread_mutex_s __data;
  char __size[40];
  long int __align;
} pthread_mutex_t;


typedef union
{
  struct __pthread_cond_s __data;
  char __size[48];
  __extension__ long long int __align;
} pthread_cond_t;





typedef union
{
  struct __pthread_rwlock_arch_t __data;
  char __size[56];
  long int __align;
} pthread_rwlock_t;

typedef union
{
  char __size[8];
  long int __align;
} pthread_rwlockattr_t;





typedef volatile int pthread_spinlock_t;




typedef union
{
  char __size[32];
  long int __align;
} pthread_barrier_t;

typedef union
{
  char __size[4];
  int __align;
} pthread_barrierattr_t;
# 228 "/usr/include/x86_64-linux-gnu/sys/types.h" 2 3 4



# 395 "/usr/include/stdlib.h" 2 3 4






extern long int random (void) __attribute__ ((__nothrow__ , __leaf__));


extern void srandom (unsigned int __seed) __attribute__ ((__nothrow__ , __leaf__));





extern char *initstate (unsigned int __seed, char *__statebuf,
   size_t __statelen) __attribute__ ((__nothrow__ , __leaf__)) __attribute__ ((__nonnull__ (2)));



extern char *setstate (char *__statebuf) __attribute__ ((__nothrow__ , __leaf__)) __attribute__ ((__nonnull__ (1)));







struct random_data
  {
    int32_t *fptr;
    int32_t *rptr;
    int32_t *state;
    int rand_type;
    int rand_deg;
    int rand_sep;
    int32_t *end_ptr;
  };

extern int random_r (struct random_data *__restrict __buf,
       int32_t *__restrict __result) __attribute__ ((__nothrow__ , __leaf__)) __attribute__ ((__nonnull__ (1, 2)));

extern int srandom_r (unsigned int __seed, struct random_data *__buf)
     __attribute__ ((__nothrow__ , __leaf__)) __attribute__ ((__nonnull__ (2)));

extern int initstate_r (unsigned int __seed, char *__restrict __statebuf,
   size_t __statelen,
   struct random_data *__restrict __buf)
     __attribute__ ((__nothrow__ , __leaf__)) __attribute__ ((__nonnull__ (2, 4)));

extern int setstate_r (char *__restrict __statebuf,
         struct random_data *__restrict __buf)
     __attribute__ ((__nothrow__ , __leaf__)) __attribute__ ((__nonnull__ (1, 2)));





extern int rand (void) __attribute__ ((__nothrow__ , __leaf__));

extern void srand (unsigned int __seed) __attribute__ ((__nothrow__ , __leaf__));



extern int rand_r (unsigned int *__seed) __attribute__ ((__nothrow__ , __leaf__));







extern double drand48 (void) __attribute__ ((__nothrow__ , __leaf__));
extern double erand48 (unsigned short int __xsubi[3]) __attribute__ ((__nothrow__ , __leaf__)) __attribute__ ((__nonnull__ (1)));


extern long int lrand48 (void) __attribute__ ((__nothrow__ , __leaf__));
extern long int nrand48 (unsigned short int __xsubi[3])
     __attribute__ ((__nothrow__ , __leaf__)) __attribute__ ((__nonnull__ (1)));


extern long int mrand48 (void) __attribute__ ((__nothrow__ , __leaf__));
extern long int jrand48 (unsigned short int __xsubi[3])
     __attribute__ ((__nothrow__ , __leaf__)) __attribute__ ((__nonnull__ (1)));


extern void srand48 (long int __seedval) __attribute__ ((__nothrow__ , __leaf__));
extern unsigned short int *seed48 (unsigned short int __seed16v[3])
     __attribute__ ((__nothrow__ , __leaf__)) __attribute__ ((__nonnull__ (1)));
extern void lcong48 (unsigned short int __param[7]) __attribute__ ((__nothrow__ , __leaf__)) __attribute__ ((__nonnull__ (1)));





struct drand48_data
  {
    unsigned short int __x[3];
    unsigned short int __old_x[3];
    unsigned short int __c;
    unsigned short int __init;
    __extension__ unsigned long long int __a;

  };


extern int drand48_r (struct drand48_data *__restrict __buffer,
        double *__restrict __result) __attribute__ ((__nothrow__ , __leaf__)) __attribute__ ((__nonnull__ (1, 2)));
extern int erand48_r (unsigned short int __xsubi[3],
        struct drand48_data *__restrict __buffer,
        double *__restrict __result) __attribute__ ((__nothrow__ , __leaf__)) __attribute__ ((__nonnull__ (1, 2)));


extern int lrand48_r (struct drand48_data *__restrict __buffer,
        long int *__restrict __result)
     __attribute__ ((__nothrow__ , __leaf__)) __attribute__ ((__nonnull__ (1, 2)));
extern int nrand48_r (unsigned short int __xsubi[3],
        struct drand48_data *__restrict __buffer,
        long int *__restrict __result)
     __attribute__ ((__nothrow__ , __leaf__)) __attribute__ ((__nonnull__ (1, 2)));


extern int mrand48_r (struct drand48_data *__restrict __buffer,
        long int *__restrict __result)
     __attribute__ ((__nothrow__ , __leaf__)) __attribute__ ((__nonnull__ (1, 2)));
extern int jrand48_r (unsigned short int __xsubi[3],
        struct drand48_data *__restrict __buffer,
        long int *__restrict __result)
     __attribute__ ((__nothrow__ , __leaf__)) __attribute__ ((__nonnull__ (1, 2)));


extern int srand48_r (long int __seedval, struct drand48_data *__buffer)
     __attribute__ ((__nothrow__ , __leaf__)) __attribute__ ((__nonnull__ (2)));

extern int seed48_r (unsigned short int __seed16v[3],
       struct drand48_data *__buffer) __attribute__ ((__nothrow__ , __leaf__)) __attribute__ ((__nonnull__ (1, 2)));

extern int lcong48_r (unsigned short int __param[7],
        struct drand48_data *__buffer)
     __attribute__ ((__nothrow__ , __leaf__)) __attribute__ ((__nonnull__ (1, 2)));




extern void *malloc (size_t __size) __attribute__ ((__nothrow__ , __leaf__)) __attribute__ ((__malloc__))
     __attribute__ ((__alloc_size__ (1))) __attribute__ ((__warn_unused_result__));

extern void *calloc (size_t __nmemb, size_t __size)
     __attribute__ ((__nothrow__ , __leaf__)) __attribute__ ((__malloc__)) __attribute__ ((__alloc_size__ (1, 2))) __attribute__ ((__warn_unused_result__));






extern void *realloc (void *__ptr, size_t __size)
     __attribute__ ((__nothrow__ , __leaf__)) __attribute__ ((__warn_unused_result__)) __attribute__ ((__alloc_size__ (2)));







extern void *reallocarray (void *__ptr, size_t __nmemb, size_t __size)
     __attribute__ ((__nothrow__ , __leaf__)) __attribute__ ((__warn_unused_result__))
     __attribute__ ((__alloc_size__ (2, 3)));



extern void free (void *__ptr) __attribute__ ((__nothrow__ , __leaf__));


# 1 "/usr/include/alloca.h" 1 3 4
# 24 "/usr/include/alloca.h" 3 4
# 1 "/usr/lib/gcc/x86_64-linux-gnu/9/include/stddef.h" 1 3 4
# 25 "/usr/include/alloca.h" 2 3 4







extern void *alloca (size_t __size) __attribute__ ((__nothrow__ , __leaf__));






# 569 "/usr/include/stdlib.h" 2 3 4





extern void *valloc (size_t __size) __attribute__ ((__nothrow__ , __leaf__)) __attribute__ ((__malloc__))
     __attribute__ ((__alloc_size__ (1))) __attribute__ ((__warn_unused_result__));




extern int posix_memalign (void **__memptr, size_t __alignment, size_t __size)
     __attribute__ ((__nothrow__ , __leaf__)) __attribute__ ((__nonnull__ (1))) __attribute__ ((__warn_unused_result__));




extern void *aligned_alloc (size_t __alignment, size_t __size)
     __attribute__ ((__nothrow__ , __leaf__)) __attribute__ ((__malloc__)) __attribute__ ((__alloc_size__ (2))) __attribute__ ((__warn_unused_result__));



extern void abort (void) __attribute__ ((__nothrow__ , __leaf__)) __attribute__ ((__noreturn__));



extern int atexit (void (*__func) (void)) __attribute__ ((__nothrow__ , __leaf__)) __attribute__ ((__nonnull__ (1)));







extern int at_quick_exit (void (*__func) (void)) __attribute__ ((__nothrow__ , __leaf__)) __attribute__ ((__nonnull__ (1)));






extern int on_exit (void (*__func) (int __status, void *__arg), void *__arg)
     __attribute__ ((__nothrow__ , __leaf__)) __attribute__ ((__nonnull__ (1)));





extern void exit (int __status) __attribute__ ((__nothrow__ , __leaf__)) __attribute__ ((__noreturn__));





extern void quick_exit (int __status) __attribute__ ((__nothrow__ , __leaf__)) __attribute__ ((__noreturn__));





extern void _Exit (int __status) __attribute__ ((__nothrow__ , __leaf__)) __attribute__ ((__noreturn__));




extern char *getenv (const char *__name) __attribute__ ((__nothrow__ , __leaf__)) __attribute__ ((__nonnull__ (1))) __attribute__ ((__warn_unused_result__));
# 647 "/usr/include/stdlib.h" 3 4
extern int putenv (char *__string) __attribute__ ((__nothrow__ , __leaf__)) __attribute__ ((__nonnull__ (1)));





extern int setenv (const char *__name, const char *__value, int __replace)
     __attribute__ ((__nothrow__ , __leaf__)) __attribute__ ((__nonnull__ (2)));


extern int unsetenv (const char *__name) __attribute__ ((__nothrow__ , __leaf__)) __attribute__ ((__nonnull__ (1)));






extern int clearenv (void) __attribute__ ((__nothrow__ , __leaf__));
# 675 "/usr/include/stdlib.h" 3 4
extern char *mktemp (char *__template) __attribute__ ((__nothrow__ , __leaf__)) __attribute__ ((__nonnull__ (1)));
# 688 "/usr/include/stdlib.h" 3 4
extern int mkstemp (char *__template) __attribute__ ((__nonnull__ (1))) __attribute__ ((__warn_unused_result__));
# 710 "/usr/include/stdlib.h" 3 4
extern int mkstemps (char *__template, int __suffixlen) __attribute__ ((__nonnull__ (1))) __attribute__ ((__warn_unused_result__));
# 731 "/usr/include/stdlib.h" 3 4
extern char *mkdtemp (char *__template) __attribute__ ((__nothrow__ , __leaf__)) __attribute__ ((__nonnull__ (1))) __attribute__ ((__warn_unused_result__));
# 784 "/usr/include/stdlib.h" 3 4
extern int system (const char *__command) __attribute__ ((__warn_unused_result__));
# 800 "/usr/include/stdlib.h" 3 4
extern char *realpath (const char *__restrict __name,
         char *__restrict __resolved) __attribute__ ((__nothrow__ , __leaf__)) __attribute__ ((__warn_unused_result__));






typedef int (*__compar_fn_t) (const void *, const void *);
# 820 "/usr/include/stdlib.h" 3 4
extern void *bsearch (const void *__key, const void *__base,
        size_t __nmemb, size_t __size, __compar_fn_t __compar)
     __attribute__ ((__nonnull__ (1, 2, 5))) __attribute__ ((__warn_unused_result__));


# 1 "/usr/include/x86_64-linux-gnu/bits/stdlib-bsearch.h" 1 3 4
# 19 "/usr/include/x86_64-linux-gnu/bits/stdlib-bsearch.h" 3 4
extern __inline __attribute__ ((__gnu_inline__)) void *
bsearch (const void *__key, const void *__base, size_t __nmemb, size_t __size,
  __compar_fn_t __compar)
{
  size_t __l, __u, __idx;
  const void *__p;
  int __comparison;

  __l = 0;
  __u = __nmemb;
  while (__l < __u)
    {
      __idx = (__l + __u) / 2;
      __p = (void *) (((const char *) __base) + (__idx * __size));
      __comparison = (*__compar) (__key, __p);
      if (__comparison < 0)
 __u = __idx;
      else if (__comparison > 0)
 __l = __idx + 1;
      else
 return (void *) __p;
    }

  return ((void *)0);
}
# 826 "/usr/include/stdlib.h" 2 3 4




extern void qsort (void *__base, size_t __nmemb, size_t __size,
     __compar_fn_t __compar) __attribute__ ((__nonnull__ (1, 4)));
# 840 "/usr/include/stdlib.h" 3 4
extern int abs (int __x) __attribute__ ((__nothrow__ , __leaf__)) __attribute__ ((__const__)) __attribute__ ((__warn_unused_result__));
extern long int labs (long int __x) __attribute__ ((__nothrow__ , __leaf__)) __attribute__ ((__const__)) __attribute__ ((__warn_unused_result__));


__extension__ extern long long int llabs (long long int __x)
     __attribute__ ((__nothrow__ , __leaf__)) __attribute__ ((__const__)) __attribute__ ((__warn_unused_result__));






extern div_t div (int __numer, int __denom)
     __attribute__ ((__nothrow__ , __leaf__)) __attribute__ ((__const__)) __attribute__ ((__warn_unused_result__));
extern ldiv_t ldiv (long int __numer, long int __denom)
     __attribute__ ((__nothrow__ , __leaf__)) __attribute__ ((__const__)) __attribute__ ((__warn_unused_result__));


__extension__ extern lldiv_t lldiv (long long int __numer,
        long long int __denom)
     __attribute__ ((__nothrow__ , __leaf__)) __attribute__ ((__const__)) __attribute__ ((__warn_unused_result__));
# 872 "/usr/include/stdlib.h" 3 4
extern char *ecvt (double __value, int __ndigit, int *__restrict __decpt,
     int *__restrict __sign) __attribute__ ((__nothrow__ , __leaf__)) __attribute__ ((__nonnull__ (3, 4))) __attribute__ ((__warn_unused_result__));




extern char *fcvt (double __value, int __ndigit, int *__restrict __decpt,
     int *__restrict __sign) __attribute__ ((__nothrow__ , __leaf__)) __attribute__ ((__nonnull__ (3, 4))) __attribute__ ((__warn_unused_result__));




extern char *gcvt (double __value, int __ndigit, char *__buf)
     __attribute__ ((__nothrow__ , __leaf__)) __attribute__ ((__nonnull__ (3))) __attribute__ ((__warn_unused_result__));




extern char *qecvt (long double __value, int __ndigit,
      int *__restrict __decpt, int *__restrict __sign)
     __attribute__ ((__nothrow__ , __leaf__)) __attribute__ ((__nonnull__ (3, 4))) __attribute__ ((__warn_unused_result__));
extern char *qfcvt (long double __value, int __ndigit,
      int *__restrict __decpt, int *__restrict __sign)
     __attribute__ ((__nothrow__ , __leaf__)) __attribute__ ((__nonnull__ (3, 4))) __attribute__ ((__warn_unused_result__));
extern char *qgcvt (long double __value, int __ndigit, char *__buf)
     __attribute__ ((__nothrow__ , __leaf__)) __attribute__ ((__nonnull__ (3))) __attribute__ ((__warn_unused_result__));




extern int ecvt_r (double __value, int __ndigit, int *__restrict __decpt,
     int *__restrict __sign, char *__restrict __buf,
     size_t __len) __attribute__ ((__nothrow__ , __leaf__)) __attribute__ ((__nonnull__ (3, 4, 5)));
extern int fcvt_r (double __value, int __ndigit, int *__restrict __decpt,
     int *__restrict __sign, char *__restrict __buf,
     size_t __len) __attribute__ ((__nothrow__ , __leaf__)) __attribute__ ((__nonnull__ (3, 4, 5)));

extern int qecvt_r (long double __value, int __ndigit,
      int *__restrict __decpt, int *__restrict __sign,
      char *__restrict __buf, size_t __len)
     __attribute__ ((__nothrow__ , __leaf__)) __attribute__ ((__nonnull__ (3, 4, 5)));
extern int qfcvt_r (long double __value, int __ndigit,
      int *__restrict __decpt, int *__restrict __sign,
      char *__restrict __buf, size_t __len)
     __attribute__ ((__nothrow__ , __leaf__)) __attribute__ ((__nonnull__ (3, 4, 5)));





extern int mblen (const char *__s, size_t __n) __attribute__ ((__nothrow__ , __leaf__));


extern int mbtowc (wchar_t *__restrict __pwc,
     const char *__restrict __s, size_t __n) __attribute__ ((__nothrow__ , __leaf__));


extern int wctomb (char *__s, wchar_t __wchar) __attribute__ ((__nothrow__ , __leaf__));



extern size_t mbstowcs (wchar_t *__restrict __pwcs,
   const char *__restrict __s, size_t __n) __attribute__ ((__nothrow__ , __leaf__));

extern size_t wcstombs (char *__restrict __s,
   const wchar_t *__restrict __pwcs, size_t __n)
     __attribute__ ((__nothrow__ , __leaf__));







extern int rpmatch (const char *__response) __attribute__ ((__nothrow__ , __leaf__)) __attribute__ ((__nonnull__ (1))) __attribute__ ((__warn_unused_result__));
# 957 "/usr/include/stdlib.h" 3 4
extern int getsubopt (char **__restrict __optionp,
        char *const *__restrict __tokens,
        char **__restrict __valuep)
     __attribute__ ((__nothrow__ , __leaf__)) __attribute__ ((__nonnull__ (1, 2, 3))) __attribute__ ((__warn_unused_result__));
# 1003 "/usr/include/stdlib.h" 3 4
extern int getloadavg (double __loadavg[], int __nelem)
     __attribute__ ((__nothrow__ , __leaf__)) __attribute__ ((__nonnull__ (1)));
# 1013 "/usr/include/stdlib.h" 3 4
# 1 "/usr/include/x86_64-linux-gnu/bits/stdlib-float.h" 1 3 4
# 24 "/usr/include/x86_64-linux-gnu/bits/stdlib-float.h" 3 4
extern __inline __attribute__ ((__gnu_inline__)) double
__attribute__ ((__nothrow__ , __leaf__)) atof (const char *__nptr)
{
  return strtod (__nptr, (char **) ((void *)0));
}
# 1014 "/usr/include/stdlib.h" 2 3 4



# 1 "/usr/include/x86_64-linux-gnu/bits/stdlib.h" 1 3 4
# 23 "/usr/include/x86_64-linux-gnu/bits/stdlib.h" 3 4
extern char *__realpath_chk (const char *__restrict __name,
        char *__restrict __resolved,
        size_t __resolvedlen) __attribute__ ((__nothrow__ , __leaf__)) __attribute__ ((__warn_unused_result__));
extern char *__realpath_alias (const char *__restrict __name, char *__restrict __resolved) __asm__ ("" "realpath") __attribute__ ((__nothrow__ , __leaf__))

                                                 __attribute__ ((__warn_unused_result__));
extern char *__realpath_chk_warn (const char *__restrict __name, char *__restrict __resolved, size_t __resolvedlen) __asm__ ("" "__realpath_chk") __attribute__ ((__nothrow__ , __leaf__))


                                                __attribute__ ((__warn_unused_result__))
     __attribute__((__warning__ ("second argument of realpath must be either NULL or at " "least PATH_MAX bytes long buffer")))
                                      ;

extern __inline __attribute__ ((__always_inline__)) __attribute__ ((__gnu_inline__)) __attribute__ ((__artificial__)) __attribute__ ((__warn_unused_result__)) char *
__attribute__ ((__nothrow__ , __leaf__)) realpath (const char *__restrict __name, char *__restrict __resolved)
{
  if (__builtin_object_size (__resolved, 2 > 1) != (size_t) -1)
    {




      return __realpath_chk (__name, __resolved, __builtin_object_size (__resolved, 2 > 1));
    }

  return __realpath_alias (__name, __resolved);
}


extern int __ptsname_r_chk (int __fd, char *__buf, size_t __buflen,
       size_t __nreal) __attribute__ ((__nothrow__ , __leaf__)) __attribute__ ((__nonnull__ (2)));
extern int __ptsname_r_alias (int __fd, char *__buf, size_t __buflen) __asm__ ("" "ptsname_r") __attribute__ ((__nothrow__ , __leaf__))

     __attribute__ ((__nonnull__ (2)));
extern int __ptsname_r_chk_warn (int __fd, char *__buf, size_t __buflen, size_t __nreal) __asm__ ("" "__ptsname_r_chk") __attribute__ ((__nothrow__ , __leaf__))


     __attribute__ ((__nonnull__ (2))) __attribute__((__warning__ ("ptsname_r called with buflen bigger than " "size of buf")))
                   ;

extern __inline __attribute__ ((__always_inline__)) __attribute__ ((__gnu_inline__)) __attribute__ ((__artificial__)) int
__attribute__ ((__nothrow__ , __leaf__)) ptsname_r (int __fd, char *__buf, size_t __buflen)
{
  if (__builtin_object_size (__buf, 2 > 1) != (size_t) -1)
    {
      if (!__builtin_constant_p (__buflen))
 return __ptsname_r_chk (__fd, __buf, __buflen, __builtin_object_size (__buf, 2 > 1));
      if (__buflen > __builtin_object_size (__buf, 2 > 1))
 return __ptsname_r_chk_warn (__fd, __buf, __buflen, __builtin_object_size (__buf, 2 > 1));
    }
  return __ptsname_r_alias (__fd, __buf, __buflen);
}


extern int __wctomb_chk (char *__s, wchar_t __wchar, size_t __buflen)
  __attribute__ ((__nothrow__ , __leaf__)) __attribute__ ((__warn_unused_result__));
extern int __wctomb_alias (char *__s, wchar_t __wchar) __asm__ ("" "wctomb") __attribute__ ((__nothrow__ , __leaf__))
              __attribute__ ((__warn_unused_result__));

extern __inline __attribute__ ((__always_inline__)) __attribute__ ((__gnu_inline__)) __attribute__ ((__artificial__)) __attribute__ ((__warn_unused_result__)) int
__attribute__ ((__nothrow__ , __leaf__)) wctomb (char *__s, wchar_t __wchar)
{







  if (__builtin_object_size (__s, 2 > 1) != (size_t) -1 && 16 > __builtin_object_size (__s, 2 > 1))
    return __wctomb_chk (__s, __wchar, __builtin_object_size (__s, 2 > 1));
  return __wctomb_alias (__s, __wchar);
}


extern size_t __mbstowcs_chk (wchar_t *__restrict __dst,
         const char *__restrict __src,
         size_t __len, size_t __dstlen) __attribute__ ((__nothrow__ , __leaf__));
extern size_t __mbstowcs_alias (wchar_t *__restrict __dst, const char *__restrict __src, size_t __len) __asm__ ("" "mbstowcs") __attribute__ ((__nothrow__ , __leaf__))


                                  ;
extern size_t __mbstowcs_chk_warn (wchar_t *__restrict __dst, const char *__restrict __src, size_t __len, size_t __dstlen) __asm__ ("" "__mbstowcs_chk") __attribute__ ((__nothrow__ , __leaf__))



     __attribute__((__warning__ ("mbstowcs called with dst buffer smaller than len " "* sizeof (wchar_t)")))
                        ;

extern __inline __attribute__ ((__always_inline__)) __attribute__ ((__gnu_inline__)) __attribute__ ((__artificial__)) size_t
__attribute__ ((__nothrow__ , __leaf__)) mbstowcs (wchar_t *__restrict __dst, const char *__restrict __src, size_t __len)

{
  if (__builtin_object_size (__dst, 2 > 1) != (size_t) -1)
    {
      if (!__builtin_constant_p (__len))
 return __mbstowcs_chk (__dst, __src, __len,
          __builtin_object_size (__dst, 2 > 1) / sizeof (wchar_t));

      if (__len > __builtin_object_size (__dst, 2 > 1) / sizeof (wchar_t))
 return __mbstowcs_chk_warn (__dst, __src, __len,
         __builtin_object_size (__dst, 2 > 1) / sizeof (wchar_t));
    }
  return __mbstowcs_alias (__dst, __src, __len);
}


extern size_t __wcstombs_chk (char *__restrict __dst,
         const wchar_t *__restrict __src,
         size_t __len, size_t __dstlen) __attribute__ ((__nothrow__ , __leaf__));
extern size_t __wcstombs_alias (char *__restrict __dst, const wchar_t *__restrict __src, size_t __len) __asm__ ("" "wcstombs") __attribute__ ((__nothrow__ , __leaf__))


                                  ;
extern size_t __wcstombs_chk_warn (char *__restrict __dst, const wchar_t *__restrict __src, size_t __len, size_t __dstlen) __asm__ ("" "__wcstombs_chk") __attribute__ ((__nothrow__ , __leaf__))



     __attribute__((__warning__ ("wcstombs called with dst buffer smaller than len")));

extern __inline __attribute__ ((__always_inline__)) __attribute__ ((__gnu_inline__)) __attribute__ ((__artificial__)) size_t
__attribute__ ((__nothrow__ , __leaf__)) wcstombs (char *__restrict __dst, const wchar_t *__restrict __src, size_t __len)

{
  if (__builtin_object_size (__dst, 2 > 1) != (size_t) -1)
    {
      if (!__builtin_constant_p (__len))
 return __wcstombs_chk (__dst, __src, __len, __builtin_object_size (__dst, 2 > 1));
      if (__len > __builtin_object_size (__dst, 2 > 1))
 return __wcstombs_chk_warn (__dst, __src, __len, __builtin_object_size (__dst, 2 > 1));
    }
  return __wcstombs_alias (__dst, __src, __len);
}
# 1018 "/usr/include/stdlib.h" 2 3 4






# 28 "../deps/brotli/c/enc/./../common/platform.h" 2

# 1 "../deps/brotli/c/include/brotli/port.h" 1
# 30 "../deps/brotli/c/enc/./../common/platform.h" 2
# 1 "../deps/brotli/c/include/brotli/types.h" 1
# 15 "../deps/brotli/c/include/brotli/types.h"
# 1 "/usr/lib/gcc/x86_64-linux-gnu/9/include/stddef.h" 1 3 4
# 143 "/usr/lib/gcc/x86_64-linux-gnu/9/include/stddef.h" 3 4
typedef long int ptrdiff_t;
# 415 "/usr/lib/gcc/x86_64-linux-gnu/9/include/stddef.h" 3 4
typedef struct {
  long long __max_align_ll __attribute__((__aligned__(__alignof__(long long))));
  long double __max_align_ld __attribute__((__aligned__(__alignof__(long double))));
# 426 "/usr/lib/gcc/x86_64-linux-gnu/9/include/stddef.h" 3 4
} max_align_t;
# 16 "../deps/brotli/c/include/brotli/types.h" 2
# 27 "../deps/brotli/c/include/brotli/types.h"
# 1 "/usr/lib/gcc/x86_64-linux-gnu/9/include/stdint.h" 1 3 4
# 9 "/usr/lib/gcc/x86_64-linux-gnu/9/include/stdint.h" 3 4
# 1 "/usr/include/stdint.h" 1 3 4
# 26 "/usr/include/stdint.h" 3 4
# 1 "/usr/include/x86_64-linux-gnu/bits/libc-header-start.h" 1 3 4
# 27 "/usr/include/stdint.h" 2 3 4

# 1 "/usr/include/x86_64-linux-gnu/bits/wchar.h" 1 3 4
# 29 "/usr/include/stdint.h" 2 3 4
# 1 "/usr/include/x86_64-linux-gnu/bits/wordsize.h" 1 3 4
# 30 "/usr/include/stdint.h" 2 3 4







# 1 "/usr/include/x86_64-linux-gnu/bits/stdint-uintn.h" 1 3 4
# 24 "/usr/include/x86_64-linux-gnu/bits/stdint-uintn.h" 3 4
typedef __uint8_t uint8_t;
typedef __uint16_t uint16_t;
typedef __uint32_t uint32_t;
typedef __uint64_t uint64_t;
# 38 "/usr/include/stdint.h" 2 3 4





typedef __int_least8_t int_least8_t;
typedef __int_least16_t int_least16_t;
typedef __int_least32_t int_least32_t;
typedef __int_least64_t int_least64_t;


typedef __uint_least8_t uint_least8_t;
typedef __uint_least16_t uint_least16_t;
typedef __uint_least32_t uint_least32_t;
typedef __uint_least64_t uint_least64_t;





typedef signed char int_fast8_t;

typedef long int int_fast16_t;
typedef long int int_fast32_t;
typedef long int int_fast64_t;
# 71 "/usr/include/stdint.h" 3 4
typedef unsigned char uint_fast8_t;

typedef unsigned long int uint_fast16_t;
typedef unsigned long int uint_fast32_t;
typedef unsigned long int uint_fast64_t;
# 87 "/usr/include/stdint.h" 3 4
typedef long int intptr_t;


typedef unsigned long int uintptr_t;
# 101 "/usr/include/stdint.h" 3 4
typedef __intmax_t intmax_t;
typedef __uintmax_t uintmax_t;
# 10 "/usr/lib/gcc/x86_64-linux-gnu/9/include/stdint.h" 2 3 4
# 28 "../deps/brotli/c/include/brotli/types.h" 2
# 71 "../deps/brotli/c/include/brotli/types.h"

# 71 "../deps/brotli/c/include/brotli/types.h"
typedef void* (*brotli_alloc_func)(void* opaque, size_t size);
# 81 "../deps/brotli/c/include/brotli/types.h"
typedef void (*brotli_free_func)(void* opaque, void* address);
# 31 "../deps/brotli/c/enc/./../common/platform.h" 2
# 338 "../deps/brotli/c/enc/./../common/platform.h"
static inline __attribute__((__always_inline__)) uint16_t BrotliUnalignedRead16(const void* p) {
  return *(const uint16_t*)p;
}
static inline __attribute__((__always_inline__)) uint32_t BrotliUnalignedRead32(const void* p) {
  return *(const uint32_t*)p;
}

static inline __attribute__((__always_inline__)) uint64_t BrotliUnalignedRead64(const void* p) {
  return *(const uint64_t*)p;
}
static inline __attribute__((__always_inline__)) void BrotliUnalignedWrite64(void* p, uint64_t v) {
  *(uint64_t*)p = v;
}
# 500 "../deps/brotli/c/enc/./../common/platform.h"
static inline __attribute__((__always_inline__)) void BrotliRBit(void) { }
# 514 "../deps/brotli/c/enc/./../common/platform.h"
static inline __attribute__((__always_inline__)) double brotli_min_double (double a, double b) { return a < b ? a : b; } static inline __attribute__((__always_inline__)) double brotli_max_double (double a, double b) { return a > b ? a : b; } static inline __attribute__((__always_inline__)) float brotli_min_float (float a, float b) { return a < b ? a : b; } static inline __attribute__((__always_inline__)) float brotli_max_float (float a, float b) { return a > b ? a : b; } static inline __attribute__((__always_inline__)) int brotli_min_int (int a, int b) { return a < b ? a : b; } static inline __attribute__((__always_inline__)) int brotli_max_int (int a, int b) { return a > b ? a : b; }
static inline __attribute__((__always_inline__)) size_t brotli_min_size_t (size_t a, size_t b) { return a < b ? a : b; } static inline __attribute__((__always_inline__)) size_t brotli_max_size_t (size_t a, size_t b) { return a > b ? a : b; } static inline __attribute__((__always_inline__)) uint32_t brotli_min_uint32_t (uint32_t a, uint32_t b) { return a < b ? a : b; } static inline __attribute__((__always_inline__)) uint32_t brotli_max_uint32_t (uint32_t a, uint32_t b) { return a > b ? a : b; } static inline __attribute__((__always_inline__)) uint8_t brotli_min_uint8_t (uint8_t a, uint8_t b) { return a < b ? a : b; } static inline __attribute__((__always_inline__)) uint8_t brotli_max_uint8_t (uint8_t a, uint8_t b) { return a > b ? a : b; }
# 527 "../deps/brotli/c/enc/./../common/platform.h"
static void* BrotliDefaultAllocFunc(void* opaque, size_t size) {
  (void)(opaque);
  return malloc(size);
}


static void BrotliDefaultFreeFunc(void* opaque, void* address) {
  (void)(opaque);
  free(address);
}

static inline __attribute__((__always_inline__)) __attribute__ ((unused)) void BrotliSuppressUnusedFunctions(void) {
  (void)(&BrotliSuppressUnusedFunctions);
  (void)(&BrotliUnalignedRead16);
  (void)(&BrotliUnalignedRead32);
  (void)(&BrotliUnalignedRead64);
  (void)(&BrotliUnalignedWrite64);
  (void)(&BrotliUnalignedRead16);
  (void)(&BrotliUnalignedRead32);
  (void)(&BrotliUnalignedRead64);
  (void)(&BrotliUnalignedWrite64);
  (void)(&BrotliRBit);
  (void)(&brotli_min_double);
  (void)(&brotli_max_double);
  (void)(&brotli_min_float);
  (void)(&brotli_max_float);
  (void)(&brotli_min_int);
  (void)(&brotli_max_int);
  (void)(&brotli_min_size_t);
  (void)(&brotli_max_size_t);
  (void)(&brotli_min_uint32_t);
  (void)(&brotli_max_uint32_t);
  (void)(&brotli_min_uint8_t);
  (void)(&brotli_max_uint8_t);
  (void)(&BrotliDefaultAllocFunc);
  (void)(&BrotliDefaultFreeFunc);



}
# 13 "../deps/brotli/c/enc/./entropy_encode.h" 2







typedef struct HuffmanTree {
  uint32_t total_count_;
  int16_t index_left_;
  int16_t index_right_or_value_;
} HuffmanTree;

static inline __attribute__((__always_inline__)) void InitHuffmanTree(HuffmanTree* self, uint32_t count,
    int16_t left, int16_t right) {
  self->total_count_ = count;
  self->index_left_ = left;
  self->index_right_or_value_ = right;
}


__attribute__ ((visibility ("hidden"))) int BrotliSetDepth(
    int p, HuffmanTree* pool, uint8_t* depth, int max_depth);
# 49 "../deps/brotli/c/enc/./entropy_encode.h"
__attribute__ ((visibility ("hidden"))) void BrotliCreateHuffmanTree(const uint32_t* data,
                                             const size_t length,
                                             const int tree_limit,
                                             HuffmanTree* tree,
                                             uint8_t* depth);
# 62 "../deps/brotli/c/enc/./entropy_encode.h"
__attribute__ ((visibility ("hidden"))) void BrotliOptimizeHuffmanCountsForRle(
    size_t length, uint32_t* counts, uint8_t* good_for_rle);




__attribute__ ((visibility ("hidden"))) void BrotliWriteHuffmanTree(const uint8_t* depth,
                                            size_t num,
                                            size_t* tree_size,
                                            uint8_t* tree,
                                            uint8_t* extra_bits_data);


__attribute__ ((visibility ("hidden"))) void BrotliConvertBitDepthsToSymbols(const uint8_t* depth,
                                                     size_t len,
                                                     uint16_t* bits);


typedef int (*HuffmanTreeComparator)(
    const HuffmanTree*, const HuffmanTree*);
static inline __attribute__((__always_inline__)) void SortHuffmanTreeItems(HuffmanTree* items,
    const size_t n, HuffmanTreeComparator comparator) {
  static const size_t gaps[] = {132, 57, 23, 10, 4, 1};
  if (n < 13) {

    size_t i;
    for (i = 1; i < n; ++i) {
      HuffmanTree tmp = items[i];
      size_t k = i;
      size_t j = i - 1;
      while (comparator(&tmp, &items[j])) {
        items[k] = items[j];
        k = j;
        if (!j--) break;
      }
      items[k] = tmp;
    }
    return;
  } else {

    int g = n < 57 ? 2 : 0;
    for (; g < 6; ++g) {
      size_t gap = gaps[g];
      size_t i;
      for (i = gap; i < n; ++i) {
        size_t j = i;
        HuffmanTree tmp = items[i];
        for (; j >= gap && comparator(&tmp, &items[j - gap]); j -= gap) {
          items[j] = items[j - gap];
        }
        items[j] = tmp;
      }
    }
  }
}
# 10 "../deps/brotli/c/enc/entropy_encode.c" 2



# 1 "../deps/brotli/c/enc/../common/constants.h" 1
# 14 "../deps/brotli/c/enc/entropy_encode.c" 2
# 1 "../deps/brotli/c/enc/../common/platform.h" 1
# 15 "../deps/brotli/c/enc/entropy_encode.c" 2






int BrotliSetDepth(
    int p0, HuffmanTree* pool, uint8_t* depth, int max_depth) {
  int stack[16];
  int level = 0;
  int p = p0;
  ;
  stack[0] = -1;
  while (1) {
    if (pool[p].index_left_ >= 0) {
      level++;
      if (level > max_depth) return 0;
      stack[level] = pool[p].index_right_or_value_;
      p = pool[p].index_left_;
      continue;
    } else {
      depth[pool[p].index_right_or_value_] = (uint8_t)level;
    }
    while (level >= 0 && stack[level] == -1) level--;
    if (level < 0) return 1;
    p = stack[level];
    stack[level] = -1;
  }
}


static inline __attribute__((__always_inline__)) int SortHuffmanTree(
    const HuffmanTree* v0, const HuffmanTree* v1) {
  if (v0->total_count_ != v1->total_count_) {
    return (!!(v0->total_count_ < v1->total_count_) ? 1 : 0);
  }
  return (!!(v0->index_right_or_value_ > v1->index_right_or_value_) ? 1 : 0);
}
# 69 "../deps/brotli/c/enc/entropy_encode.c"
void BrotliCreateHuffmanTree(const uint32_t* data,
                             const size_t length,
                             const int tree_limit,
                             HuffmanTree* tree,
                             uint8_t* depth) {
  uint32_t count_limit;
  HuffmanTree sentinel;
  InitHuffmanTree(&sentinel, (~((uint32_t)0)), -1, -1);




  for (count_limit = 1; ; count_limit *= 2) {
    size_t n = 0;
    size_t i;
    size_t j;
    size_t k;
    for (i = length; i != 0;) {
      --i;
      if (data[i]) {
        const uint32_t count = (brotli_max_uint32_t((data[i]), (count_limit)));
        InitHuffmanTree(&tree[n++], count, -1, (int16_t)i);
      }
    }

    if (n == 1) {
      depth[tree[0].index_right_or_value_] = 1;
      break;
    }

    SortHuffmanTreeItems(tree, n, SortHuffmanTree);
# 108 "../deps/brotli/c/enc/entropy_encode.c"
    tree[n] = sentinel;
    tree[n + 1] = sentinel;

    i = 0;
    j = n + 1;
    for (k = n - 1; k != 0; --k) {
      size_t left, right;
      if (tree[i].total_count_ <= tree[j].total_count_) {
        left = i;
        ++i;
      } else {
        left = j;
        ++j;
      }
      if (tree[i].total_count_ <= tree[j].total_count_) {
        right = i;
        ++i;
      } else {
        right = j;
        ++j;
      }

      {

        size_t j_end = 2 * n - k;
        tree[j_end].total_count_ =
            tree[left].total_count_ + tree[right].total_count_;
        tree[j_end].index_left_ = (int16_t)left;
        tree[j_end].index_right_or_value_ = (int16_t)right;


        tree[j_end + 1] = sentinel;
      }
    }
    if (BrotliSetDepth((int)(2 * n - 1), &tree[0], depth, tree_limit)) {


      break;
    }
  }
}

static void Reverse(uint8_t* v, size_t start, size_t end) {
  --end;
  while (start < end) {
    uint8_t tmp = v[start];
    v[start] = v[end];
    v[end] = tmp;
    ++start;
    --end;
  }
}

static void BrotliWriteHuffmanTreeRepetitions(
    const uint8_t previous_value,
    const uint8_t value,
    size_t repetitions,
    size_t* tree_size,
    uint8_t* tree,
    uint8_t* extra_bits_data) {
  ;
  if (previous_value != value) {
    tree[*tree_size] = value;
    extra_bits_data[*tree_size] = 0;
    ++(*tree_size);
    --repetitions;
  }
  if (repetitions == 7) {
    tree[*tree_size] = value;
    extra_bits_data[*tree_size] = 0;
    ++(*tree_size);
    --repetitions;
  }
  if (repetitions < 3) {
    size_t i;
    for (i = 0; i < repetitions; ++i) {
      tree[*tree_size] = value;
      extra_bits_data[*tree_size] = 0;
      ++(*tree_size);
    }
  } else {
    size_t start = *tree_size;
    repetitions -= 3;
    while (1) {
      tree[*tree_size] = 16;
      extra_bits_data[*tree_size] = repetitions & 0x3;
      ++(*tree_size);
      repetitions >>= 2;
      if (repetitions == 0) {
        break;
      }
      --repetitions;
    }
    Reverse(tree, start, *tree_size);
    Reverse(extra_bits_data, start, *tree_size);
  }
}

static void BrotliWriteHuffmanTreeRepetitionsZeros(
    size_t repetitions,
    size_t* tree_size,
    uint8_t* tree,
    uint8_t* extra_bits_data) {
  if (repetitions == 11) {
    tree[*tree_size] = 0;
    extra_bits_data[*tree_size] = 0;
    ++(*tree_size);
    --repetitions;
  }
  if (repetitions < 3) {
    size_t i;
    for (i = 0; i < repetitions; ++i) {
      tree[*tree_size] = 0;
      extra_bits_data[*tree_size] = 0;
      ++(*tree_size);
    }
  } else {
    size_t start = *tree_size;
    repetitions -= 3;
    while (1) {
      tree[*tree_size] = 17;
      extra_bits_data[*tree_size] = repetitions & 0x7;
      ++(*tree_size);
      repetitions >>= 3;
      if (repetitions == 0) {
        break;
      }
      --repetitions;
    }
    Reverse(tree, start, *tree_size);
    Reverse(extra_bits_data, start, *tree_size);
  }
}

void BrotliOptimizeHuffmanCountsForRle(size_t length, uint32_t* counts,
                                       uint8_t* good_for_rle) {
  size_t nonzero_count = 0;
  size_t stride;
  size_t limit;
  size_t sum;
  const size_t streak_limit = 1240;

  size_t i;
  for (i = 0; i < length; i++) {
    if (counts[i]) {
      ++nonzero_count;
    }
  }
  if (nonzero_count < 16) {
    return;
  }
  while (length != 0 && counts[length - 1] == 0) {
    --length;
  }
  if (length == 0) {
    return;
  }

  {
    size_t nonzeros = 0;
    uint32_t smallest_nonzero = 1 << 30;
    for (i = 0; i < length; ++i) {
      if (counts[i] != 0) {
        ++nonzeros;
        if (smallest_nonzero > counts[i]) {
          smallest_nonzero = counts[i];
        }
      }
    }
    if (nonzeros < 5) {

      return;
    }
    if (smallest_nonzero < 4) {
      size_t zeros = length - nonzeros;
      if (zeros < 6) {
        for (i = 1; i < length - 1; ++i) {
          if (counts[i - 1] != 0 && counts[i] == 0 && counts[i + 1] != 0) {
            counts[i] = 1;
          }
        }
      }
    }
    if (nonzeros < 28) {
      return;
    }
  }


  memset(good_for_rle, 0, length);
  {



    uint32_t symbol = counts[0];
    size_t step = 0;
    for (i = 0; i <= length; ++i) {
      if (i == length || counts[i] != symbol) {
        if ((symbol == 0 && step >= 5) ||
            (symbol != 0 && step >= 7)) {
          size_t k;
          for (k = 0; k < step; ++k) {
            good_for_rle[i - k - 1] = 1;
          }
        }
        step = 1;
        if (i != length) {
          symbol = counts[i];
        }
      } else {
        ++step;
      }
    }
  }


  stride = 0;
  limit = 256 * (counts[0] + counts[1] + counts[2]) / 3 + 420;
  sum = 0;
  for (i = 0; i <= length; ++i) {
    if (i == length || good_for_rle[i] ||
        (i != 0 && good_for_rle[i - 1]) ||
        (256 * counts[i] - limit + streak_limit) >= 2 * streak_limit) {
      if (stride >= 4 || (stride >= 3 && sum == 0)) {
        size_t k;

        size_t count = (sum + stride / 2) / stride;
        if (count == 0) {
          count = 1;
        }
        if (sum == 0) {

          count = 0;
        }
        for (k = 0; k < stride; ++k) {


          counts[i - k - 1] = (uint32_t)count;
        }
      }
      stride = 0;
      sum = 0;
      if (i < length - 2) {


        limit = 256 * (counts[i] + counts[i + 1] + counts[i + 2]) / 3 + 420;
      } else if (i < length) {
        limit = 256 * counts[i];
      } else {
        limit = 0;
      }
    }
    ++stride;
    if (i != length) {
      sum += counts[i];
      if (stride >= 4) {
        limit = (256 * sum + stride / 2) / stride;
      }
      if (stride == 4) {
        limit += 120;
      }
    }
  }
}

static void DecideOverRleUse(const uint8_t* depth, const size_t length,
                             int* use_rle_for_non_zero,
                             int* use_rle_for_zero) {
  size_t total_reps_zero = 0;
  size_t total_reps_non_zero = 0;
  size_t count_reps_zero = 1;
  size_t count_reps_non_zero = 1;
  size_t i;
  for (i = 0; i < length;) {
    const uint8_t value = depth[i];
    size_t reps = 1;
    size_t k;
    for (k = i + 1; k < length && depth[k] == value; ++k) {
      ++reps;
    }
    if (reps >= 3 && value == 0) {
      total_reps_zero += reps;
      ++count_reps_zero;
    }
    if (reps >= 4 && value != 0) {
      total_reps_non_zero += reps;
      ++count_reps_non_zero;
    }
    i += reps;
  }
  *use_rle_for_non_zero =
      (!!(total_reps_non_zero > count_reps_non_zero * 2) ? 1 : 0);
  *use_rle_for_zero = (!!(total_reps_zero > count_reps_zero * 2) ? 1 : 0);
}

void BrotliWriteHuffmanTree(const uint8_t* depth,
                            size_t length,
                            size_t* tree_size,
                            uint8_t* tree,
                            uint8_t* extra_bits_data) {
  uint8_t previous_value = 8;
  size_t i;
  int use_rle_for_non_zero = 0;
  int use_rle_for_zero = 0;


  size_t new_length = length;
  for (i = 0; i < length; ++i) {
    if (depth[length - i - 1] == 0) {
      --new_length;
    } else {
      break;
    }
  }


  if (length > 50) {


    DecideOverRleUse(depth, new_length,
                     &use_rle_for_non_zero, &use_rle_for_zero);
  }


  for (i = 0; i < new_length;) {
    const uint8_t value = depth[i];
    size_t reps = 1;
    if ((value != 0 && use_rle_for_non_zero) ||
        (value == 0 && use_rle_for_zero)) {
      size_t k;
      for (k = i + 1; k < new_length && depth[k] == value; ++k) {
        ++reps;
      }
    }
    if (value == 0) {
      BrotliWriteHuffmanTreeRepetitionsZeros(
          reps, tree_size, tree, extra_bits_data);
    } else {
      BrotliWriteHuffmanTreeRepetitions(previous_value,
                                        value, reps, tree_size,
                                        tree, extra_bits_data);
      previous_value = value;
    }
    i += reps;
  }
}

static uint16_t BrotliReverseBits(size_t num_bits, uint16_t bits) {
  static const size_t kLut[16] = {
    0x00, 0x08, 0x04, 0x0C, 0x02, 0x0A, 0x06, 0x0E,
    0x01, 0x09, 0x05, 0x0D, 0x03, 0x0B, 0x07, 0x0F
  };
  size_t retval = kLut[bits & 0x0F];
  size_t i;
  for (i = 4; i < num_bits; i += 4) {
    retval <<= 4;
    bits = (uint16_t)(bits >> 4);
    retval |= kLut[bits & 0x0F];
  }
  retval >>= ((0 - num_bits) & 0x03);
  return (uint16_t)retval;
}




void BrotliConvertBitDepthsToSymbols(const uint8_t* depth,
                                     size_t len,
                                     uint16_t* bits) {


  uint16_t bl_count[16] = { 0 };
  uint16_t next_code[16];
  size_t i;
  int code = 0;
  for (i = 0; i < len; ++i) {
    ++bl_count[depth[i]];
  }
  bl_count[0] = 0;
  next_code[0] = 0;
  for (i = 1; i < 16; ++i) {
    code = (code + bl_count[i - 1]) << 1;
    next_code[i] = (uint16_t)code;
  }
  for (i = 0; i < len; ++i) {
    if (depth[i]) {
      bits[i] = BrotliReverseBits(depth[i], next_code[depth[i]]++);
    }
  }
}
