# 1 "../deps/uvwasi/src/wasi_serdes.c"
# 1 "<built-in>"
# 1 "<command-line>"
# 1 "/usr/include/stdc-predef.h" 1 3 4
# 1 "<command-line>" 2
# 1 "../deps/uvwasi/src/wasi_serdes.c"
# 1 "../deps/uvwasi/include/wasi_serdes.h" 1



# 1 "../deps/uvwasi/include/wasi_types.h" 1



# 1 "/usr/lib/gcc/x86_64-linux-gnu/9/include/stddef.h" 1 3 4
# 143 "/usr/lib/gcc/x86_64-linux-gnu/9/include/stddef.h" 3 4

# 143 "/usr/lib/gcc/x86_64-linux-gnu/9/include/stddef.h" 3 4
typedef long int ptrdiff_t;
# 209 "/usr/lib/gcc/x86_64-linux-gnu/9/include/stddef.h" 3 4
typedef long unsigned int size_t;
# 321 "/usr/lib/gcc/x86_64-linux-gnu/9/include/stddef.h" 3 4
typedef int wchar_t;
# 415 "/usr/lib/gcc/x86_64-linux-gnu/9/include/stddef.h" 3 4
typedef struct {
  long long __max_align_ll __attribute__((__aligned__(__alignof__(long long))));
  long double __max_align_ld __attribute__((__aligned__(__alignof__(long double))));
# 426 "/usr/lib/gcc/x86_64-linux-gnu/9/include/stddef.h" 3 4
} max_align_t;
# 5 "../deps/uvwasi/include/wasi_types.h" 2
# 1 "/usr/lib/gcc/x86_64-linux-gnu/9/include/stdint.h" 1 3 4
# 9 "/usr/lib/gcc/x86_64-linux-gnu/9/include/stdint.h" 3 4
# 1 "/usr/include/stdint.h" 1 3 4
# 26 "/usr/include/stdint.h" 3 4
# 1 "/usr/include/x86_64-linux-gnu/bits/libc-header-start.h" 1 3 4
# 33 "/usr/include/x86_64-linux-gnu/bits/libc-header-start.h" 3 4
# 1 "/usr/include/features.h" 1 3 4
# 461 "/usr/include/features.h" 3 4
# 1 "/usr/include/x86_64-linux-gnu/sys/cdefs.h" 1 3 4
# 452 "/usr/include/x86_64-linux-gnu/sys/cdefs.h" 3 4
# 1 "/usr/include/x86_64-linux-gnu/bits/wordsize.h" 1 3 4
# 453 "/usr/include/x86_64-linux-gnu/sys/cdefs.h" 2 3 4
# 1 "/usr/include/x86_64-linux-gnu/bits/long-double.h" 1 3 4
# 454 "/usr/include/x86_64-linux-gnu/sys/cdefs.h" 2 3 4
# 462 "/usr/include/features.h" 2 3 4
# 485 "/usr/include/features.h" 3 4
# 1 "/usr/include/x86_64-linux-gnu/gnu/stubs.h" 1 3 4
# 10 "/usr/include/x86_64-linux-gnu/gnu/stubs.h" 3 4
# 1 "/usr/include/x86_64-linux-gnu/gnu/stubs-64.h" 1 3 4
# 11 "/usr/include/x86_64-linux-gnu/gnu/stubs.h" 2 3 4
# 486 "/usr/include/features.h" 2 3 4
# 34 "/usr/include/x86_64-linux-gnu/bits/libc-header-start.h" 2 3 4
# 27 "/usr/include/stdint.h" 2 3 4
# 1 "/usr/include/x86_64-linux-gnu/bits/types.h" 1 3 4
# 27 "/usr/include/x86_64-linux-gnu/bits/types.h" 3 4
# 1 "/usr/include/x86_64-linux-gnu/bits/wordsize.h" 1 3 4
# 28 "/usr/include/x86_64-linux-gnu/bits/types.h" 2 3 4
# 1 "/usr/include/x86_64-linux-gnu/bits/timesize.h" 1 3 4
# 29 "/usr/include/x86_64-linux-gnu/bits/types.h" 2 3 4


typedef unsigned char __u_char;
typedef unsigned short int __u_short;
typedef unsigned int __u_int;
typedef unsigned long int __u_long;


typedef signed char __int8_t;
typedef unsigned char __uint8_t;
typedef signed short int __int16_t;
typedef unsigned short int __uint16_t;
typedef signed int __int32_t;
typedef unsigned int __uint32_t;

typedef signed long int __int64_t;
typedef unsigned long int __uint64_t;






typedef __int8_t __int_least8_t;
typedef __uint8_t __uint_least8_t;
typedef __int16_t __int_least16_t;
typedef __uint16_t __uint_least16_t;
typedef __int32_t __int_least32_t;
typedef __uint32_t __uint_least32_t;
typedef __int64_t __int_least64_t;
typedef __uint64_t __uint_least64_t;



typedef long int __quad_t;
typedef unsigned long int __u_quad_t;







typedef long int __intmax_t;
typedef unsigned long int __uintmax_t;
# 141 "/usr/include/x86_64-linux-gnu/bits/types.h" 3 4
# 1 "/usr/include/x86_64-linux-gnu/bits/typesizes.h" 1 3 4
# 142 "/usr/include/x86_64-linux-gnu/bits/types.h" 2 3 4
# 1 "/usr/include/x86_64-linux-gnu/bits/time64.h" 1 3 4
# 143 "/usr/include/x86_64-linux-gnu/bits/types.h" 2 3 4


typedef unsigned long int __dev_t;
typedef unsigned int __uid_t;
typedef unsigned int __gid_t;
typedef unsigned long int __ino_t;
typedef unsigned long int __ino64_t;
typedef unsigned int __mode_t;
typedef unsigned long int __nlink_t;
typedef long int __off_t;
typedef long int __off64_t;
typedef int __pid_t;
typedef struct { int __val[2]; } __fsid_t;
typedef long int __clock_t;
typedef unsigned long int __rlim_t;
typedef unsigned long int __rlim64_t;
typedef unsigned int __id_t;
typedef long int __time_t;
typedef unsigned int __useconds_t;
typedef long int __suseconds_t;

typedef int __daddr_t;
typedef int __key_t;


typedef int __clockid_t;


typedef void * __timer_t;


typedef long int __blksize_t;




typedef long int __blkcnt_t;
typedef long int __blkcnt64_t;


typedef unsigned long int __fsblkcnt_t;
typedef unsigned long int __fsblkcnt64_t;


typedef unsigned long int __fsfilcnt_t;
typedef unsigned long int __fsfilcnt64_t;


typedef long int __fsword_t;

typedef long int __ssize_t;


typedef long int __syscall_slong_t;

typedef unsigned long int __syscall_ulong_t;



typedef __off64_t __loff_t;
typedef char *__caddr_t;


typedef long int __intptr_t;


typedef unsigned int __socklen_t;




typedef int __sig_atomic_t;
# 28 "/usr/include/stdint.h" 2 3 4
# 1 "/usr/include/x86_64-linux-gnu/bits/wchar.h" 1 3 4
# 29 "/usr/include/stdint.h" 2 3 4
# 1 "/usr/include/x86_64-linux-gnu/bits/wordsize.h" 1 3 4
# 30 "/usr/include/stdint.h" 2 3 4




# 1 "/usr/include/x86_64-linux-gnu/bits/stdint-intn.h" 1 3 4
# 24 "/usr/include/x86_64-linux-gnu/bits/stdint-intn.h" 3 4
typedef __int8_t int8_t;
typedef __int16_t int16_t;
typedef __int32_t int32_t;
typedef __int64_t int64_t;
# 35 "/usr/include/stdint.h" 2 3 4


# 1 "/usr/include/x86_64-linux-gnu/bits/stdint-uintn.h" 1 3 4
# 24 "/usr/include/x86_64-linux-gnu/bits/stdint-uintn.h" 3 4
typedef __uint8_t uint8_t;
typedef __uint16_t uint16_t;
typedef __uint32_t uint32_t;
typedef __uint64_t uint64_t;
# 38 "/usr/include/stdint.h" 2 3 4





typedef __int_least8_t int_least8_t;
typedef __int_least16_t int_least16_t;
typedef __int_least32_t int_least32_t;
typedef __int_least64_t int_least64_t;


typedef __uint_least8_t uint_least8_t;
typedef __uint_least16_t uint_least16_t;
typedef __uint_least32_t uint_least32_t;
typedef __uint_least64_t uint_least64_t;





typedef signed char int_fast8_t;

typedef long int int_fast16_t;
typedef long int int_fast32_t;
typedef long int int_fast64_t;
# 71 "/usr/include/stdint.h" 3 4
typedef unsigned char uint_fast8_t;

typedef unsigned long int uint_fast16_t;
typedef unsigned long int uint_fast32_t;
typedef unsigned long int uint_fast64_t;
# 87 "/usr/include/stdint.h" 3 4
typedef long int intptr_t;


typedef unsigned long int uintptr_t;
# 101 "/usr/include/stdint.h" 3 4
typedef __intmax_t intmax_t;
typedef __uintmax_t uintmax_t;
# 10 "/usr/lib/gcc/x86_64-linux-gnu/9/include/stdint.h" 2 3 4
# 6 "../deps/uvwasi/include/wasi_types.h" 2




# 9 "../deps/uvwasi/include/wasi_types.h"
typedef uint32_t uvwasi_size_t;

typedef uint8_t uvwasi_advice_t;







typedef struct uvwasi_ciovec_s {
  const void* buf;
  uvwasi_size_t buf_len;
} uvwasi_ciovec_t;

typedef uint32_t uvwasi_clockid_t;





typedef uint64_t uvwasi_device_t;

typedef uint64_t uvwasi_dircookie_t;


typedef uint16_t uvwasi_errno_t;
# 114 "../deps/uvwasi/include/wasi_types.h"
typedef uint16_t uvwasi_eventrwflags_t;


typedef uint8_t uvwasi_eventtype_t;




typedef uint32_t uvwasi_exitcode_t;

typedef uint32_t uvwasi_fd_t;

typedef uint16_t uvwasi_fdflags_t;






typedef int64_t uvwasi_filedelta_t;

typedef uint64_t uvwasi_filesize_t;

typedef uint8_t uvwasi_filetype_t;
# 147 "../deps/uvwasi/include/wasi_types.h"
typedef uint16_t uvwasi_fstflags_t;





typedef uint64_t uvwasi_inode_t;

typedef struct uvwasi_iovec_s {
  void* buf;
  uvwasi_size_t buf_len;
} uvwasi_iovec_t;

typedef uint64_t uvwasi_linkcount_t;

typedef uint32_t uvwasi_lookupflags_t;


typedef uint16_t uvwasi_oflags_t;





typedef uint8_t uvwasi_preopentype_t;


typedef struct uvwasi_prestat_s {
  uvwasi_preopentype_t pr_type;
  union uvwasi_prestat_u {
    struct uvwasi_prestat_dir_t {
      uvwasi_size_t pr_name_len;
    } dir;
  } u;
} uvwasi_prestat_t;

typedef uint16_t uvwasi_riflags_t;



typedef uint64_t uvwasi_rights_t;
# 218 "../deps/uvwasi/include/wasi_types.h"
typedef uint16_t uvwasi_roflags_t;


typedef uint8_t uvwasi_sdflags_t;



typedef uint16_t uvwasi_siflags_t;

typedef uint8_t uvwasi_signal_t;
# 259 "../deps/uvwasi/include/wasi_types.h"
typedef uint16_t uvwasi_subclockflags_t;


typedef uint64_t uvwasi_timestamp_t;

typedef uint64_t uvwasi_userdata_t;

typedef struct uvwasi_subscription_s {
  uvwasi_userdata_t userdata;
  uvwasi_eventtype_t type;
  union {
    struct {
      uvwasi_clockid_t clock_id;
      uvwasi_timestamp_t timeout;
      uvwasi_timestamp_t precision;
      uvwasi_subclockflags_t flags;
    } clock;
    struct {
      uvwasi_fd_t fd;
    } fd_readwrite;
  } u;
} uvwasi_subscription_t;

typedef struct uvwasi_dirent_s {
  uvwasi_dircookie_t d_next;
  uvwasi_inode_t d_ino;
  uint32_t d_namlen;
  uvwasi_filetype_t d_type;
} uvwasi_dirent_t;

typedef struct uvwasi_fdstat_s {
  uvwasi_filetype_t fs_filetype;
  uvwasi_fdflags_t fs_flags;
  uvwasi_rights_t fs_rights_base;
  uvwasi_rights_t fs_rights_inheriting;
} uvwasi_fdstat_t;

typedef struct uvwasi_filestat_s {
  uvwasi_device_t st_dev;
  uvwasi_inode_t st_ino;
  uvwasi_filetype_t st_filetype;
  uvwasi_linkcount_t st_nlink;
  uvwasi_filesize_t st_size;
  uvwasi_timestamp_t st_atim;
  uvwasi_timestamp_t st_mtim;
  uvwasi_timestamp_t st_ctim;
} uvwasi_filestat_t;

typedef struct uvwasi_event_s {
  uvwasi_userdata_t userdata;
  uvwasi_errno_t error;
  uvwasi_eventtype_t type;
  union {
    struct {
      uvwasi_filesize_t nbytes;
      uvwasi_eventrwflags_t flags;
    } fd_readwrite;
  } u;
} uvwasi_event_t;

typedef uint8_t uvwasi_whence_t;
# 5 "../deps/uvwasi/include/wasi_serdes.h" 2
# 16 "../deps/uvwasi/include/wasi_serdes.h"
void uvwasi_serdes_write_uint8_t(void* ptr, size_t offset, uint8_t value); uint8_t uvwasi_serdes_read_uint8_t(const void* ptr, size_t offset);

void uvwasi_serdes_write_uint16_t(void* ptr, size_t offset, uint16_t value); uint16_t uvwasi_serdes_read_uint16_t(const void* ptr, size_t offset);

void uvwasi_serdes_write_uint32_t(void* ptr, size_t offset, uint32_t value); uint32_t uvwasi_serdes_read_uint32_t(const void* ptr, size_t offset);

void uvwasi_serdes_write_uint64_t(void* ptr, size_t offset, uint64_t value); uint64_t uvwasi_serdes_read_uint64_t(const void* ptr, size_t offset);


void uvwasi_serdes_write_advice_t(void* ptr, size_t offset, uvwasi_advice_t value); uvwasi_advice_t uvwasi_serdes_read_advice_t(const void* ptr, size_t offset);

void uvwasi_serdes_write_clockid_t(void* ptr, size_t offset, uvwasi_clockid_t value); uvwasi_clockid_t uvwasi_serdes_read_clockid_t(const void* ptr, size_t offset);

void uvwasi_serdes_write_device_t(void* ptr, size_t offset, uvwasi_device_t value); uvwasi_device_t uvwasi_serdes_read_device_t(const void* ptr, size_t offset);

void uvwasi_serdes_write_dircookie_t(void* ptr, size_t offset, uvwasi_dircookie_t value); uvwasi_dircookie_t uvwasi_serdes_read_dircookie_t(const void* ptr, size_t offset);

void uvwasi_serdes_write_eventrwflags_t(void* ptr, size_t offset, uvwasi_eventrwflags_t value); uvwasi_eventrwflags_t uvwasi_serdes_read_eventrwflags_t(const void* ptr, size_t offset);

void uvwasi_serdes_write_eventtype_t(void* ptr, size_t offset, uvwasi_eventtype_t value); uvwasi_eventtype_t uvwasi_serdes_read_eventtype_t(const void* ptr, size_t offset);

void uvwasi_serdes_write_exitcode_t(void* ptr, size_t offset, uvwasi_exitcode_t value); uvwasi_exitcode_t uvwasi_serdes_read_exitcode_t(const void* ptr, size_t offset);

void uvwasi_serdes_write_fd_t(void* ptr, size_t offset, uvwasi_fd_t value); uvwasi_fd_t uvwasi_serdes_read_fd_t(const void* ptr, size_t offset);

void uvwasi_serdes_write_fdflags_t(void* ptr, size_t offset, uvwasi_fdflags_t value); uvwasi_fdflags_t uvwasi_serdes_read_fdflags_t(const void* ptr, size_t offset);

void uvwasi_serdes_write_filesize_t(void* ptr, size_t offset, uvwasi_filesize_t value); uvwasi_filesize_t uvwasi_serdes_read_filesize_t(const void* ptr, size_t offset);

void uvwasi_serdes_write_fstflags_t(void* ptr, size_t offset, uvwasi_fstflags_t value); uvwasi_fstflags_t uvwasi_serdes_read_fstflags_t(const void* ptr, size_t offset);

void uvwasi_serdes_write_inode_t(void* ptr, size_t offset, uvwasi_inode_t value); uvwasi_inode_t uvwasi_serdes_read_inode_t(const void* ptr, size_t offset);

void uvwasi_serdes_write_linkcount_t(void* ptr, size_t offset, uvwasi_linkcount_t value); uvwasi_linkcount_t uvwasi_serdes_read_linkcount_t(const void* ptr, size_t offset);

void uvwasi_serdes_write_lookupflags_t(void* ptr, size_t offset, uvwasi_lookupflags_t value); uvwasi_lookupflags_t uvwasi_serdes_read_lookupflags_t(const void* ptr, size_t offset);

void uvwasi_serdes_write_oflags_t(void* ptr, size_t offset, uvwasi_oflags_t value); uvwasi_oflags_t uvwasi_serdes_read_oflags_t(const void* ptr, size_t offset);

void uvwasi_serdes_write_preopentype_t(void* ptr, size_t offset, uvwasi_preopentype_t value); uvwasi_preopentype_t uvwasi_serdes_read_preopentype_t(const void* ptr, size_t offset);

void uvwasi_serdes_write_riflags_t(void* ptr, size_t offset, uvwasi_riflags_t value); uvwasi_riflags_t uvwasi_serdes_read_riflags_t(const void* ptr, size_t offset);

void uvwasi_serdes_write_rights_t(void* ptr, size_t offset, uvwasi_rights_t value); uvwasi_rights_t uvwasi_serdes_read_rights_t(const void* ptr, size_t offset);

void uvwasi_serdes_write_roflags_t(void* ptr, size_t offset, uvwasi_roflags_t value); uvwasi_roflags_t uvwasi_serdes_read_roflags_t(const void* ptr, size_t offset);

void uvwasi_serdes_write_sdflags_t(void* ptr, size_t offset, uvwasi_sdflags_t value); uvwasi_sdflags_t uvwasi_serdes_read_sdflags_t(const void* ptr, size_t offset);

void uvwasi_serdes_write_siflags_t(void* ptr, size_t offset, uvwasi_siflags_t value); uvwasi_siflags_t uvwasi_serdes_read_siflags_t(const void* ptr, size_t offset);

void uvwasi_serdes_write_size_t(void* ptr, size_t offset, uvwasi_size_t value); uvwasi_size_t uvwasi_serdes_read_size_t(const void* ptr, size_t offset);

void uvwasi_serdes_write_inode_t(void* ptr, size_t offset, uvwasi_inode_t value); uvwasi_inode_t uvwasi_serdes_read_inode_t(const void* ptr, size_t offset);

void uvwasi_serdes_write_signal_t(void* ptr, size_t offset, uvwasi_signal_t value); uvwasi_signal_t uvwasi_serdes_read_signal_t(const void* ptr, size_t offset);

void uvwasi_serdes_write_subclockflags_t(void* ptr, size_t offset, uvwasi_subclockflags_t value); uvwasi_subclockflags_t uvwasi_serdes_read_subclockflags_t(const void* ptr, size_t offset);

void uvwasi_serdes_write_timestamp_t(void* ptr, size_t offset, uvwasi_timestamp_t value); uvwasi_timestamp_t uvwasi_serdes_read_timestamp_t(const void* ptr, size_t offset);

void uvwasi_serdes_write_userdata_t(void* ptr, size_t offset, uvwasi_userdata_t value); uvwasi_userdata_t uvwasi_serdes_read_userdata_t(const void* ptr, size_t offset);

void uvwasi_serdes_write_whence_t(void* ptr, size_t offset, uvwasi_whence_t value); uvwasi_whence_t uvwasi_serdes_read_whence_t(const void* ptr, size_t offset);
# 103 "../deps/uvwasi/include/wasi_serdes.h"
uvwasi_errno_t uvwasi_serdes_read_ciovec_t(const void* ptr, size_t end, size_t offset, uvwasi_ciovec_t* value);


uvwasi_errno_t uvwasi_serdes_read_iovec_t(const void* ptr, size_t end, size_t offset, uvwasi_iovec_t* value);


void uvwasi_serdes_write_fdstat_t(void* ptr, size_t offset, const uvwasi_fdstat_t* value); void uvwasi_serdes_read_fdstat_t(const void* ptr, size_t offset, uvwasi_fdstat_t* value);


void uvwasi_serdes_write_filestat_t(void* ptr, size_t offset, const uvwasi_filestat_t* value); void uvwasi_serdes_read_filestat_t(const void* ptr, size_t offset, uvwasi_filestat_t* value);


void uvwasi_serdes_write_prestat_t(void* ptr, size_t offset, const uvwasi_prestat_t* value); void uvwasi_serdes_read_prestat_t(const void* ptr, size_t offset, uvwasi_prestat_t* value);


void uvwasi_serdes_write_event_t(void* ptr, size_t offset, const uvwasi_event_t* value); void uvwasi_serdes_read_event_t(const void* ptr, size_t offset, uvwasi_event_t* value);


void uvwasi_serdes_write_subscription_t(void* ptr, size_t offset, const uvwasi_subscription_t* value); void uvwasi_serdes_read_subscription_t(const void* ptr, size_t offset, uvwasi_subscription_t* value);




uvwasi_errno_t uvwasi_serdes_readv_ciovec_t(const void* ptr,
                                            size_t end,
                                            size_t offset,
                                            uvwasi_ciovec_t* iovs,
                                            uvwasi_size_t iovs_len);

uvwasi_errno_t uvwasi_serdes_readv_iovec_t(const void* ptr,
                                           size_t end,
                                           size_t offset,
                                           uvwasi_iovec_t* iovs,
                                           uvwasi_size_t iovs_len);


int uvwasi_serdes_check_bounds(size_t offset, size_t end, size_t size);
int uvwasi_serdes_check_array_bounds(size_t offset,
                                     size_t end,
                                     size_t size,
                                     size_t count);
# 2 "../deps/uvwasi/src/wasi_serdes.c" 2
# 1 "../deps/uvwasi/include/wasi_types.h" 1
# 3 "../deps/uvwasi/src/wasi_serdes.c" 2

void uvwasi_serdes_write_uint64_t(void* ptr,
                                  size_t offset,
                                  uint64_t value) {
  uvwasi_serdes_write_uint32_t(ptr, offset, (uint32_t) value);
  uvwasi_serdes_write_uint32_t(ptr, offset + 4, value >> 32);
}

void uvwasi_serdes_write_uint32_t(void* ptr,
                                  size_t offset,
                                  uint32_t value) {
  uvwasi_serdes_write_uint16_t(ptr, offset, (uint16_t) value);
  uvwasi_serdes_write_uint16_t(ptr, offset + 2, value >> 16);
}

void uvwasi_serdes_write_uint16_t(void* ptr,
                                  size_t offset,
                                  uint16_t value) {
  uvwasi_serdes_write_uint8_t(ptr, offset, (uint8_t) value);
  uvwasi_serdes_write_uint8_t(ptr, offset + 1, value >> 8);
}

void uvwasi_serdes_write_uint8_t(void* ptr,
                                 size_t offset,
                                 uint8_t value) {
  ((uint8_t*) ptr)[offset] = value;
}

uint64_t uvwasi_serdes_read_uint64_t(const void* ptr, size_t offset) {
  uint64_t low = uvwasi_serdes_read_uint32_t(ptr, offset);
  uint64_t high = uvwasi_serdes_read_uint32_t(ptr, offset + 4);
  return low | (high << 32);
}

uint32_t uvwasi_serdes_read_uint32_t(const void* ptr, size_t offset) {
  uint32_t low = uvwasi_serdes_read_uint16_t(ptr, offset);
  uint32_t high = uvwasi_serdes_read_uint16_t(ptr, offset + 2);
  return low | (high << 16);
}

uint16_t uvwasi_serdes_read_uint16_t(const void* ptr, size_t offset) {
  uint16_t low = uvwasi_serdes_read_uint8_t(ptr, offset);
  uint16_t high = uvwasi_serdes_read_uint8_t(ptr, offset + 1);
  return low | (high << 8);
}

uint8_t uvwasi_serdes_read_uint8_t(const void* ptr, size_t offset) {
  return ((const uint8_t*) ptr)[offset];
}
# 171 "../deps/uvwasi/src/wasi_serdes.c"
void uvwasi_serdes_write_advice_t(void* ptr, size_t offset, uvwasi_advice_t value) { uvwasi_serdes_write_uint8_t(ptr, offset, value); } void uvwasi_serdes_write_clockid_t(void* ptr, size_t offset, uvwasi_clockid_t value) { uvwasi_serdes_write_uint32_t(ptr, offset, value); } void uvwasi_serdes_write_device_t(void* ptr, size_t offset, uvwasi_device_t value) { uvwasi_serdes_write_uint64_t(ptr, offset, value); } void uvwasi_serdes_write_dircookie_t(void* ptr, size_t offset, uvwasi_dircookie_t value) { uvwasi_serdes_write_uint64_t(ptr, offset, value); } void uvwasi_serdes_write_errno_t(void* ptr, size_t offset, uvwasi_errno_t value) { uvwasi_serdes_write_uint16_t(ptr, offset, value); } void uvwasi_serdes_write_eventrwflags_t(void* ptr, size_t offset, uvwasi_eventrwflags_t value) { uvwasi_serdes_write_uint16_t(ptr, offset, value); } void uvwasi_serdes_write_eventtype_t(void* ptr, size_t offset, uvwasi_eventtype_t value) { uvwasi_serdes_write_uint8_t(ptr, offset, value); } void uvwasi_serdes_write_exitcode_t(void* ptr, size_t offset, uvwasi_exitcode_t value) { uvwasi_serdes_write_uint32_t(ptr, offset, value); } void uvwasi_serdes_write_fd_t(void* ptr, size_t offset, uvwasi_fd_t value) { uvwasi_serdes_write_uint32_t(ptr, offset, value); } void uvwasi_serdes_write_fdflags_t(void* ptr, size_t offset, uvwasi_fdflags_t value) { uvwasi_serdes_write_uint16_t(ptr, offset, value); } void uvwasi_serdes_write_filesize_t(void* ptr, size_t offset, uvwasi_filesize_t value) { uvwasi_serdes_write_uint64_t(ptr, offset, value); } void uvwasi_serdes_write_filetype_t(void* ptr, size_t offset, uvwasi_filetype_t value) { uvwasi_serdes_write_uint8_t(ptr, offset, value); } void uvwasi_serdes_write_fstflags_t(void* ptr, size_t offset, uvwasi_fstflags_t value) { uvwasi_serdes_write_uint16_t(ptr, offset, value); } void uvwasi_serdes_write_inode_t(void* ptr, size_t offset, uvwasi_inode_t value) { uvwasi_serdes_write_uint64_t(ptr, offset, value); } void uvwasi_serdes_write_linkcount_t(void* ptr, size_t offset, uvwasi_linkcount_t value) { uvwasi_serdes_write_uint64_t(ptr, offset, value); } void uvwasi_serdes_write_lookupflags_t(void* ptr, size_t offset, uvwasi_lookupflags_t value) { uvwasi_serdes_write_uint32_t(ptr, offset, value); } void uvwasi_serdes_write_oflags_t(void* ptr, size_t offset, uvwasi_oflags_t value) { uvwasi_serdes_write_uint16_t(ptr, offset, value); } void uvwasi_serdes_write_preopentype_t(void* ptr, size_t offset, uvwasi_preopentype_t value) { uvwasi_serdes_write_uint8_t(ptr, offset, value); } void uvwasi_serdes_write_riflags_t(void* ptr, size_t offset, uvwasi_riflags_t value) { uvwasi_serdes_write_uint16_t(ptr, offset, value); } void uvwasi_serdes_write_rights_t(void* ptr, size_t offset, uvwasi_rights_t value) { uvwasi_serdes_write_uint64_t(ptr, offset, value); } void uvwasi_serdes_write_roflags_t(void* ptr, size_t offset, uvwasi_roflags_t value) { uvwasi_serdes_write_uint16_t(ptr, offset, value); } void uvwasi_serdes_write_sdflags_t(void* ptr, size_t offset, uvwasi_sdflags_t value) { uvwasi_serdes_write_uint8_t(ptr, offset, value); } void uvwasi_serdes_write_siflags_t(void* ptr, size_t offset, uvwasi_siflags_t value) { uvwasi_serdes_write_uint16_t(ptr, offset, value); } void uvwasi_serdes_write_signal_t(void* ptr, size_t offset, uvwasi_signal_t value) { uvwasi_serdes_write_uint8_t(ptr, offset, value); } void uvwasi_serdes_write_size_t(void* ptr, size_t offset, uvwasi_size_t value) { uvwasi_serdes_write_uint32_t(ptr, offset, value); } void uvwasi_serdes_write_subclockflags_t(void* ptr, size_t offset, uvwasi_subclockflags_t value) { uvwasi_serdes_write_uint16_t(ptr, offset, value); } void uvwasi_serdes_write_timestamp_t(void* ptr, size_t offset, uvwasi_timestamp_t value) { uvwasi_serdes_write_uint64_t(ptr, offset, value); } void uvwasi_serdes_write_userdata_t(void* ptr, size_t offset, uvwasi_userdata_t value) { uvwasi_serdes_write_uint64_t(ptr, offset, value); } void uvwasi_serdes_write_whence_t(void* ptr, size_t offset, uvwasi_whence_t value) { uvwasi_serdes_write_uint8_t(ptr, offset, value); } void uvwasi_serdes_write_fdstat_t(void* ptr, size_t offset, const uvwasi_fdstat_t* value) { do { uvwasi_serdes_write_filetype_t(ptr, offset + 0, value->fs_filetype); } while (0); do { uvwasi_serdes_write_fdflags_t(ptr, offset + 2, value->fs_flags); } while (0); do { uvwasi_serdes_write_rights_t(ptr, offset + 8, value->fs_rights_base); } while (0); do { uvwasi_serdes_write_rights_t(ptr, offset + 16, value->fs_rights_inheriting); } while (0); } void uvwasi_serdes_write_filestat_t(void* ptr, size_t offset, const uvwasi_filestat_t* value) { do { uvwasi_serdes_write_device_t(ptr, offset + 0, value->st_dev); } while (0); do { uvwasi_serdes_write_inode_t(ptr, offset + 8, value->st_ino); } while (0); do { uvwasi_serdes_write_filetype_t(ptr, offset + 16, value->st_filetype); } while (0); do { uvwasi_serdes_write_linkcount_t(ptr, offset + 24, value->st_nlink); } while (0); do { uvwasi_serdes_write_filesize_t(ptr, offset + 32, value->st_size); } while (0); do { uvwasi_serdes_write_timestamp_t(ptr, offset + 40, value->st_atim); } while (0); do { uvwasi_serdes_write_timestamp_t(ptr, offset + 48, value->st_mtim); } while (0); do { uvwasi_serdes_write_timestamp_t(ptr, offset + 56, value->st_ctim); } while (0); } void uvwasi_serdes_write_prestat_t(void* ptr, size_t offset, const uvwasi_prestat_t* value) { do { uvwasi_serdes_write_preopentype_t(ptr, offset + 0, value->pr_type); } while (0); do { uvwasi_serdes_write_uint32_t(ptr, offset + 4, value->u.dir.pr_name_len); } while (0); } void uvwasi_serdes_write_event_t(void* ptr, size_t offset, const uvwasi_event_t* value) { do { uvwasi_serdes_write_userdata_t(ptr, offset + 0, value->userdata); } while (0); do { uvwasi_serdes_write_errno_t(ptr, offset + 8, value->error); } while (0); do { uvwasi_serdes_write_eventtype_t(ptr, offset + 10, value->type); } while (0); switch (value->type) { case 1: case 2: do { uvwasi_serdes_write_filesize_t(ptr, offset + 16, value->u.fd_readwrite.nbytes); } while (0); do { uvwasi_serdes_write_eventrwflags_t(ptr, offset + 24, value->u.fd_readwrite.flags); } while (0); } } void uvwasi_serdes_write_subscription_t(void* ptr, size_t offset, const uvwasi_subscription_t* value) { do { uvwasi_serdes_write_userdata_t(ptr, offset + 0, value->userdata); } while (0); do { uvwasi_serdes_write_eventtype_t(ptr, offset + 8, value->type); } while (0); switch (value->type) { case 0: do { uvwasi_serdes_write_clockid_t(ptr, offset + 16, value->u.clock.clock_id); } while (0); do { uvwasi_serdes_write_timestamp_t(ptr, offset + 24, value->u.clock.timeout); } while (0); do { uvwasi_serdes_write_timestamp_t(ptr, offset + 32, value->u.clock.precision); } while (0); do { uvwasi_serdes_write_subclockflags_t(ptr, offset + 40, value->u.clock.flags); } while (0); break; case 1: case 2: do { uvwasi_serdes_write_fd_t(ptr, offset + 16, value->u.fd_readwrite.fd); } while (0); } }
uvwasi_advice_t uvwasi_serdes_read_advice_t(const void* ptr, size_t offset) { return uvwasi_serdes_read_uint8_t(ptr, offset); } uvwasi_clockid_t uvwasi_serdes_read_clockid_t(const void* ptr, size_t offset) { return uvwasi_serdes_read_uint32_t(ptr, offset); } uvwasi_device_t uvwasi_serdes_read_device_t(const void* ptr, size_t offset) { return uvwasi_serdes_read_uint64_t(ptr, offset); } uvwasi_dircookie_t uvwasi_serdes_read_dircookie_t(const void* ptr, size_t offset) { return uvwasi_serdes_read_uint64_t(ptr, offset); } uvwasi_errno_t uvwasi_serdes_read_errno_t(const void* ptr, size_t offset) { return uvwasi_serdes_read_uint16_t(ptr, offset); } uvwasi_eventrwflags_t uvwasi_serdes_read_eventrwflags_t(const void* ptr, size_t offset) { return uvwasi_serdes_read_uint16_t(ptr, offset); } uvwasi_eventtype_t uvwasi_serdes_read_eventtype_t(const void* ptr, size_t offset) { return uvwasi_serdes_read_uint8_t(ptr, offset); } uvwasi_exitcode_t uvwasi_serdes_read_exitcode_t(const void* ptr, size_t offset) { return uvwasi_serdes_read_uint32_t(ptr, offset); } uvwasi_fd_t uvwasi_serdes_read_fd_t(const void* ptr, size_t offset) { return uvwasi_serdes_read_uint32_t(ptr, offset); } uvwasi_fdflags_t uvwasi_serdes_read_fdflags_t(const void* ptr, size_t offset) { return uvwasi_serdes_read_uint16_t(ptr, offset); } uvwasi_filesize_t uvwasi_serdes_read_filesize_t(const void* ptr, size_t offset) { return uvwasi_serdes_read_uint64_t(ptr, offset); } uvwasi_filetype_t uvwasi_serdes_read_filetype_t(const void* ptr, size_t offset) { return uvwasi_serdes_read_uint8_t(ptr, offset); } uvwasi_fstflags_t uvwasi_serdes_read_fstflags_t(const void* ptr, size_t offset) { return uvwasi_serdes_read_uint16_t(ptr, offset); } uvwasi_inode_t uvwasi_serdes_read_inode_t(const void* ptr, size_t offset) { return uvwasi_serdes_read_uint64_t(ptr, offset); } uvwasi_linkcount_t uvwasi_serdes_read_linkcount_t(const void* ptr, size_t offset) { return uvwasi_serdes_read_uint64_t(ptr, offset); } uvwasi_lookupflags_t uvwasi_serdes_read_lookupflags_t(const void* ptr, size_t offset) { return uvwasi_serdes_read_uint32_t(ptr, offset); } uvwasi_oflags_t uvwasi_serdes_read_oflags_t(const void* ptr, size_t offset) { return uvwasi_serdes_read_uint16_t(ptr, offset); } uvwasi_preopentype_t uvwasi_serdes_read_preopentype_t(const void* ptr, size_t offset) { return uvwasi_serdes_read_uint8_t(ptr, offset); } uvwasi_riflags_t uvwasi_serdes_read_riflags_t(const void* ptr, size_t offset) { return uvwasi_serdes_read_uint16_t(ptr, offset); } uvwasi_rights_t uvwasi_serdes_read_rights_t(const void* ptr, size_t offset) { return uvwasi_serdes_read_uint64_t(ptr, offset); } uvwasi_roflags_t uvwasi_serdes_read_roflags_t(const void* ptr, size_t offset) { return uvwasi_serdes_read_uint16_t(ptr, offset); } uvwasi_sdflags_t uvwasi_serdes_read_sdflags_t(const void* ptr, size_t offset) { return uvwasi_serdes_read_uint8_t(ptr, offset); } uvwasi_siflags_t uvwasi_serdes_read_siflags_t(const void* ptr, size_t offset) { return uvwasi_serdes_read_uint16_t(ptr, offset); } uvwasi_signal_t uvwasi_serdes_read_signal_t(const void* ptr, size_t offset) { return uvwasi_serdes_read_uint8_t(ptr, offset); } uvwasi_size_t uvwasi_serdes_read_size_t(const void* ptr, size_t offset) { return uvwasi_serdes_read_uint32_t(ptr, offset); } uvwasi_subclockflags_t uvwasi_serdes_read_subclockflags_t(const void* ptr, size_t offset) { return uvwasi_serdes_read_uint16_t(ptr, offset); } uvwasi_timestamp_t uvwasi_serdes_read_timestamp_t(const void* ptr, size_t offset) { return uvwasi_serdes_read_uint64_t(ptr, offset); } uvwasi_userdata_t uvwasi_serdes_read_userdata_t(const void* ptr, size_t offset) { return uvwasi_serdes_read_uint64_t(ptr, offset); } uvwasi_whence_t uvwasi_serdes_read_whence_t(const void* ptr, size_t offset) { return uvwasi_serdes_read_uint8_t(ptr, offset); } void uvwasi_serdes_read_fdstat_t(const void* ptr, size_t offset, uvwasi_fdstat_t* value) { do { value->fs_filetype = uvwasi_serdes_read_filetype_t(ptr, offset + 0); } while (0); do { value->fs_flags = uvwasi_serdes_read_fdflags_t(ptr, offset + 2); } while (0); do { value->fs_rights_base = uvwasi_serdes_read_rights_t(ptr, offset + 8); } while (0); do { value->fs_rights_inheriting = uvwasi_serdes_read_rights_t(ptr, offset + 16); } while (0); } void uvwasi_serdes_read_filestat_t(const void* ptr, size_t offset, uvwasi_filestat_t* value) { do { value->st_dev = uvwasi_serdes_read_device_t(ptr, offset + 0); } while (0); do { value->st_ino = uvwasi_serdes_read_inode_t(ptr, offset + 8); } while (0); do { value->st_filetype = uvwasi_serdes_read_filetype_t(ptr, offset + 16); } while (0); do { value->st_nlink = uvwasi_serdes_read_linkcount_t(ptr, offset + 24); } while (0); do { value->st_size = uvwasi_serdes_read_filesize_t(ptr, offset + 32); } while (0); do { value->st_atim = uvwasi_serdes_read_timestamp_t(ptr, offset + 40); } while (0); do { value->st_mtim = uvwasi_serdes_read_timestamp_t(ptr, offset + 48); } while (0); do { value->st_ctim = uvwasi_serdes_read_timestamp_t(ptr, offset + 56); } while (0); } void uvwasi_serdes_read_prestat_t(const void* ptr, size_t offset, uvwasi_prestat_t* value) { do { value->pr_type = uvwasi_serdes_read_preopentype_t(ptr, offset + 0); } while (0); do { value->u.dir.pr_name_len = uvwasi_serdes_read_uint32_t(ptr, offset + 4); } while (0); } void uvwasi_serdes_read_event_t(const void* ptr, size_t offset, uvwasi_event_t* value) { do { value->userdata = uvwasi_serdes_read_userdata_t(ptr, offset + 0); } while (0); do { value->error = uvwasi_serdes_read_errno_t(ptr, offset + 8); } while (0); do { value->type = uvwasi_serdes_read_eventtype_t(ptr, offset + 10); } while (0); switch (value->type) { case 1: case 2: do { value->u.fd_readwrite.nbytes = uvwasi_serdes_read_filesize_t(ptr, offset + 16); } while (0); do { value->u.fd_readwrite.flags = uvwasi_serdes_read_eventrwflags_t(ptr, offset + 24); } while (0); } } void uvwasi_serdes_read_subscription_t(const void* ptr, size_t offset, uvwasi_subscription_t* value) { do { value->userdata = uvwasi_serdes_read_userdata_t(ptr, offset + 0); } while (0); do { value->type = uvwasi_serdes_read_eventtype_t(ptr, offset + 8); } while (0); switch (value->type) { case 0: do { value->u.clock.clock_id = uvwasi_serdes_read_clockid_t(ptr, offset + 16); } while (0); do { value->u.clock.timeout = uvwasi_serdes_read_timestamp_t(ptr, offset + 24); } while (0); do { value->u.clock.precision = uvwasi_serdes_read_timestamp_t(ptr, offset + 32); } while (0); do { value->u.clock.flags = uvwasi_serdes_read_subclockflags_t(ptr, offset + 40); } while (0); break; case 1: case 2: do { value->u.fd_readwrite.fd = uvwasi_serdes_read_fd_t(ptr, offset + 16); } while (0); } }


uvwasi_errno_t uvwasi_serdes_read_ciovec_t(const void* ptr,
                                           size_t end,
                                           size_t offset,
                                           uvwasi_ciovec_t* value) {
  uint32_t buf_ptr;

  buf_ptr = uvwasi_serdes_read_uint32_t(ptr, offset);
  value->buf_len = uvwasi_serdes_read_size_t(ptr, offset + 4);

  if (!uvwasi_serdes_check_bounds(buf_ptr, end, value->buf_len))
    return 61;

  value->buf = ((uint8_t*) ptr + buf_ptr);
  return 0;
}


uvwasi_errno_t uvwasi_serdes_read_iovec_t(const void* ptr,
                                          size_t end,
                                          size_t offset,
                                          uvwasi_iovec_t* value) {
  uint32_t buf_ptr;

  buf_ptr = uvwasi_serdes_read_uint32_t(ptr, offset);
  value->buf_len = uvwasi_serdes_read_size_t(ptr, offset + 4);

  if (!uvwasi_serdes_check_bounds(buf_ptr, end, value->buf_len))
    return 61;

  value->buf = ((uint8_t*) ptr + buf_ptr);
  return 0;
}


uvwasi_errno_t uvwasi_serdes_readv_ciovec_t(const void* ptr,
                                            size_t end,
                                            size_t offset,
                                            uvwasi_ciovec_t* iovs,
                                            uvwasi_size_t iovs_len) {
  uvwasi_errno_t err;
  uvwasi_size_t i;

  for (i = 0; i < iovs_len; i++) {
    err = uvwasi_serdes_read_ciovec_t(ptr, end, offset, &iovs[i]);
    if (err != 0)
      return err;
    offset += 8;
  }

  return 0;
}


uvwasi_errno_t uvwasi_serdes_readv_iovec_t(const void* ptr,
                                           size_t end,
                                           size_t offset,
                                           uvwasi_iovec_t* iovs,
                                           uvwasi_size_t iovs_len) {
  uvwasi_errno_t err;
  uvwasi_size_t i;

  for (i = 0; i < iovs_len; i++) {
    err = uvwasi_serdes_read_iovec_t(ptr, end, offset, &iovs[i]);
    if (err != 0)
      return err;
    offset += 8;
  }

  return 0;
}


int uvwasi_serdes_check_bounds(size_t offset, size_t end, size_t size) {
  return end > offset && size <= (end - offset);
}


int uvwasi_serdes_check_array_bounds(size_t offset,
                                     size_t end,
                                     size_t size,
                                     size_t count) {
  return end > offset &&
         ((count * size) / size == count) &&
         (count * size <= end - offset);
}
