# 1 "../deps/openssl/openssl/crypto/des/rand_key.c"
# 1 "<built-in>"
# 1 "<command-line>"
# 1 "/usr/include/stdc-predef.h" 1 3 4
# 1 "<command-line>" 2
# 1 "../deps/openssl/openssl/crypto/des/rand_key.c"
# 10 "../deps/openssl/openssl/crypto/des/rand_key.c"
# 1 "../deps/openssl/openssl/include/openssl/des.h" 1
# 13 "../deps/openssl/openssl/include/openssl/des.h"
# 1 "../deps/openssl/openssl/include/openssl/opensslconf.h" 1
# 1 "../deps/openssl/openssl/include/../../config/opensslconf.h" 1
# 9 "../deps/openssl/openssl/include/../../config/opensslconf.h"
# 1 "../deps/openssl/openssl/include/../../config/./opensslconf_asm.h" 1
# 98 "../deps/openssl/openssl/include/../../config/./opensslconf_asm.h"
# 1 "../deps/openssl/openssl/include/../../config/././archs/linux-x86_64/asm/include/openssl/opensslconf.h" 1
# 13 "../deps/openssl/openssl/include/../../config/././archs/linux-x86_64/asm/include/openssl/opensslconf.h"
# 1 "../deps/openssl/openssl/include/openssl/opensslv.h" 1
# 14 "../deps/openssl/openssl/include/../../config/././archs/linux-x86_64/asm/include/openssl/opensslconf.h" 2
# 99 "../deps/openssl/openssl/include/../../config/./opensslconf_asm.h" 2
# 10 "../deps/openssl/openssl/include/../../config/opensslconf.h" 2
# 1 "../deps/openssl/openssl/include/openssl/opensslconf.h" 2
# 14 "../deps/openssl/openssl/include/openssl/des.h" 2





# 1 "../deps/openssl/openssl/include/openssl/e_os2.h" 1
# 13 "../deps/openssl/openssl/include/openssl/e_os2.h"
# 1 "../deps/openssl/openssl/include/openssl/opensslconf.h" 1
# 1 "../deps/openssl/openssl/include/../../config/opensslconf.h" 1
# 9 "../deps/openssl/openssl/include/../../config/opensslconf.h"
# 1 "../deps/openssl/openssl/include/../../config/./opensslconf_asm.h" 1
# 98 "../deps/openssl/openssl/include/../../config/./opensslconf_asm.h"
# 1 "../deps/openssl/openssl/include/../../config/././archs/linux-x86_64/asm/include/openssl/opensslconf.h" 1
# 99 "../deps/openssl/openssl/include/../../config/./opensslconf_asm.h" 2
# 10 "../deps/openssl/openssl/include/../../config/opensslconf.h" 2
# 1 "../deps/openssl/openssl/include/openssl/opensslconf.h" 2
# 14 "../deps/openssl/openssl/include/openssl/e_os2.h" 2
# 243 "../deps/openssl/openssl/include/openssl/e_os2.h"
# 1 "/usr/include/inttypes.h" 1 3 4
# 25 "/usr/include/inttypes.h" 3 4
# 1 "/usr/include/features.h" 1 3 4
# 461 "/usr/include/features.h" 3 4
# 1 "/usr/include/x86_64-linux-gnu/sys/cdefs.h" 1 3 4
# 452 "/usr/include/x86_64-linux-gnu/sys/cdefs.h" 3 4
# 1 "/usr/include/x86_64-linux-gnu/bits/wordsize.h" 1 3 4
# 453 "/usr/include/x86_64-linux-gnu/sys/cdefs.h" 2 3 4
# 1 "/usr/include/x86_64-linux-gnu/bits/long-double.h" 1 3 4
# 454 "/usr/include/x86_64-linux-gnu/sys/cdefs.h" 2 3 4
# 462 "/usr/include/features.h" 2 3 4
# 485 "/usr/include/features.h" 3 4
# 1 "/usr/include/x86_64-linux-gnu/gnu/stubs.h" 1 3 4
# 10 "/usr/include/x86_64-linux-gnu/gnu/stubs.h" 3 4
# 1 "/usr/include/x86_64-linux-gnu/gnu/stubs-64.h" 1 3 4
# 11 "/usr/include/x86_64-linux-gnu/gnu/stubs.h" 2 3 4
# 486 "/usr/include/features.h" 2 3 4
# 26 "/usr/include/inttypes.h" 2 3 4

# 1 "/usr/lib/gcc/x86_64-linux-gnu/9/include/stdint.h" 1 3 4
# 9 "/usr/lib/gcc/x86_64-linux-gnu/9/include/stdint.h" 3 4
# 1 "/usr/include/stdint.h" 1 3 4
# 26 "/usr/include/stdint.h" 3 4
# 1 "/usr/include/x86_64-linux-gnu/bits/libc-header-start.h" 1 3 4
# 27 "/usr/include/stdint.h" 2 3 4
# 1 "/usr/include/x86_64-linux-gnu/bits/types.h" 1 3 4
# 27 "/usr/include/x86_64-linux-gnu/bits/types.h" 3 4
# 1 "/usr/include/x86_64-linux-gnu/bits/wordsize.h" 1 3 4
# 28 "/usr/include/x86_64-linux-gnu/bits/types.h" 2 3 4
# 1 "/usr/include/x86_64-linux-gnu/bits/timesize.h" 1 3 4
# 29 "/usr/include/x86_64-linux-gnu/bits/types.h" 2 3 4



# 31 "/usr/include/x86_64-linux-gnu/bits/types.h" 3 4
typedef unsigned char __u_char;
typedef unsigned short int __u_short;
typedef unsigned int __u_int;
typedef unsigned long int __u_long;


typedef signed char __int8_t;
typedef unsigned char __uint8_t;
typedef signed short int __int16_t;
typedef unsigned short int __uint16_t;
typedef signed int __int32_t;
typedef unsigned int __uint32_t;

typedef signed long int __int64_t;
typedef unsigned long int __uint64_t;






typedef __int8_t __int_least8_t;
typedef __uint8_t __uint_least8_t;
typedef __int16_t __int_least16_t;
typedef __uint16_t __uint_least16_t;
typedef __int32_t __int_least32_t;
typedef __uint32_t __uint_least32_t;
typedef __int64_t __int_least64_t;
typedef __uint64_t __uint_least64_t;



typedef long int __quad_t;
typedef unsigned long int __u_quad_t;







typedef long int __intmax_t;
typedef unsigned long int __uintmax_t;
# 141 "/usr/include/x86_64-linux-gnu/bits/types.h" 3 4
# 1 "/usr/include/x86_64-linux-gnu/bits/typesizes.h" 1 3 4
# 142 "/usr/include/x86_64-linux-gnu/bits/types.h" 2 3 4
# 1 "/usr/include/x86_64-linux-gnu/bits/time64.h" 1 3 4
# 143 "/usr/include/x86_64-linux-gnu/bits/types.h" 2 3 4


typedef unsigned long int __dev_t;
typedef unsigned int __uid_t;
typedef unsigned int __gid_t;
typedef unsigned long int __ino_t;
typedef unsigned long int __ino64_t;
typedef unsigned int __mode_t;
typedef unsigned long int __nlink_t;
typedef long int __off_t;
typedef long int __off64_t;
typedef int __pid_t;
typedef struct { int __val[2]; } __fsid_t;
typedef long int __clock_t;
typedef unsigned long int __rlim_t;
typedef unsigned long int __rlim64_t;
typedef unsigned int __id_t;
typedef long int __time_t;
typedef unsigned int __useconds_t;
typedef long int __suseconds_t;

typedef int __daddr_t;
typedef int __key_t;


typedef int __clockid_t;


typedef void * __timer_t;


typedef long int __blksize_t;




typedef long int __blkcnt_t;
typedef long int __blkcnt64_t;


typedef unsigned long int __fsblkcnt_t;
typedef unsigned long int __fsblkcnt64_t;


typedef unsigned long int __fsfilcnt_t;
typedef unsigned long int __fsfilcnt64_t;


typedef long int __fsword_t;

typedef long int __ssize_t;


typedef long int __syscall_slong_t;

typedef unsigned long int __syscall_ulong_t;



typedef __off64_t __loff_t;
typedef char *__caddr_t;


typedef long int __intptr_t;


typedef unsigned int __socklen_t;




typedef int __sig_atomic_t;
# 28 "/usr/include/stdint.h" 2 3 4
# 1 "/usr/include/x86_64-linux-gnu/bits/wchar.h" 1 3 4
# 29 "/usr/include/stdint.h" 2 3 4
# 1 "/usr/include/x86_64-linux-gnu/bits/wordsize.h" 1 3 4
# 30 "/usr/include/stdint.h" 2 3 4




# 1 "/usr/include/x86_64-linux-gnu/bits/stdint-intn.h" 1 3 4
# 24 "/usr/include/x86_64-linux-gnu/bits/stdint-intn.h" 3 4
typedef __int8_t int8_t;
typedef __int16_t int16_t;
typedef __int32_t int32_t;
typedef __int64_t int64_t;
# 35 "/usr/include/stdint.h" 2 3 4


# 1 "/usr/include/x86_64-linux-gnu/bits/stdint-uintn.h" 1 3 4
# 24 "/usr/include/x86_64-linux-gnu/bits/stdint-uintn.h" 3 4
typedef __uint8_t uint8_t;
typedef __uint16_t uint16_t;
typedef __uint32_t uint32_t;
typedef __uint64_t uint64_t;
# 38 "/usr/include/stdint.h" 2 3 4





typedef __int_least8_t int_least8_t;
typedef __int_least16_t int_least16_t;
typedef __int_least32_t int_least32_t;
typedef __int_least64_t int_least64_t;


typedef __uint_least8_t uint_least8_t;
typedef __uint_least16_t uint_least16_t;
typedef __uint_least32_t uint_least32_t;
typedef __uint_least64_t uint_least64_t;





typedef signed char int_fast8_t;

typedef long int int_fast16_t;
typedef long int int_fast32_t;
typedef long int int_fast64_t;
# 71 "/usr/include/stdint.h" 3 4
typedef unsigned char uint_fast8_t;

typedef unsigned long int uint_fast16_t;
typedef unsigned long int uint_fast32_t;
typedef unsigned long int uint_fast64_t;
# 87 "/usr/include/stdint.h" 3 4
typedef long int intptr_t;


typedef unsigned long int uintptr_t;
# 101 "/usr/include/stdint.h" 3 4
typedef __intmax_t intmax_t;
typedef __uintmax_t uintmax_t;
# 10 "/usr/lib/gcc/x86_64-linux-gnu/9/include/stdint.h" 2 3 4
# 28 "/usr/include/inttypes.h" 2 3 4






typedef int __gwchar_t;
# 266 "/usr/include/inttypes.h" 3 4





typedef struct
  {
    long int quot;
    long int rem;
  } imaxdiv_t;
# 290 "/usr/include/inttypes.h" 3 4
extern intmax_t imaxabs (intmax_t __n) __attribute__ ((__nothrow__ , __leaf__)) __attribute__ ((__const__));


extern imaxdiv_t imaxdiv (intmax_t __numer, intmax_t __denom)
      __attribute__ ((__nothrow__ , __leaf__)) __attribute__ ((__const__));


extern intmax_t strtoimax (const char *__restrict __nptr,
      char **__restrict __endptr, int __base) __attribute__ ((__nothrow__ , __leaf__));


extern uintmax_t strtoumax (const char *__restrict __nptr,
       char ** __restrict __endptr, int __base) __attribute__ ((__nothrow__ , __leaf__));


extern intmax_t wcstoimax (const __gwchar_t *__restrict __nptr,
      __gwchar_t **__restrict __endptr, int __base)
     __attribute__ ((__nothrow__ , __leaf__));


extern uintmax_t wcstoumax (const __gwchar_t *__restrict __nptr,
       __gwchar_t ** __restrict __endptr, int __base)
     __attribute__ ((__nothrow__ , __leaf__));





extern long int __strtol_internal (const char *__restrict __nptr,
       char **__restrict __endptr,
       int __base, int __group)
  __attribute__ ((__nothrow__ , __leaf__)) __attribute__ ((__nonnull__ (1))) __attribute__ ((__warn_unused_result__));

extern __inline __attribute__ ((__gnu_inline__)) intmax_t
__attribute__ ((__nothrow__ , __leaf__)) strtoimax (const char *__restrict nptr, char **__restrict endptr, int base)

{
  return __strtol_internal (nptr, endptr, base, 0);
}

extern unsigned long int __strtoul_internal (const char *__restrict __nptr,
          char ** __restrict __endptr,
          int __base, int __group)
  __attribute__ ((__nothrow__ , __leaf__)) __attribute__ ((__nonnull__ (1))) __attribute__ ((__warn_unused_result__));

extern __inline __attribute__ ((__gnu_inline__)) uintmax_t
__attribute__ ((__nothrow__ , __leaf__)) strtoumax (const char *__restrict nptr, char **__restrict endptr, int base)

{
  return __strtoul_internal (nptr, endptr, base, 0);
}

extern long int __wcstol_internal (const __gwchar_t * __restrict __nptr,
       __gwchar_t **__restrict __endptr,
       int __base, int __group)
  __attribute__ ((__nothrow__ , __leaf__)) __attribute__ ((__nonnull__ (1))) __attribute__ ((__warn_unused_result__));

extern __inline __attribute__ ((__gnu_inline__)) intmax_t
__attribute__ ((__nothrow__ , __leaf__)) wcstoimax (const __gwchar_t *__restrict nptr, __gwchar_t **__restrict endptr, int base)

{
  return __wcstol_internal (nptr, endptr, base, 0);
}

extern unsigned long int __wcstoul_internal (const __gwchar_t *
          __restrict __nptr,
          __gwchar_t **
          __restrict __endptr,
          int __base, int __group)
  __attribute__ ((__nothrow__ , __leaf__)) __attribute__ ((__nonnull__ (1))) __attribute__ ((__warn_unused_result__));

extern __inline __attribute__ ((__gnu_inline__)) uintmax_t
__attribute__ ((__nothrow__ , __leaf__)) wcstoumax (const __gwchar_t *__restrict nptr, __gwchar_t **__restrict endptr, int base)

{
  return __wcstoul_internal (nptr, endptr, base, 0);
}
# 432 "/usr/include/inttypes.h" 3 4

# 244 "../deps/openssl/openssl/include/openssl/e_os2.h" 2
# 20 "../deps/openssl/openssl/include/openssl/des.h" 2


# 21 "../deps/openssl/openssl/include/openssl/des.h"
typedef unsigned int DES_LONG;






typedef unsigned char DES_cblock[8];
typedef unsigned char const_DES_cblock[8];





typedef struct DES_ks {
    union {
        DES_cblock cblock;



        DES_LONG deslong[2];
    } ks[16];
} DES_key_schedule;
# 66 "../deps/openssl/openssl/include/openssl/des.h"
extern int _shadow_DES_check_key;


const char *DES_options(void);
void DES_ecb3_encrypt(const_DES_cblock *input, DES_cblock *output,
                      DES_key_schedule *ks1, DES_key_schedule *ks2,
                      DES_key_schedule *ks3, int enc);
DES_LONG DES_cbc_cksum(const unsigned char *input, DES_cblock *output,
                       long length, DES_key_schedule *schedule,
                       const_DES_cblock *ivec);

void DES_cbc_encrypt(const unsigned char *input, unsigned char *output,
                     long length, DES_key_schedule *schedule,
                     DES_cblock *ivec, int enc);
void DES_ncbc_encrypt(const unsigned char *input, unsigned char *output,
                      long length, DES_key_schedule *schedule,
                      DES_cblock *ivec, int enc);
void DES_xcbc_encrypt(const unsigned char *input, unsigned char *output,
                      long length, DES_key_schedule *schedule,
                      DES_cblock *ivec, const_DES_cblock *inw,
                      const_DES_cblock *outw, int enc);
void DES_cfb_encrypt(const unsigned char *in, unsigned char *out, int numbits,
                     long length, DES_key_schedule *schedule,
                     DES_cblock *ivec, int enc);
void DES_ecb_encrypt(const_DES_cblock *input, DES_cblock *output,
                     DES_key_schedule *ks, int enc);
# 103 "../deps/openssl/openssl/include/openssl/des.h"
void DES_encrypt1(DES_LONG *data, DES_key_schedule *ks, int enc);
# 113 "../deps/openssl/openssl/include/openssl/des.h"
void DES_encrypt2(DES_LONG *data, DES_key_schedule *ks, int enc);

void DES_encrypt3(DES_LONG *data, DES_key_schedule *ks1,
                  DES_key_schedule *ks2, DES_key_schedule *ks3);
void DES_decrypt3(DES_LONG *data, DES_key_schedule *ks1,
                  DES_key_schedule *ks2, DES_key_schedule *ks3);
void DES_ede3_cbc_encrypt(const unsigned char *input, unsigned char *output,
                          long length,
                          DES_key_schedule *ks1, DES_key_schedule *ks2,
                          DES_key_schedule *ks3, DES_cblock *ivec, int enc);
void DES_ede3_cfb64_encrypt(const unsigned char *in, unsigned char *out,
                            long length, DES_key_schedule *ks1,
                            DES_key_schedule *ks2, DES_key_schedule *ks3,
                            DES_cblock *ivec, int *num, int enc);
void DES_ede3_cfb_encrypt(const unsigned char *in, unsigned char *out,
                          int numbits, long length, DES_key_schedule *ks1,
                          DES_key_schedule *ks2, DES_key_schedule *ks3,
                          DES_cblock *ivec, int enc);
void DES_ede3_ofb64_encrypt(const unsigned char *in, unsigned char *out,
                            long length, DES_key_schedule *ks1,
                            DES_key_schedule *ks2, DES_key_schedule *ks3,
                            DES_cblock *ivec, int *num);
char *DES_fcrypt(const char *buf, const char *salt, char *ret);
char *DES_crypt(const char *buf, const char *salt);
void DES_ofb_encrypt(const unsigned char *in, unsigned char *out, int numbits,
                     long length, DES_key_schedule *schedule,
                     DES_cblock *ivec);
void DES_pcbc_encrypt(const unsigned char *input, unsigned char *output,
                      long length, DES_key_schedule *schedule,
                      DES_cblock *ivec, int enc);
DES_LONG DES_quad_cksum(const unsigned char *input, DES_cblock output[],
                        long length, int out_count, DES_cblock *seed);
int DES_random_key(DES_cblock *ret);
void DES_set_odd_parity(DES_cblock *key);
int DES_check_key_parity(const_DES_cblock *key);
int DES_is_weak_key(const_DES_cblock *key);





int DES_set_key(const_DES_cblock *key, DES_key_schedule *schedule);
int DES_key_sched(const_DES_cblock *key, DES_key_schedule *schedule);
int DES_set_key_checked(const_DES_cblock *key, DES_key_schedule *schedule);
void DES_set_key_unchecked(const_DES_cblock *key, DES_key_schedule *schedule);
void DES_string_to_key(const char *str, DES_cblock *key);
void DES_string_to_2keys(const char *str, DES_cblock *key1, DES_cblock *key2);
void DES_cfb64_encrypt(const unsigned char *in, unsigned char *out,
                       long length, DES_key_schedule *schedule,
                       DES_cblock *ivec, int *num, int enc);
void DES_ofb64_encrypt(const unsigned char *in, unsigned char *out,
                       long length, DES_key_schedule *schedule,
                       DES_cblock *ivec, int *num);
# 11 "../deps/openssl/openssl/crypto/des/rand_key.c" 2
# 1 "../deps/openssl/openssl/include/openssl/rand.h" 1
# 13 "../deps/openssl/openssl/include/openssl/rand.h"
# 1 "/usr/include/stdlib.h" 1 3 4
# 25 "/usr/include/stdlib.h" 3 4
# 1 "/usr/include/x86_64-linux-gnu/bits/libc-header-start.h" 1 3 4
# 26 "/usr/include/stdlib.h" 2 3 4





# 1 "/usr/lib/gcc/x86_64-linux-gnu/9/include/stddef.h" 1 3 4
# 209 "/usr/lib/gcc/x86_64-linux-gnu/9/include/stddef.h" 3 4

# 209 "/usr/lib/gcc/x86_64-linux-gnu/9/include/stddef.h" 3 4
typedef long unsigned int size_t;
# 321 "/usr/lib/gcc/x86_64-linux-gnu/9/include/stddef.h" 3 4
typedef int wchar_t;
# 32 "/usr/include/stdlib.h" 2 3 4







# 1 "/usr/include/x86_64-linux-gnu/bits/waitflags.h" 1 3 4
# 52 "/usr/include/x86_64-linux-gnu/bits/waitflags.h" 3 4
typedef enum
{
  P_ALL,
  P_PID,
  P_PGID
} idtype_t;
# 40 "/usr/include/stdlib.h" 2 3 4
# 1 "/usr/include/x86_64-linux-gnu/bits/waitstatus.h" 1 3 4
# 41 "/usr/include/stdlib.h" 2 3 4
# 55 "/usr/include/stdlib.h" 3 4
# 1 "/usr/include/x86_64-linux-gnu/bits/floatn.h" 1 3 4
# 120 "/usr/include/x86_64-linux-gnu/bits/floatn.h" 3 4
# 1 "/usr/include/x86_64-linux-gnu/bits/floatn-common.h" 1 3 4
# 24 "/usr/include/x86_64-linux-gnu/bits/floatn-common.h" 3 4
# 1 "/usr/include/x86_64-linux-gnu/bits/long-double.h" 1 3 4
# 25 "/usr/include/x86_64-linux-gnu/bits/floatn-common.h" 2 3 4
# 121 "/usr/include/x86_64-linux-gnu/bits/floatn.h" 2 3 4
# 56 "/usr/include/stdlib.h" 2 3 4


typedef struct
  {
    int quot;
    int rem;
  } div_t;



typedef struct
  {
    long int quot;
    long int rem;
  } ldiv_t;





__extension__ typedef struct
  {
    long long int quot;
    long long int rem;
  } lldiv_t;
# 97 "/usr/include/stdlib.h" 3 4
extern size_t __ctype_get_mb_cur_max (void) __attribute__ ((__nothrow__ , __leaf__)) __attribute__ ((__warn_unused_result__));



extern double atof (const char *__nptr)
     __attribute__ ((__nothrow__ , __leaf__)) __attribute__ ((__pure__)) __attribute__ ((__nonnull__ (1))) __attribute__ ((__warn_unused_result__));

extern int atoi (const char *__nptr)
     __attribute__ ((__nothrow__ , __leaf__)) __attribute__ ((__pure__)) __attribute__ ((__nonnull__ (1))) __attribute__ ((__warn_unused_result__));

extern long int atol (const char *__nptr)
     __attribute__ ((__nothrow__ , __leaf__)) __attribute__ ((__pure__)) __attribute__ ((__nonnull__ (1))) __attribute__ ((__warn_unused_result__));



__extension__ extern long long int atoll (const char *__nptr)
     __attribute__ ((__nothrow__ , __leaf__)) __attribute__ ((__pure__)) __attribute__ ((__nonnull__ (1))) __attribute__ ((__warn_unused_result__));



extern double strtod (const char *__restrict __nptr,
        char **__restrict __endptr)
     __attribute__ ((__nothrow__ , __leaf__)) __attribute__ ((__nonnull__ (1)));



extern float strtof (const char *__restrict __nptr,
       char **__restrict __endptr) __attribute__ ((__nothrow__ , __leaf__)) __attribute__ ((__nonnull__ (1)));

extern long double strtold (const char *__restrict __nptr,
       char **__restrict __endptr)
     __attribute__ ((__nothrow__ , __leaf__)) __attribute__ ((__nonnull__ (1)));
# 176 "/usr/include/stdlib.h" 3 4
extern long int strtol (const char *__restrict __nptr,
   char **__restrict __endptr, int __base)
     __attribute__ ((__nothrow__ , __leaf__)) __attribute__ ((__nonnull__ (1)));

extern unsigned long int strtoul (const char *__restrict __nptr,
      char **__restrict __endptr, int __base)
     __attribute__ ((__nothrow__ , __leaf__)) __attribute__ ((__nonnull__ (1)));



__extension__
extern long long int strtoq (const char *__restrict __nptr,
        char **__restrict __endptr, int __base)
     __attribute__ ((__nothrow__ , __leaf__)) __attribute__ ((__nonnull__ (1)));

__extension__
extern unsigned long long int strtouq (const char *__restrict __nptr,
           char **__restrict __endptr, int __base)
     __attribute__ ((__nothrow__ , __leaf__)) __attribute__ ((__nonnull__ (1)));




__extension__
extern long long int strtoll (const char *__restrict __nptr,
         char **__restrict __endptr, int __base)
     __attribute__ ((__nothrow__ , __leaf__)) __attribute__ ((__nonnull__ (1)));

__extension__
extern unsigned long long int strtoull (const char *__restrict __nptr,
     char **__restrict __endptr, int __base)
     __attribute__ ((__nothrow__ , __leaf__)) __attribute__ ((__nonnull__ (1)));
# 360 "/usr/include/stdlib.h" 3 4
extern __inline __attribute__ ((__gnu_inline__)) int
__attribute__ ((__nothrow__ , __leaf__)) atoi (const char *__nptr)
{
  return (int) strtol (__nptr, (char **) ((void *)0), 10);
}
extern __inline __attribute__ ((__gnu_inline__)) long int
__attribute__ ((__nothrow__ , __leaf__)) atol (const char *__nptr)
{
  return strtol (__nptr, (char **) ((void *)0), 10);
}


__extension__ extern __inline __attribute__ ((__gnu_inline__)) long long int
__attribute__ ((__nothrow__ , __leaf__)) atoll (const char *__nptr)
{
  return strtoll (__nptr, (char **) ((void *)0), 10);
}
# 385 "/usr/include/stdlib.h" 3 4
extern char *l64a (long int __n) __attribute__ ((__nothrow__ , __leaf__)) __attribute__ ((__warn_unused_result__));


extern long int a64l (const char *__s)
     __attribute__ ((__nothrow__ , __leaf__)) __attribute__ ((__pure__)) __attribute__ ((__nonnull__ (1))) __attribute__ ((__warn_unused_result__));




# 1 "/usr/include/x86_64-linux-gnu/sys/types.h" 1 3 4
# 27 "/usr/include/x86_64-linux-gnu/sys/types.h" 3 4






typedef __u_char u_char;
typedef __u_short u_short;
typedef __u_int u_int;
typedef __u_long u_long;
typedef __quad_t quad_t;
typedef __u_quad_t u_quad_t;
typedef __fsid_t fsid_t;


typedef __loff_t loff_t;




typedef __ino_t ino_t;
# 59 "/usr/include/x86_64-linux-gnu/sys/types.h" 3 4
typedef __dev_t dev_t;




typedef __gid_t gid_t;




typedef __mode_t mode_t;




typedef __nlink_t nlink_t;




typedef __uid_t uid_t;





typedef __off_t off_t;
# 97 "/usr/include/x86_64-linux-gnu/sys/types.h" 3 4
typedef __pid_t pid_t;





typedef __id_t id_t;




typedef __ssize_t ssize_t;





typedef __daddr_t daddr_t;
typedef __caddr_t caddr_t;





typedef __key_t key_t;




# 1 "/usr/include/x86_64-linux-gnu/bits/types/clock_t.h" 1 3 4






typedef __clock_t clock_t;
# 127 "/usr/include/x86_64-linux-gnu/sys/types.h" 2 3 4

# 1 "/usr/include/x86_64-linux-gnu/bits/types/clockid_t.h" 1 3 4






typedef __clockid_t clockid_t;
# 129 "/usr/include/x86_64-linux-gnu/sys/types.h" 2 3 4
# 1 "/usr/include/x86_64-linux-gnu/bits/types/time_t.h" 1 3 4






typedef __time_t time_t;
# 130 "/usr/include/x86_64-linux-gnu/sys/types.h" 2 3 4
# 1 "/usr/include/x86_64-linux-gnu/bits/types/timer_t.h" 1 3 4






typedef __timer_t timer_t;
# 131 "/usr/include/x86_64-linux-gnu/sys/types.h" 2 3 4
# 144 "/usr/include/x86_64-linux-gnu/sys/types.h" 3 4
# 1 "/usr/lib/gcc/x86_64-linux-gnu/9/include/stddef.h" 1 3 4
# 145 "/usr/include/x86_64-linux-gnu/sys/types.h" 2 3 4



typedef unsigned long int ulong;
typedef unsigned short int ushort;
typedef unsigned int uint;







typedef __uint8_t u_int8_t;
typedef __uint16_t u_int16_t;
typedef __uint32_t u_int32_t;
typedef __uint64_t u_int64_t;


typedef int register_t __attribute__ ((__mode__ (__word__)));
# 176 "/usr/include/x86_64-linux-gnu/sys/types.h" 3 4
# 1 "/usr/include/endian.h" 1 3 4
# 24 "/usr/include/endian.h" 3 4
# 1 "/usr/include/x86_64-linux-gnu/bits/endian.h" 1 3 4
# 35 "/usr/include/x86_64-linux-gnu/bits/endian.h" 3 4
# 1 "/usr/include/x86_64-linux-gnu/bits/endianness.h" 1 3 4
# 36 "/usr/include/x86_64-linux-gnu/bits/endian.h" 2 3 4
# 25 "/usr/include/endian.h" 2 3 4
# 35 "/usr/include/endian.h" 3 4
# 1 "/usr/include/x86_64-linux-gnu/bits/byteswap.h" 1 3 4
# 33 "/usr/include/x86_64-linux-gnu/bits/byteswap.h" 3 4
static __inline __uint16_t
__bswap_16 (__uint16_t __bsx)
{

  return __builtin_bswap16 (__bsx);



}






static __inline __uint32_t
__bswap_32 (__uint32_t __bsx)
{

  return __builtin_bswap32 (__bsx);



}
# 69 "/usr/include/x86_64-linux-gnu/bits/byteswap.h" 3 4
__extension__ static __inline __uint64_t
__bswap_64 (__uint64_t __bsx)
{

  return __builtin_bswap64 (__bsx);



}
# 36 "/usr/include/endian.h" 2 3 4
# 1 "/usr/include/x86_64-linux-gnu/bits/uintn-identity.h" 1 3 4
# 32 "/usr/include/x86_64-linux-gnu/bits/uintn-identity.h" 3 4
static __inline __uint16_t
__uint16_identity (__uint16_t __x)
{
  return __x;
}

static __inline __uint32_t
__uint32_identity (__uint32_t __x)
{
  return __x;
}

static __inline __uint64_t
__uint64_identity (__uint64_t __x)
{
  return __x;
}
# 37 "/usr/include/endian.h" 2 3 4
# 177 "/usr/include/x86_64-linux-gnu/sys/types.h" 2 3 4


# 1 "/usr/include/x86_64-linux-gnu/sys/select.h" 1 3 4
# 30 "/usr/include/x86_64-linux-gnu/sys/select.h" 3 4
# 1 "/usr/include/x86_64-linux-gnu/bits/select.h" 1 3 4
# 22 "/usr/include/x86_64-linux-gnu/bits/select.h" 3 4
# 1 "/usr/include/x86_64-linux-gnu/bits/wordsize.h" 1 3 4
# 23 "/usr/include/x86_64-linux-gnu/bits/select.h" 2 3 4
# 31 "/usr/include/x86_64-linux-gnu/sys/select.h" 2 3 4


# 1 "/usr/include/x86_64-linux-gnu/bits/types/sigset_t.h" 1 3 4



# 1 "/usr/include/x86_64-linux-gnu/bits/types/__sigset_t.h" 1 3 4




typedef struct
{
  unsigned long int __val[(1024 / (8 * sizeof (unsigned long int)))];
} __sigset_t;
# 5 "/usr/include/x86_64-linux-gnu/bits/types/sigset_t.h" 2 3 4


typedef __sigset_t sigset_t;
# 34 "/usr/include/x86_64-linux-gnu/sys/select.h" 2 3 4



# 1 "/usr/include/x86_64-linux-gnu/bits/types/struct_timeval.h" 1 3 4







struct timeval
{
  __time_t tv_sec;
  __suseconds_t tv_usec;
};
# 38 "/usr/include/x86_64-linux-gnu/sys/select.h" 2 3 4

# 1 "/usr/include/x86_64-linux-gnu/bits/types/struct_timespec.h" 1 3 4
# 10 "/usr/include/x86_64-linux-gnu/bits/types/struct_timespec.h" 3 4
struct timespec
{
  __time_t tv_sec;



  __syscall_slong_t tv_nsec;
# 26 "/usr/include/x86_64-linux-gnu/bits/types/struct_timespec.h" 3 4
};
# 40 "/usr/include/x86_64-linux-gnu/sys/select.h" 2 3 4



typedef __suseconds_t suseconds_t;





typedef long int __fd_mask;
# 59 "/usr/include/x86_64-linux-gnu/sys/select.h" 3 4
typedef struct
  {






    __fd_mask __fds_bits[1024 / (8 * (int) sizeof (__fd_mask))];


  } fd_set;






typedef __fd_mask fd_mask;
# 91 "/usr/include/x86_64-linux-gnu/sys/select.h" 3 4

# 101 "/usr/include/x86_64-linux-gnu/sys/select.h" 3 4
extern int select (int __nfds, fd_set *__restrict __readfds,
     fd_set *__restrict __writefds,
     fd_set *__restrict __exceptfds,
     struct timeval *__restrict __timeout);
# 113 "/usr/include/x86_64-linux-gnu/sys/select.h" 3 4
extern int pselect (int __nfds, fd_set *__restrict __readfds,
      fd_set *__restrict __writefds,
      fd_set *__restrict __exceptfds,
      const struct timespec *__restrict __timeout,
      const __sigset_t *__restrict __sigmask);





# 1 "/usr/include/x86_64-linux-gnu/bits/select2.h" 1 3 4
# 24 "/usr/include/x86_64-linux-gnu/bits/select2.h" 3 4
extern long int __fdelt_chk (long int __d);
extern long int __fdelt_warn (long int __d)
  __attribute__((__warning__ ("bit outside of fd_set selected")));
# 124 "/usr/include/x86_64-linux-gnu/sys/select.h" 2 3 4



# 180 "/usr/include/x86_64-linux-gnu/sys/types.h" 2 3 4





typedef __blksize_t blksize_t;






typedef __blkcnt_t blkcnt_t;



typedef __fsblkcnt_t fsblkcnt_t;



typedef __fsfilcnt_t fsfilcnt_t;
# 227 "/usr/include/x86_64-linux-gnu/sys/types.h" 3 4
# 1 "/usr/include/x86_64-linux-gnu/bits/pthreadtypes.h" 1 3 4
# 23 "/usr/include/x86_64-linux-gnu/bits/pthreadtypes.h" 3 4
# 1 "/usr/include/x86_64-linux-gnu/bits/thread-shared-types.h" 1 3 4
# 44 "/usr/include/x86_64-linux-gnu/bits/thread-shared-types.h" 3 4
# 1 "/usr/include/x86_64-linux-gnu/bits/pthreadtypes-arch.h" 1 3 4
# 21 "/usr/include/x86_64-linux-gnu/bits/pthreadtypes-arch.h" 3 4
# 1 "/usr/include/x86_64-linux-gnu/bits/wordsize.h" 1 3 4
# 22 "/usr/include/x86_64-linux-gnu/bits/pthreadtypes-arch.h" 2 3 4
# 45 "/usr/include/x86_64-linux-gnu/bits/thread-shared-types.h" 2 3 4




typedef struct __pthread_internal_list
{
  struct __pthread_internal_list *__prev;
  struct __pthread_internal_list *__next;
} __pthread_list_t;

typedef struct __pthread_internal_slist
{
  struct __pthread_internal_slist *__next;
} __pthread_slist_t;
# 74 "/usr/include/x86_64-linux-gnu/bits/thread-shared-types.h" 3 4
# 1 "/usr/include/x86_64-linux-gnu/bits/struct_mutex.h" 1 3 4
# 22 "/usr/include/x86_64-linux-gnu/bits/struct_mutex.h" 3 4
struct __pthread_mutex_s
{
  int __lock;
  unsigned int __count;
  int __owner;

  unsigned int __nusers;



  int __kind;

  short __spins;
  short __elision;
  __pthread_list_t __list;
# 53 "/usr/include/x86_64-linux-gnu/bits/struct_mutex.h" 3 4
};
# 75 "/usr/include/x86_64-linux-gnu/bits/thread-shared-types.h" 2 3 4
# 87 "/usr/include/x86_64-linux-gnu/bits/thread-shared-types.h" 3 4
# 1 "/usr/include/x86_64-linux-gnu/bits/struct_rwlock.h" 1 3 4
# 23 "/usr/include/x86_64-linux-gnu/bits/struct_rwlock.h" 3 4
struct __pthread_rwlock_arch_t
{
  unsigned int __readers;
  unsigned int __writers;
  unsigned int __wrphase_futex;
  unsigned int __writers_futex;
  unsigned int __pad3;
  unsigned int __pad4;

  int __cur_writer;
  int __shared;
  signed char __rwelision;




  unsigned char __pad1[7];


  unsigned long int __pad2;


  unsigned int __flags;
# 55 "/usr/include/x86_64-linux-gnu/bits/struct_rwlock.h" 3 4
};
# 88 "/usr/include/x86_64-linux-gnu/bits/thread-shared-types.h" 2 3 4




struct __pthread_cond_s
{
  __extension__ union
  {
    __extension__ unsigned long long int __wseq;
    struct
    {
      unsigned int __low;
      unsigned int __high;
    } __wseq32;
  };
  __extension__ union
  {
    __extension__ unsigned long long int __g1_start;
    struct
    {
      unsigned int __low;
      unsigned int __high;
    } __g1_start32;
  };
  unsigned int __g_refs[2] ;
  unsigned int __g_size[2];
  unsigned int __g1_orig_size;
  unsigned int __wrefs;
  unsigned int __g_signals[2];
};
# 24 "/usr/include/x86_64-linux-gnu/bits/pthreadtypes.h" 2 3 4



typedef unsigned long int pthread_t;




typedef union
{
  char __size[4];
  int __align;
} pthread_mutexattr_t;




typedef union
{
  char __size[4];
  int __align;
} pthread_condattr_t;



typedef unsigned int pthread_key_t;



typedef int pthread_once_t;


union pthread_attr_t
{
  char __size[56];
  long int __align;
};

typedef union pthread_attr_t pthread_attr_t;




typedef union
{
  struct __pthread_mutex_s __data;
  char __size[40];
  long int __align;
} pthread_mutex_t;


typedef union
{
  struct __pthread_cond_s __data;
  char __size[48];
  __extension__ long long int __align;
} pthread_cond_t;





typedef union
{
  struct __pthread_rwlock_arch_t __data;
  char __size[56];
  long int __align;
} pthread_rwlock_t;

typedef union
{
  char __size[8];
  long int __align;
} pthread_rwlockattr_t;





typedef volatile int pthread_spinlock_t;




typedef union
{
  char __size[32];
  long int __align;
} pthread_barrier_t;

typedef union
{
  char __size[4];
  int __align;
} pthread_barrierattr_t;
# 228 "/usr/include/x86_64-linux-gnu/sys/types.h" 2 3 4



# 395 "/usr/include/stdlib.h" 2 3 4






extern long int random (void) __attribute__ ((__nothrow__ , __leaf__));


extern void srandom (unsigned int __seed) __attribute__ ((__nothrow__ , __leaf__));





extern char *initstate (unsigned int __seed, char *__statebuf,
   size_t __statelen) __attribute__ ((__nothrow__ , __leaf__)) __attribute__ ((__nonnull__ (2)));



extern char *setstate (char *__statebuf) __attribute__ ((__nothrow__ , __leaf__)) __attribute__ ((__nonnull__ (1)));







struct random_data
  {
    int32_t *fptr;
    int32_t *rptr;
    int32_t *state;
    int rand_type;
    int rand_deg;
    int rand_sep;
    int32_t *end_ptr;
  };

extern int random_r (struct random_data *__restrict __buf,
       int32_t *__restrict __result) __attribute__ ((__nothrow__ , __leaf__)) __attribute__ ((__nonnull__ (1, 2)));

extern int srandom_r (unsigned int __seed, struct random_data *__buf)
     __attribute__ ((__nothrow__ , __leaf__)) __attribute__ ((__nonnull__ (2)));

extern int initstate_r (unsigned int __seed, char *__restrict __statebuf,
   size_t __statelen,
   struct random_data *__restrict __buf)
     __attribute__ ((__nothrow__ , __leaf__)) __attribute__ ((__nonnull__ (2, 4)));

extern int setstate_r (char *__restrict __statebuf,
         struct random_data *__restrict __buf)
     __attribute__ ((__nothrow__ , __leaf__)) __attribute__ ((__nonnull__ (1, 2)));





extern int rand (void) __attribute__ ((__nothrow__ , __leaf__));

extern void srand (unsigned int __seed) __attribute__ ((__nothrow__ , __leaf__));



extern int rand_r (unsigned int *__seed) __attribute__ ((__nothrow__ , __leaf__));







extern double drand48 (void) __attribute__ ((__nothrow__ , __leaf__));
extern double erand48 (unsigned short int __xsubi[3]) __attribute__ ((__nothrow__ , __leaf__)) __attribute__ ((__nonnull__ (1)));


extern long int lrand48 (void) __attribute__ ((__nothrow__ , __leaf__));
extern long int nrand48 (unsigned short int __xsubi[3])
     __attribute__ ((__nothrow__ , __leaf__)) __attribute__ ((__nonnull__ (1)));


extern long int mrand48 (void) __attribute__ ((__nothrow__ , __leaf__));
extern long int jrand48 (unsigned short int __xsubi[3])
     __attribute__ ((__nothrow__ , __leaf__)) __attribute__ ((__nonnull__ (1)));


extern void srand48 (long int __seedval) __attribute__ ((__nothrow__ , __leaf__));
extern unsigned short int *seed48 (unsigned short int __seed16v[3])
     __attribute__ ((__nothrow__ , __leaf__)) __attribute__ ((__nonnull__ (1)));
extern void lcong48 (unsigned short int __param[7]) __attribute__ ((__nothrow__ , __leaf__)) __attribute__ ((__nonnull__ (1)));





struct drand48_data
  {
    unsigned short int __x[3];
    unsigned short int __old_x[3];
    unsigned short int __c;
    unsigned short int __init;
    __extension__ unsigned long long int __a;

  };


extern int drand48_r (struct drand48_data *__restrict __buffer,
        double *__restrict __result) __attribute__ ((__nothrow__ , __leaf__)) __attribute__ ((__nonnull__ (1, 2)));
extern int erand48_r (unsigned short int __xsubi[3],
        struct drand48_data *__restrict __buffer,
        double *__restrict __result) __attribute__ ((__nothrow__ , __leaf__)) __attribute__ ((__nonnull__ (1, 2)));


extern int lrand48_r (struct drand48_data *__restrict __buffer,
        long int *__restrict __result)
     __attribute__ ((__nothrow__ , __leaf__)) __attribute__ ((__nonnull__ (1, 2)));
extern int nrand48_r (unsigned short int __xsubi[3],
        struct drand48_data *__restrict __buffer,
        long int *__restrict __result)
     __attribute__ ((__nothrow__ , __leaf__)) __attribute__ ((__nonnull__ (1, 2)));


extern int mrand48_r (struct drand48_data *__restrict __buffer,
        long int *__restrict __result)
     __attribute__ ((__nothrow__ , __leaf__)) __attribute__ ((__nonnull__ (1, 2)));
extern int jrand48_r (unsigned short int __xsubi[3],
        struct drand48_data *__restrict __buffer,
        long int *__restrict __result)
     __attribute__ ((__nothrow__ , __leaf__)) __attribute__ ((__nonnull__ (1, 2)));


extern int srand48_r (long int __seedval, struct drand48_data *__buffer)
     __attribute__ ((__nothrow__ , __leaf__)) __attribute__ ((__nonnull__ (2)));

extern int seed48_r (unsigned short int __seed16v[3],
       struct drand48_data *__buffer) __attribute__ ((__nothrow__ , __leaf__)) __attribute__ ((__nonnull__ (1, 2)));

extern int lcong48_r (unsigned short int __param[7],
        struct drand48_data *__buffer)
     __attribute__ ((__nothrow__ , __leaf__)) __attribute__ ((__nonnull__ (1, 2)));




extern void *malloc (size_t __size) __attribute__ ((__nothrow__ , __leaf__)) __attribute__ ((__malloc__))
     __attribute__ ((__alloc_size__ (1))) __attribute__ ((__warn_unused_result__));

extern void *calloc (size_t __nmemb, size_t __size)
     __attribute__ ((__nothrow__ , __leaf__)) __attribute__ ((__malloc__)) __attribute__ ((__alloc_size__ (1, 2))) __attribute__ ((__warn_unused_result__));






extern void *realloc (void *__ptr, size_t __size)
     __attribute__ ((__nothrow__ , __leaf__)) __attribute__ ((__warn_unused_result__)) __attribute__ ((__alloc_size__ (2)));







extern void *reallocarray (void *__ptr, size_t __nmemb, size_t __size)
     __attribute__ ((__nothrow__ , __leaf__)) __attribute__ ((__warn_unused_result__))
     __attribute__ ((__alloc_size__ (2, 3)));



extern void free (void *__ptr) __attribute__ ((__nothrow__ , __leaf__));


# 1 "/usr/include/alloca.h" 1 3 4
# 24 "/usr/include/alloca.h" 3 4
# 1 "/usr/lib/gcc/x86_64-linux-gnu/9/include/stddef.h" 1 3 4
# 25 "/usr/include/alloca.h" 2 3 4







extern void *alloca (size_t __size) __attribute__ ((__nothrow__ , __leaf__));






# 569 "/usr/include/stdlib.h" 2 3 4





extern void *valloc (size_t __size) __attribute__ ((__nothrow__ , __leaf__)) __attribute__ ((__malloc__))
     __attribute__ ((__alloc_size__ (1))) __attribute__ ((__warn_unused_result__));




extern int posix_memalign (void **__memptr, size_t __alignment, size_t __size)
     __attribute__ ((__nothrow__ , __leaf__)) __attribute__ ((__nonnull__ (1))) __attribute__ ((__warn_unused_result__));




extern void *aligned_alloc (size_t __alignment, size_t __size)
     __attribute__ ((__nothrow__ , __leaf__)) __attribute__ ((__malloc__)) __attribute__ ((__alloc_size__ (2))) __attribute__ ((__warn_unused_result__));



extern void abort (void) __attribute__ ((__nothrow__ , __leaf__)) __attribute__ ((__noreturn__));



extern int atexit (void (*__func) (void)) __attribute__ ((__nothrow__ , __leaf__)) __attribute__ ((__nonnull__ (1)));







extern int at_quick_exit (void (*__func) (void)) __attribute__ ((__nothrow__ , __leaf__)) __attribute__ ((__nonnull__ (1)));






extern int on_exit (void (*__func) (int __status, void *__arg), void *__arg)
     __attribute__ ((__nothrow__ , __leaf__)) __attribute__ ((__nonnull__ (1)));





extern void exit (int __status) __attribute__ ((__nothrow__ , __leaf__)) __attribute__ ((__noreturn__));





extern void quick_exit (int __status) __attribute__ ((__nothrow__ , __leaf__)) __attribute__ ((__noreturn__));





extern void _Exit (int __status) __attribute__ ((__nothrow__ , __leaf__)) __attribute__ ((__noreturn__));




extern char *getenv (const char *__name) __attribute__ ((__nothrow__ , __leaf__)) __attribute__ ((__nonnull__ (1))) __attribute__ ((__warn_unused_result__));
# 647 "/usr/include/stdlib.h" 3 4
extern int putenv (char *__string) __attribute__ ((__nothrow__ , __leaf__)) __attribute__ ((__nonnull__ (1)));





extern int setenv (const char *__name, const char *__value, int __replace)
     __attribute__ ((__nothrow__ , __leaf__)) __attribute__ ((__nonnull__ (2)));


extern int unsetenv (const char *__name) __attribute__ ((__nothrow__ , __leaf__)) __attribute__ ((__nonnull__ (1)));






extern int clearenv (void) __attribute__ ((__nothrow__ , __leaf__));
# 675 "/usr/include/stdlib.h" 3 4
extern char *mktemp (char *__template) __attribute__ ((__nothrow__ , __leaf__)) __attribute__ ((__nonnull__ (1)));
# 688 "/usr/include/stdlib.h" 3 4
extern int mkstemp (char *__template) __attribute__ ((__nonnull__ (1))) __attribute__ ((__warn_unused_result__));
# 710 "/usr/include/stdlib.h" 3 4
extern int mkstemps (char *__template, int __suffixlen) __attribute__ ((__nonnull__ (1))) __attribute__ ((__warn_unused_result__));
# 731 "/usr/include/stdlib.h" 3 4
extern char *mkdtemp (char *__template) __attribute__ ((__nothrow__ , __leaf__)) __attribute__ ((__nonnull__ (1))) __attribute__ ((__warn_unused_result__));
# 784 "/usr/include/stdlib.h" 3 4
extern int system (const char *__command) __attribute__ ((__warn_unused_result__));
# 800 "/usr/include/stdlib.h" 3 4
extern char *realpath (const char *__restrict __name,
         char *__restrict __resolved) __attribute__ ((__nothrow__ , __leaf__)) __attribute__ ((__warn_unused_result__));






typedef int (*__compar_fn_t) (const void *, const void *);
# 820 "/usr/include/stdlib.h" 3 4
extern void *bsearch (const void *__key, const void *__base,
        size_t __nmemb, size_t __size, __compar_fn_t __compar)
     __attribute__ ((__nonnull__ (1, 2, 5))) __attribute__ ((__warn_unused_result__));


# 1 "/usr/include/x86_64-linux-gnu/bits/stdlib-bsearch.h" 1 3 4
# 19 "/usr/include/x86_64-linux-gnu/bits/stdlib-bsearch.h" 3 4
extern __inline __attribute__ ((__gnu_inline__)) void *
bsearch (const void *__key, const void *__base, size_t __nmemb, size_t __size,
  __compar_fn_t __compar)
{
  size_t __l, __u, __idx;
  const void *__p;
  int __comparison;

  __l = 0;
  __u = __nmemb;
  while (__l < __u)
    {
      __idx = (__l + __u) / 2;
      __p = (void *) (((const char *) __base) + (__idx * __size));
      __comparison = (*__compar) (__key, __p);
      if (__comparison < 0)
 __u = __idx;
      else if (__comparison > 0)
 __l = __idx + 1;
      else
 return (void *) __p;
    }

  return ((void *)0);
}
# 826 "/usr/include/stdlib.h" 2 3 4




extern void qsort (void *__base, size_t __nmemb, size_t __size,
     __compar_fn_t __compar) __attribute__ ((__nonnull__ (1, 4)));
# 840 "/usr/include/stdlib.h" 3 4
extern int abs (int __x) __attribute__ ((__nothrow__ , __leaf__)) __attribute__ ((__const__)) __attribute__ ((__warn_unused_result__));
extern long int labs (long int __x) __attribute__ ((__nothrow__ , __leaf__)) __attribute__ ((__const__)) __attribute__ ((__warn_unused_result__));


__extension__ extern long long int llabs (long long int __x)
     __attribute__ ((__nothrow__ , __leaf__)) __attribute__ ((__const__)) __attribute__ ((__warn_unused_result__));






extern div_t div (int __numer, int __denom)
     __attribute__ ((__nothrow__ , __leaf__)) __attribute__ ((__const__)) __attribute__ ((__warn_unused_result__));
extern ldiv_t ldiv (long int __numer, long int __denom)
     __attribute__ ((__nothrow__ , __leaf__)) __attribute__ ((__const__)) __attribute__ ((__warn_unused_result__));


__extension__ extern lldiv_t lldiv (long long int __numer,
        long long int __denom)
     __attribute__ ((__nothrow__ , __leaf__)) __attribute__ ((__const__)) __attribute__ ((__warn_unused_result__));
# 872 "/usr/include/stdlib.h" 3 4
extern char *ecvt (double __value, int __ndigit, int *__restrict __decpt,
     int *__restrict __sign) __attribute__ ((__nothrow__ , __leaf__)) __attribute__ ((__nonnull__ (3, 4))) __attribute__ ((__warn_unused_result__));




extern char *fcvt (double __value, int __ndigit, int *__restrict __decpt,
     int *__restrict __sign) __attribute__ ((__nothrow__ , __leaf__)) __attribute__ ((__nonnull__ (3, 4))) __attribute__ ((__warn_unused_result__));




extern char *gcvt (double __value, int __ndigit, char *__buf)
     __attribute__ ((__nothrow__ , __leaf__)) __attribute__ ((__nonnull__ (3))) __attribute__ ((__warn_unused_result__));




extern char *qecvt (long double __value, int __ndigit,
      int *__restrict __decpt, int *__restrict __sign)
     __attribute__ ((__nothrow__ , __leaf__)) __attribute__ ((__nonnull__ (3, 4))) __attribute__ ((__warn_unused_result__));
extern char *qfcvt (long double __value, int __ndigit,
      int *__restrict __decpt, int *__restrict __sign)
     __attribute__ ((__nothrow__ , __leaf__)) __attribute__ ((__nonnull__ (3, 4))) __attribute__ ((__warn_unused_result__));
extern char *qgcvt (long double __value, int __ndigit, char *__buf)
     __attribute__ ((__nothrow__ , __leaf__)) __attribute__ ((__nonnull__ (3))) __attribute__ ((__warn_unused_result__));




extern int ecvt_r (double __value, int __ndigit, int *__restrict __decpt,
     int *__restrict __sign, char *__restrict __buf,
     size_t __len) __attribute__ ((__nothrow__ , __leaf__)) __attribute__ ((__nonnull__ (3, 4, 5)));
extern int fcvt_r (double __value, int __ndigit, int *__restrict __decpt,
     int *__restrict __sign, char *__restrict __buf,
     size_t __len) __attribute__ ((__nothrow__ , __leaf__)) __attribute__ ((__nonnull__ (3, 4, 5)));

extern int qecvt_r (long double __value, int __ndigit,
      int *__restrict __decpt, int *__restrict __sign,
      char *__restrict __buf, size_t __len)
     __attribute__ ((__nothrow__ , __leaf__)) __attribute__ ((__nonnull__ (3, 4, 5)));
extern int qfcvt_r (long double __value, int __ndigit,
      int *__restrict __decpt, int *__restrict __sign,
      char *__restrict __buf, size_t __len)
     __attribute__ ((__nothrow__ , __leaf__)) __attribute__ ((__nonnull__ (3, 4, 5)));





extern int mblen (const char *__s, size_t __n) __attribute__ ((__nothrow__ , __leaf__));


extern int mbtowc (wchar_t *__restrict __pwc,
     const char *__restrict __s, size_t __n) __attribute__ ((__nothrow__ , __leaf__));


extern int wctomb (char *__s, wchar_t __wchar) __attribute__ ((__nothrow__ , __leaf__));



extern size_t mbstowcs (wchar_t *__restrict __pwcs,
   const char *__restrict __s, size_t __n) __attribute__ ((__nothrow__ , __leaf__));

extern size_t wcstombs (char *__restrict __s,
   const wchar_t *__restrict __pwcs, size_t __n)
     __attribute__ ((__nothrow__ , __leaf__));







extern int rpmatch (const char *__response) __attribute__ ((__nothrow__ , __leaf__)) __attribute__ ((__nonnull__ (1))) __attribute__ ((__warn_unused_result__));
# 957 "/usr/include/stdlib.h" 3 4
extern int getsubopt (char **__restrict __optionp,
        char *const *__restrict __tokens,
        char **__restrict __valuep)
     __attribute__ ((__nothrow__ , __leaf__)) __attribute__ ((__nonnull__ (1, 2, 3))) __attribute__ ((__warn_unused_result__));
# 1003 "/usr/include/stdlib.h" 3 4
extern int getloadavg (double __loadavg[], int __nelem)
     __attribute__ ((__nothrow__ , __leaf__)) __attribute__ ((__nonnull__ (1)));
# 1013 "/usr/include/stdlib.h" 3 4
# 1 "/usr/include/x86_64-linux-gnu/bits/stdlib-float.h" 1 3 4
# 24 "/usr/include/x86_64-linux-gnu/bits/stdlib-float.h" 3 4
extern __inline __attribute__ ((__gnu_inline__)) double
__attribute__ ((__nothrow__ , __leaf__)) atof (const char *__nptr)
{
  return strtod (__nptr, (char **) ((void *)0));
}
# 1014 "/usr/include/stdlib.h" 2 3 4



# 1 "/usr/include/x86_64-linux-gnu/bits/stdlib.h" 1 3 4
# 23 "/usr/include/x86_64-linux-gnu/bits/stdlib.h" 3 4
extern char *__realpath_chk (const char *__restrict __name,
        char *__restrict __resolved,
        size_t __resolvedlen) __attribute__ ((__nothrow__ , __leaf__)) __attribute__ ((__warn_unused_result__));
extern char *__realpath_alias (const char *__restrict __name, char *__restrict __resolved) __asm__ ("" "realpath") __attribute__ ((__nothrow__ , __leaf__))

                                                 __attribute__ ((__warn_unused_result__));
extern char *__realpath_chk_warn (const char *__restrict __name, char *__restrict __resolved, size_t __resolvedlen) __asm__ ("" "__realpath_chk") __attribute__ ((__nothrow__ , __leaf__))


                                                __attribute__ ((__warn_unused_result__))
     __attribute__((__warning__ ("second argument of realpath must be either NULL or at " "least PATH_MAX bytes long buffer")))
                                      ;

extern __inline __attribute__ ((__always_inline__)) __attribute__ ((__gnu_inline__)) __attribute__ ((__artificial__)) __attribute__ ((__warn_unused_result__)) char *
__attribute__ ((__nothrow__ , __leaf__)) realpath (const char *__restrict __name, char *__restrict __resolved)
{
  if (__builtin_object_size (__resolved, 2 > 1) != (size_t) -1)
    {




      return __realpath_chk (__name, __resolved, __builtin_object_size (__resolved, 2 > 1));
    }

  return __realpath_alias (__name, __resolved);
}


extern int __ptsname_r_chk (int __fd, char *__buf, size_t __buflen,
       size_t __nreal) __attribute__ ((__nothrow__ , __leaf__)) __attribute__ ((__nonnull__ (2)));
extern int __ptsname_r_alias (int __fd, char *__buf, size_t __buflen) __asm__ ("" "ptsname_r") __attribute__ ((__nothrow__ , __leaf__))

     __attribute__ ((__nonnull__ (2)));
extern int __ptsname_r_chk_warn (int __fd, char *__buf, size_t __buflen, size_t __nreal) __asm__ ("" "__ptsname_r_chk") __attribute__ ((__nothrow__ , __leaf__))


     __attribute__ ((__nonnull__ (2))) __attribute__((__warning__ ("ptsname_r called with buflen bigger than " "size of buf")))
                   ;

extern __inline __attribute__ ((__always_inline__)) __attribute__ ((__gnu_inline__)) __attribute__ ((__artificial__)) int
__attribute__ ((__nothrow__ , __leaf__)) ptsname_r (int __fd, char *__buf, size_t __buflen)
{
  if (__builtin_object_size (__buf, 2 > 1) != (size_t) -1)
    {
      if (!__builtin_constant_p (__buflen))
 return __ptsname_r_chk (__fd, __buf, __buflen, __builtin_object_size (__buf, 2 > 1));
      if (__buflen > __builtin_object_size (__buf, 2 > 1))
 return __ptsname_r_chk_warn (__fd, __buf, __buflen, __builtin_object_size (__buf, 2 > 1));
    }
  return __ptsname_r_alias (__fd, __buf, __buflen);
}


extern int __wctomb_chk (char *__s, wchar_t __wchar, size_t __buflen)
  __attribute__ ((__nothrow__ , __leaf__)) __attribute__ ((__warn_unused_result__));
extern int __wctomb_alias (char *__s, wchar_t __wchar) __asm__ ("" "wctomb") __attribute__ ((__nothrow__ , __leaf__))
              __attribute__ ((__warn_unused_result__));

extern __inline __attribute__ ((__always_inline__)) __attribute__ ((__gnu_inline__)) __attribute__ ((__artificial__)) __attribute__ ((__warn_unused_result__)) int
__attribute__ ((__nothrow__ , __leaf__)) wctomb (char *__s, wchar_t __wchar)
{







  if (__builtin_object_size (__s, 2 > 1) != (size_t) -1 && 16 > __builtin_object_size (__s, 2 > 1))
    return __wctomb_chk (__s, __wchar, __builtin_object_size (__s, 2 > 1));
  return __wctomb_alias (__s, __wchar);
}


extern size_t __mbstowcs_chk (wchar_t *__restrict __dst,
         const char *__restrict __src,
         size_t __len, size_t __dstlen) __attribute__ ((__nothrow__ , __leaf__));
extern size_t __mbstowcs_alias (wchar_t *__restrict __dst, const char *__restrict __src, size_t __len) __asm__ ("" "mbstowcs") __attribute__ ((__nothrow__ , __leaf__))


                                  ;
extern size_t __mbstowcs_chk_warn (wchar_t *__restrict __dst, const char *__restrict __src, size_t __len, size_t __dstlen) __asm__ ("" "__mbstowcs_chk") __attribute__ ((__nothrow__ , __leaf__))



     __attribute__((__warning__ ("mbstowcs called with dst buffer smaller than len " "* sizeof (wchar_t)")))
                        ;

extern __inline __attribute__ ((__always_inline__)) __attribute__ ((__gnu_inline__)) __attribute__ ((__artificial__)) size_t
__attribute__ ((__nothrow__ , __leaf__)) mbstowcs (wchar_t *__restrict __dst, const char *__restrict __src, size_t __len)

{
  if (__builtin_object_size (__dst, 2 > 1) != (size_t) -1)
    {
      if (!__builtin_constant_p (__len))
 return __mbstowcs_chk (__dst, __src, __len,
          __builtin_object_size (__dst, 2 > 1) / sizeof (wchar_t));

      if (__len > __builtin_object_size (__dst, 2 > 1) / sizeof (wchar_t))
 return __mbstowcs_chk_warn (__dst, __src, __len,
         __builtin_object_size (__dst, 2 > 1) / sizeof (wchar_t));
    }
  return __mbstowcs_alias (__dst, __src, __len);
}


extern size_t __wcstombs_chk (char *__restrict __dst,
         const wchar_t *__restrict __src,
         size_t __len, size_t __dstlen) __attribute__ ((__nothrow__ , __leaf__));
extern size_t __wcstombs_alias (char *__restrict __dst, const wchar_t *__restrict __src, size_t __len) __asm__ ("" "wcstombs") __attribute__ ((__nothrow__ , __leaf__))


                                  ;
extern size_t __wcstombs_chk_warn (char *__restrict __dst, const wchar_t *__restrict __src, size_t __len, size_t __dstlen) __asm__ ("" "__wcstombs_chk") __attribute__ ((__nothrow__ , __leaf__))



     __attribute__((__warning__ ("wcstombs called with dst buffer smaller than len")));

extern __inline __attribute__ ((__always_inline__)) __attribute__ ((__gnu_inline__)) __attribute__ ((__artificial__)) size_t
__attribute__ ((__nothrow__ , __leaf__)) wcstombs (char *__restrict __dst, const wchar_t *__restrict __src, size_t __len)

{
  if (__builtin_object_size (__dst, 2 > 1) != (size_t) -1)
    {
      if (!__builtin_constant_p (__len))
 return __wcstombs_chk (__dst, __src, __len, __builtin_object_size (__dst, 2 > 1));
      if (__len > __builtin_object_size (__dst, 2 > 1))
 return __wcstombs_chk_warn (__dst, __src, __len, __builtin_object_size (__dst, 2 > 1));
    }
  return __wcstombs_alias (__dst, __src, __len);
}
# 1018 "/usr/include/stdlib.h" 2 3 4






# 14 "../deps/openssl/openssl/include/openssl/rand.h" 2
# 1 "../deps/openssl/openssl/include/openssl/ossl_typ.h" 1
# 13 "../deps/openssl/openssl/include/openssl/ossl_typ.h"
# 1 "/usr/lib/gcc/x86_64-linux-gnu/9/include/limits.h" 1 3 4
# 34 "/usr/lib/gcc/x86_64-linux-gnu/9/include/limits.h" 3 4
# 1 "/usr/lib/gcc/x86_64-linux-gnu/9/include/syslimits.h" 1 3 4






# 1 "/usr/lib/gcc/x86_64-linux-gnu/9/include/limits.h" 1 3 4
# 194 "/usr/lib/gcc/x86_64-linux-gnu/9/include/limits.h" 3 4
# 1 "/usr/include/limits.h" 1 3 4
# 26 "/usr/include/limits.h" 3 4
# 1 "/usr/include/x86_64-linux-gnu/bits/libc-header-start.h" 1 3 4
# 27 "/usr/include/limits.h" 2 3 4
# 183 "/usr/include/limits.h" 3 4
# 1 "/usr/include/x86_64-linux-gnu/bits/posix1_lim.h" 1 3 4
# 27 "/usr/include/x86_64-linux-gnu/bits/posix1_lim.h" 3 4
# 1 "/usr/include/x86_64-linux-gnu/bits/wordsize.h" 1 3 4
# 28 "/usr/include/x86_64-linux-gnu/bits/posix1_lim.h" 2 3 4
# 161 "/usr/include/x86_64-linux-gnu/bits/posix1_lim.h" 3 4
# 1 "/usr/include/x86_64-linux-gnu/bits/local_lim.h" 1 3 4
# 38 "/usr/include/x86_64-linux-gnu/bits/local_lim.h" 3 4
# 1 "/usr/include/linux/limits.h" 1 3 4
# 39 "/usr/include/x86_64-linux-gnu/bits/local_lim.h" 2 3 4
# 162 "/usr/include/x86_64-linux-gnu/bits/posix1_lim.h" 2 3 4
# 184 "/usr/include/limits.h" 2 3 4



# 1 "/usr/include/x86_64-linux-gnu/bits/posix2_lim.h" 1 3 4
# 188 "/usr/include/limits.h" 2 3 4
# 195 "/usr/lib/gcc/x86_64-linux-gnu/9/include/limits.h" 2 3 4
# 8 "/usr/lib/gcc/x86_64-linux-gnu/9/include/syslimits.h" 2 3 4
# 35 "/usr/lib/gcc/x86_64-linux-gnu/9/include/limits.h" 2 3 4
# 14 "../deps/openssl/openssl/include/openssl/ossl_typ.h" 2
# 40 "../deps/openssl/openssl/include/openssl/ossl_typ.h"

# 40 "../deps/openssl/openssl/include/openssl/ossl_typ.h"
typedef struct asn1_string_st ASN1_INTEGER;
typedef struct asn1_string_st ASN1_ENUMERATED;
typedef struct asn1_string_st ASN1_BIT_STRING;
typedef struct asn1_string_st ASN1_OCTET_STRING;
typedef struct asn1_string_st ASN1_PRINTABLESTRING;
typedef struct asn1_string_st ASN1_T61STRING;
typedef struct asn1_string_st ASN1_IA5STRING;
typedef struct asn1_string_st ASN1_GENERALSTRING;
typedef struct asn1_string_st ASN1_UNIVERSALSTRING;
typedef struct asn1_string_st ASN1_BMPSTRING;
typedef struct asn1_string_st ASN1_UTCTIME;
typedef struct asn1_string_st ASN1_TIME;
typedef struct asn1_string_st ASN1_GENERALIZEDTIME;
typedef struct asn1_string_st ASN1_VISIBLESTRING;
typedef struct asn1_string_st ASN1_UTF8STRING;
typedef struct asn1_string_st ASN1_STRING;
typedef int ASN1_BOOLEAN;
typedef int ASN1_NULL;


typedef struct asn1_object_st ASN1_OBJECT;

typedef struct ASN1_ITEM_st ASN1_ITEM;
typedef struct asn1_pctx_st ASN1_PCTX;
typedef struct asn1_sctx_st ASN1_SCTX;
# 78 "../deps/openssl/openssl/include/openssl/ossl_typ.h"
struct dane_st;
typedef struct bio_st BIO;
typedef struct bignum_st BIGNUM;
typedef struct bignum_ctx BN_CTX;
typedef struct bn_blinding_st BN_BLINDING;
typedef struct bn_mont_ctx_st BN_MONT_CTX;
typedef struct bn_recp_ctx_st BN_RECP_CTX;
typedef struct bn_gencb_st BN_GENCB;

typedef struct buf_mem_st BUF_MEM;

typedef struct evp_cipher_st EVP_CIPHER;
typedef struct evp_cipher_ctx_st EVP_CIPHER_CTX;
typedef struct evp_md_st EVP_MD;
typedef struct evp_md_ctx_st EVP_MD_CTX;
typedef struct evp_pkey_st EVP_PKEY;

typedef struct evp_pkey_asn1_method_st EVP_PKEY_ASN1_METHOD;

typedef struct evp_pkey_method_st EVP_PKEY_METHOD;
typedef struct evp_pkey_ctx_st EVP_PKEY_CTX;

typedef struct evp_Encode_Ctx_st EVP_ENCODE_CTX;

typedef struct hmac_ctx_st HMAC_CTX;

typedef struct dh_st DH;
typedef struct dh_method DH_METHOD;

typedef struct dsa_st DSA;
typedef struct dsa_method DSA_METHOD;

typedef struct rsa_st RSA;
typedef struct rsa_meth_st RSA_METHOD;
typedef struct rsa_pss_params_st RSA_PSS_PARAMS;

typedef struct ec_key_st EC_KEY;
typedef struct ec_key_method_st EC_KEY_METHOD;

typedef struct rand_meth_st RAND_METHOD;
typedef struct rand_drbg_st RAND_DRBG;

typedef struct ssl_dane_st SSL_DANE;
typedef struct x509_st X509;
typedef struct X509_algor_st X509_ALGOR;
typedef struct X509_crl_st X509_CRL;
typedef struct x509_crl_method_st X509_CRL_METHOD;
typedef struct x509_revoked_st X509_REVOKED;
typedef struct X509_name_st X509_NAME;
typedef struct X509_pubkey_st X509_PUBKEY;
typedef struct x509_store_st X509_STORE;
typedef struct x509_store_ctx_st X509_STORE_CTX;

typedef struct x509_object_st X509_OBJECT;
typedef struct x509_lookup_st X509_LOOKUP;
typedef struct x509_lookup_method_st X509_LOOKUP_METHOD;
typedef struct X509_VERIFY_PARAM_st X509_VERIFY_PARAM;

typedef struct x509_sig_info_st X509_SIG_INFO;

typedef struct pkcs8_priv_key_info_st PKCS8_PRIV_KEY_INFO;

typedef struct v3_ext_ctx X509V3_CTX;
typedef struct conf_st CONF;
typedef struct ossl_init_settings_st OPENSSL_INIT_SETTINGS;

typedef struct ui_st UI;
typedef struct ui_method_st UI_METHOD;

typedef struct engine_st ENGINE;
typedef struct ssl_st SSL;
typedef struct ssl_ctx_st SSL_CTX;

typedef struct comp_ctx_st COMP_CTX;
typedef struct comp_method_st COMP_METHOD;

typedef struct X509_POLICY_NODE_st X509_POLICY_NODE;
typedef struct X509_POLICY_LEVEL_st X509_POLICY_LEVEL;
typedef struct X509_POLICY_TREE_st X509_POLICY_TREE;
typedef struct X509_POLICY_CACHE_st X509_POLICY_CACHE;

typedef struct AUTHORITY_KEYID_st AUTHORITY_KEYID;
typedef struct DIST_POINT_st DIST_POINT;
typedef struct ISSUING_DIST_POINT_st ISSUING_DIST_POINT;
typedef struct NAME_CONSTRAINTS_st NAME_CONSTRAINTS;

typedef struct crypto_ex_data_st CRYPTO_EX_DATA;

typedef struct ocsp_req_ctx_st OCSP_REQ_CTX;
typedef struct ocsp_response_st OCSP_RESPONSE;
typedef struct ocsp_responder_id_st OCSP_RESPID;

typedef struct sct_st SCT;
typedef struct sct_ctx_st SCT_CTX;
typedef struct ctlog_st CTLOG;
typedef struct ctlog_store_st CTLOG_STORE;
typedef struct ct_policy_eval_ctx_st CT_POLICY_EVAL_CTX;

typedef struct ossl_store_info_st OSSL_STORE_INFO;
typedef struct ossl_store_search_st OSSL_STORE_SEARCH;



typedef intmax_t ossl_intmax_t;
typedef uintmax_t ossl_uintmax_t;
# 15 "../deps/openssl/openssl/include/openssl/rand.h" 2

# 1 "../deps/openssl/openssl/include/openssl/randerr.h" 1
# 14 "../deps/openssl/openssl/include/openssl/randerr.h"
# 1 "../deps/openssl/openssl/include/openssl/symhacks.h" 1
# 15 "../deps/openssl/openssl/include/openssl/randerr.h" 2




int ERR_load_RAND_strings(void);
# 17 "../deps/openssl/openssl/include/openssl/rand.h" 2





struct rand_meth_st {
    int (*seed) (const void *buf, int num);
    int (*bytes) (unsigned char *buf, int num);
    void (*cleanup) (void);
    int (*add) (const void *buf, int num, double randomness);
    int (*pseudorand) (unsigned char *buf, int num);
    int (*status) (void);
};

int RAND_set_rand_method(const RAND_METHOD *meth);
const RAND_METHOD *RAND_get_rand_method(void);

int RAND_set_rand_engine(ENGINE *engine);


RAND_METHOD *RAND_OpenSSL(void);




int RAND_bytes(unsigned char *buf, int num);
int RAND_priv_bytes(unsigned char *buf, int num);
int RAND_pseudo_bytes(unsigned char *buf, int num) __attribute__ ((deprecated));

void RAND_seed(const void *buf, int num);
void RAND_keep_random_devices_open(int keep);




void RAND_add(const void *buf, int num, double randomness);
int RAND_load_file(const char *file, long max_bytes);
int RAND_write_file(const char *file);
const char *RAND_file_name(char *file, size_t num);
int RAND_status(void);







int RAND_poll(void);
# 12 "../deps/openssl/openssl/crypto/des/rand_key.c" 2

int DES_random_key(DES_cblock *ret)
{
    do {
        if (RAND_priv_bytes((unsigned char *)ret, sizeof(DES_cblock)) != 1)
            return 0;
    } while (DES_is_weak_key(ret));
    DES_set_odd_parity(ret);
    return 1;
}
