# 1 "../deps/cares/src/ares_android.c"
# 1 "/workspace/nodejsbuild/node-v12.18.4/out//"
# 1 "<built-in>"
# 1 "<command-line>"
# 1 "/usr/include/stdc-predef.h" 1 3 4
# 1 "<command-line>" 2
# 1 "../deps/cares/src/ares_android.c"
# 443 "../deps/cares/src/ares_android.c"
typedef int dummy_make_iso_compilers_happy;
