# 1 "../deps/openssl/openssl/crypto/bf/bf_cfb64.c"
# 1 "<built-in>"
# 1 "<command-line>"
# 1 "/usr/include/stdc-predef.h" 1 3 4
# 1 "<command-line>" 2
# 1 "../deps/openssl/openssl/crypto/bf/bf_cfb64.c"
# 10 "../deps/openssl/openssl/crypto/bf/bf_cfb64.c"
# 1 "../deps/openssl/openssl/include/openssl/blowfish.h" 1
# 13 "../deps/openssl/openssl/include/openssl/blowfish.h"
# 1 "../deps/openssl/openssl/include/openssl/opensslconf.h" 1
# 1 "../deps/openssl/openssl/include/../../config/opensslconf.h" 1
# 9 "../deps/openssl/openssl/include/../../config/opensslconf.h"
# 1 "../deps/openssl/openssl/include/../../config/./opensslconf_asm.h" 1
# 98 "../deps/openssl/openssl/include/../../config/./opensslconf_asm.h"
# 1 "../deps/openssl/openssl/include/../../config/././archs/linux-x86_64/asm/include/openssl/opensslconf.h" 1
# 13 "../deps/openssl/openssl/include/../../config/././archs/linux-x86_64/asm/include/openssl/opensslconf.h"
# 1 "../deps/openssl/openssl/include/openssl/opensslv.h" 1
# 14 "../deps/openssl/openssl/include/../../config/././archs/linux-x86_64/asm/include/openssl/opensslconf.h" 2
# 99 "../deps/openssl/openssl/include/../../config/./opensslconf_asm.h" 2
# 10 "../deps/openssl/openssl/include/../../config/opensslconf.h" 2
# 1 "../deps/openssl/openssl/include/openssl/opensslconf.h" 2
# 14 "../deps/openssl/openssl/include/openssl/blowfish.h" 2


# 1 "../deps/openssl/openssl/include/openssl/e_os2.h" 1
# 13 "../deps/openssl/openssl/include/openssl/e_os2.h"
# 1 "../deps/openssl/openssl/include/openssl/opensslconf.h" 1
# 1 "../deps/openssl/openssl/include/../../config/opensslconf.h" 1
# 9 "../deps/openssl/openssl/include/../../config/opensslconf.h"
# 1 "../deps/openssl/openssl/include/../../config/./opensslconf_asm.h" 1
# 98 "../deps/openssl/openssl/include/../../config/./opensslconf_asm.h"
# 1 "../deps/openssl/openssl/include/../../config/././archs/linux-x86_64/asm/include/openssl/opensslconf.h" 1
# 99 "../deps/openssl/openssl/include/../../config/./opensslconf_asm.h" 2
# 10 "../deps/openssl/openssl/include/../../config/opensslconf.h" 2
# 1 "../deps/openssl/openssl/include/openssl/opensslconf.h" 2
# 14 "../deps/openssl/openssl/include/openssl/e_os2.h" 2
# 243 "../deps/openssl/openssl/include/openssl/e_os2.h"
# 1 "/usr/include/inttypes.h" 1 3 4
# 25 "/usr/include/inttypes.h" 3 4
# 1 "/usr/include/features.h" 1 3 4
# 461 "/usr/include/features.h" 3 4
# 1 "/usr/include/x86_64-linux-gnu/sys/cdefs.h" 1 3 4
# 452 "/usr/include/x86_64-linux-gnu/sys/cdefs.h" 3 4
# 1 "/usr/include/x86_64-linux-gnu/bits/wordsize.h" 1 3 4
# 453 "/usr/include/x86_64-linux-gnu/sys/cdefs.h" 2 3 4
# 1 "/usr/include/x86_64-linux-gnu/bits/long-double.h" 1 3 4
# 454 "/usr/include/x86_64-linux-gnu/sys/cdefs.h" 2 3 4
# 462 "/usr/include/features.h" 2 3 4
# 485 "/usr/include/features.h" 3 4
# 1 "/usr/include/x86_64-linux-gnu/gnu/stubs.h" 1 3 4
# 10 "/usr/include/x86_64-linux-gnu/gnu/stubs.h" 3 4
# 1 "/usr/include/x86_64-linux-gnu/gnu/stubs-64.h" 1 3 4
# 11 "/usr/include/x86_64-linux-gnu/gnu/stubs.h" 2 3 4
# 486 "/usr/include/features.h" 2 3 4
# 26 "/usr/include/inttypes.h" 2 3 4

# 1 "/usr/lib/gcc/x86_64-linux-gnu/9/include/stdint.h" 1 3 4
# 9 "/usr/lib/gcc/x86_64-linux-gnu/9/include/stdint.h" 3 4
# 1 "/usr/include/stdint.h" 1 3 4
# 26 "/usr/include/stdint.h" 3 4
# 1 "/usr/include/x86_64-linux-gnu/bits/libc-header-start.h" 1 3 4
# 27 "/usr/include/stdint.h" 2 3 4
# 1 "/usr/include/x86_64-linux-gnu/bits/types.h" 1 3 4
# 27 "/usr/include/x86_64-linux-gnu/bits/types.h" 3 4
# 1 "/usr/include/x86_64-linux-gnu/bits/wordsize.h" 1 3 4
# 28 "/usr/include/x86_64-linux-gnu/bits/types.h" 2 3 4
# 1 "/usr/include/x86_64-linux-gnu/bits/timesize.h" 1 3 4
# 29 "/usr/include/x86_64-linux-gnu/bits/types.h" 2 3 4



# 31 "/usr/include/x86_64-linux-gnu/bits/types.h" 3 4
typedef unsigned char __u_char;
typedef unsigned short int __u_short;
typedef unsigned int __u_int;
typedef unsigned long int __u_long;


typedef signed char __int8_t;
typedef unsigned char __uint8_t;
typedef signed short int __int16_t;
typedef unsigned short int __uint16_t;
typedef signed int __int32_t;
typedef unsigned int __uint32_t;

typedef signed long int __int64_t;
typedef unsigned long int __uint64_t;






typedef __int8_t __int_least8_t;
typedef __uint8_t __uint_least8_t;
typedef __int16_t __int_least16_t;
typedef __uint16_t __uint_least16_t;
typedef __int32_t __int_least32_t;
typedef __uint32_t __uint_least32_t;
typedef __int64_t __int_least64_t;
typedef __uint64_t __uint_least64_t;



typedef long int __quad_t;
typedef unsigned long int __u_quad_t;







typedef long int __intmax_t;
typedef unsigned long int __uintmax_t;
# 141 "/usr/include/x86_64-linux-gnu/bits/types.h" 3 4
# 1 "/usr/include/x86_64-linux-gnu/bits/typesizes.h" 1 3 4
# 142 "/usr/include/x86_64-linux-gnu/bits/types.h" 2 3 4
# 1 "/usr/include/x86_64-linux-gnu/bits/time64.h" 1 3 4
# 143 "/usr/include/x86_64-linux-gnu/bits/types.h" 2 3 4


typedef unsigned long int __dev_t;
typedef unsigned int __uid_t;
typedef unsigned int __gid_t;
typedef unsigned long int __ino_t;
typedef unsigned long int __ino64_t;
typedef unsigned int __mode_t;
typedef unsigned long int __nlink_t;
typedef long int __off_t;
typedef long int __off64_t;
typedef int __pid_t;
typedef struct { int __val[2]; } __fsid_t;
typedef long int __clock_t;
typedef unsigned long int __rlim_t;
typedef unsigned long int __rlim64_t;
typedef unsigned int __id_t;
typedef long int __time_t;
typedef unsigned int __useconds_t;
typedef long int __suseconds_t;

typedef int __daddr_t;
typedef int __key_t;


typedef int __clockid_t;


typedef void * __timer_t;


typedef long int __blksize_t;




typedef long int __blkcnt_t;
typedef long int __blkcnt64_t;


typedef unsigned long int __fsblkcnt_t;
typedef unsigned long int __fsblkcnt64_t;


typedef unsigned long int __fsfilcnt_t;
typedef unsigned long int __fsfilcnt64_t;


typedef long int __fsword_t;

typedef long int __ssize_t;


typedef long int __syscall_slong_t;

typedef unsigned long int __syscall_ulong_t;



typedef __off64_t __loff_t;
typedef char *__caddr_t;


typedef long int __intptr_t;


typedef unsigned int __socklen_t;




typedef int __sig_atomic_t;
# 28 "/usr/include/stdint.h" 2 3 4
# 1 "/usr/include/x86_64-linux-gnu/bits/wchar.h" 1 3 4
# 29 "/usr/include/stdint.h" 2 3 4
# 1 "/usr/include/x86_64-linux-gnu/bits/wordsize.h" 1 3 4
# 30 "/usr/include/stdint.h" 2 3 4




# 1 "/usr/include/x86_64-linux-gnu/bits/stdint-intn.h" 1 3 4
# 24 "/usr/include/x86_64-linux-gnu/bits/stdint-intn.h" 3 4
typedef __int8_t int8_t;
typedef __int16_t int16_t;
typedef __int32_t int32_t;
typedef __int64_t int64_t;
# 35 "/usr/include/stdint.h" 2 3 4


# 1 "/usr/include/x86_64-linux-gnu/bits/stdint-uintn.h" 1 3 4
# 24 "/usr/include/x86_64-linux-gnu/bits/stdint-uintn.h" 3 4
typedef __uint8_t uint8_t;
typedef __uint16_t uint16_t;
typedef __uint32_t uint32_t;
typedef __uint64_t uint64_t;
# 38 "/usr/include/stdint.h" 2 3 4





typedef __int_least8_t int_least8_t;
typedef __int_least16_t int_least16_t;
typedef __int_least32_t int_least32_t;
typedef __int_least64_t int_least64_t;


typedef __uint_least8_t uint_least8_t;
typedef __uint_least16_t uint_least16_t;
typedef __uint_least32_t uint_least32_t;
typedef __uint_least64_t uint_least64_t;





typedef signed char int_fast8_t;

typedef long int int_fast16_t;
typedef long int int_fast32_t;
typedef long int int_fast64_t;
# 71 "/usr/include/stdint.h" 3 4
typedef unsigned char uint_fast8_t;

typedef unsigned long int uint_fast16_t;
typedef unsigned long int uint_fast32_t;
typedef unsigned long int uint_fast64_t;
# 87 "/usr/include/stdint.h" 3 4
typedef long int intptr_t;


typedef unsigned long int uintptr_t;
# 101 "/usr/include/stdint.h" 3 4
typedef __intmax_t intmax_t;
typedef __uintmax_t uintmax_t;
# 10 "/usr/lib/gcc/x86_64-linux-gnu/9/include/stdint.h" 2 3 4
# 28 "/usr/include/inttypes.h" 2 3 4






typedef int __gwchar_t;
# 266 "/usr/include/inttypes.h" 3 4





typedef struct
  {
    long int quot;
    long int rem;
  } imaxdiv_t;
# 290 "/usr/include/inttypes.h" 3 4
extern intmax_t imaxabs (intmax_t __n) __attribute__ ((__nothrow__ , __leaf__)) __attribute__ ((__const__));


extern imaxdiv_t imaxdiv (intmax_t __numer, intmax_t __denom)
      __attribute__ ((__nothrow__ , __leaf__)) __attribute__ ((__const__));


extern intmax_t strtoimax (const char *__restrict __nptr,
      char **__restrict __endptr, int __base) __attribute__ ((__nothrow__ , __leaf__));


extern uintmax_t strtoumax (const char *__restrict __nptr,
       char ** __restrict __endptr, int __base) __attribute__ ((__nothrow__ , __leaf__));


extern intmax_t wcstoimax (const __gwchar_t *__restrict __nptr,
      __gwchar_t **__restrict __endptr, int __base)
     __attribute__ ((__nothrow__ , __leaf__));


extern uintmax_t wcstoumax (const __gwchar_t *__restrict __nptr,
       __gwchar_t ** __restrict __endptr, int __base)
     __attribute__ ((__nothrow__ , __leaf__));





extern long int __strtol_internal (const char *__restrict __nptr,
       char **__restrict __endptr,
       int __base, int __group)
  __attribute__ ((__nothrow__ , __leaf__)) __attribute__ ((__nonnull__ (1))) __attribute__ ((__warn_unused_result__));

extern __inline __attribute__ ((__gnu_inline__)) intmax_t
__attribute__ ((__nothrow__ , __leaf__)) strtoimax (const char *__restrict nptr, char **__restrict endptr, int base)

{
  return __strtol_internal (nptr, endptr, base, 0);
}

extern unsigned long int __strtoul_internal (const char *__restrict __nptr,
          char ** __restrict __endptr,
          int __base, int __group)
  __attribute__ ((__nothrow__ , __leaf__)) __attribute__ ((__nonnull__ (1))) __attribute__ ((__warn_unused_result__));

extern __inline __attribute__ ((__gnu_inline__)) uintmax_t
__attribute__ ((__nothrow__ , __leaf__)) strtoumax (const char *__restrict nptr, char **__restrict endptr, int base)

{
  return __strtoul_internal (nptr, endptr, base, 0);
}

extern long int __wcstol_internal (const __gwchar_t * __restrict __nptr,
       __gwchar_t **__restrict __endptr,
       int __base, int __group)
  __attribute__ ((__nothrow__ , __leaf__)) __attribute__ ((__nonnull__ (1))) __attribute__ ((__warn_unused_result__));

extern __inline __attribute__ ((__gnu_inline__)) intmax_t
__attribute__ ((__nothrow__ , __leaf__)) wcstoimax (const __gwchar_t *__restrict nptr, __gwchar_t **__restrict endptr, int base)

{
  return __wcstol_internal (nptr, endptr, base, 0);
}

extern unsigned long int __wcstoul_internal (const __gwchar_t *
          __restrict __nptr,
          __gwchar_t **
          __restrict __endptr,
          int __base, int __group)
  __attribute__ ((__nothrow__ , __leaf__)) __attribute__ ((__nonnull__ (1))) __attribute__ ((__warn_unused_result__));

extern __inline __attribute__ ((__gnu_inline__)) uintmax_t
__attribute__ ((__nothrow__ , __leaf__)) wcstoumax (const __gwchar_t *__restrict nptr, __gwchar_t **__restrict endptr, int base)

{
  return __wcstoul_internal (nptr, endptr, base, 0);
}
# 432 "/usr/include/inttypes.h" 3 4

# 244 "../deps/openssl/openssl/include/openssl/e_os2.h" 2
# 17 "../deps/openssl/openssl/include/openssl/blowfish.h" 2
# 34 "../deps/openssl/openssl/include/openssl/blowfish.h"

# 34 "../deps/openssl/openssl/include/openssl/blowfish.h"
typedef struct bf_key_st {
    unsigned int P[16 + 2];
    unsigned int S[4 * 256];
} BF_KEY;

void BF_set_key(BF_KEY *key, int len, const unsigned char *data);

void BF_encrypt(unsigned int *data, const BF_KEY *key);
void BF_decrypt(unsigned int *data, const BF_KEY *key);

void BF_ecb_encrypt(const unsigned char *in, unsigned char *out,
                    const BF_KEY *key, int enc);
void BF_cbc_encrypt(const unsigned char *in, unsigned char *out, long length,
                    const BF_KEY *schedule, unsigned char *ivec, int enc);
void BF_cfb64_encrypt(const unsigned char *in, unsigned char *out,
                      long length, const BF_KEY *schedule,
                      unsigned char *ivec, int *num, int enc);
void BF_ofb64_encrypt(const unsigned char *in, unsigned char *out,
                      long length, const BF_KEY *schedule,
                      unsigned char *ivec, int *num);
const char *BF_options(void);
# 11 "../deps/openssl/openssl/crypto/bf/bf_cfb64.c" 2
# 1 "../deps/openssl/openssl/crypto/bf/bf_local.h" 1
# 12 "../deps/openssl/openssl/crypto/bf/bf_local.h"
# 1 "../deps/openssl/openssl/include/openssl/opensslconf.h" 1
# 1 "../deps/openssl/openssl/include/../../config/opensslconf.h" 1
# 9 "../deps/openssl/openssl/include/../../config/opensslconf.h"
# 1 "../deps/openssl/openssl/include/../../config/./opensslconf_asm.h" 1
# 98 "../deps/openssl/openssl/include/../../config/./opensslconf_asm.h"
# 1 "../deps/openssl/openssl/include/../../config/././archs/linux-x86_64/asm/include/openssl/opensslconf.h" 1
# 99 "../deps/openssl/openssl/include/../../config/./opensslconf_asm.h" 2
# 10 "../deps/openssl/openssl/include/../../config/opensslconf.h" 2
# 1 "../deps/openssl/openssl/include/openssl/opensslconf.h" 2
# 13 "../deps/openssl/openssl/crypto/bf/bf_local.h" 2
# 12 "../deps/openssl/openssl/crypto/bf/bf_cfb64.c" 2







void BF_cfb64_encrypt(const unsigned char *in, unsigned char *out,
                      long length, const BF_KEY *schedule,
                      unsigned char *ivec, int *num, int encrypt)
{
    register unsigned int v0, v1, t;
    register int n = *num;
    register long l = length;
    unsigned int ti[2];
    unsigned char *iv, c, cc;

    iv = (unsigned char *)ivec;
    if (encrypt) {
        while (l--) {
            if (n == 0) {
                (v0 =((unsigned long)(*((iv)++)))<<24L, v0|=((unsigned long)(*((iv)++)))<<16L, v0|=((unsigned long)(*((iv)++)))<< 8L, v0|=((unsigned long)(*((iv)++))));
                ti[0] = v0;
                (v1 =((unsigned long)(*((iv)++)))<<24L, v1|=((unsigned long)(*((iv)++)))<<16L, v1|=((unsigned long)(*((iv)++)))<< 8L, v1|=((unsigned long)(*((iv)++))));
                ti[1] = v1;
                BF_encrypt((unsigned int *)ti, schedule);
                iv = (unsigned char *)ivec;
                t = ti[0];
                (*((iv)++)=(unsigned char)(((t)>>24L)&0xff), *((iv)++)=(unsigned char)(((t)>>16L)&0xff), *((iv)++)=(unsigned char)(((t)>> 8L)&0xff), *((iv)++)=(unsigned char)(((t) )&0xff));
                t = ti[1];
                (*((iv)++)=(unsigned char)(((t)>>24L)&0xff), *((iv)++)=(unsigned char)(((t)>>16L)&0xff), *((iv)++)=(unsigned char)(((t)>> 8L)&0xff), *((iv)++)=(unsigned char)(((t) )&0xff));
                iv = (unsigned char *)ivec;
            }
            c = *(in++) ^ iv[n];
            *(out++) = c;
            iv[n] = c;
            n = (n + 1) & 0x07;
        }
    } else {
        while (l--) {
            if (n == 0) {
                (v0 =((unsigned long)(*((iv)++)))<<24L, v0|=((unsigned long)(*((iv)++)))<<16L, v0|=((unsigned long)(*((iv)++)))<< 8L, v0|=((unsigned long)(*((iv)++))));
                ti[0] = v0;
                (v1 =((unsigned long)(*((iv)++)))<<24L, v1|=((unsigned long)(*((iv)++)))<<16L, v1|=((unsigned long)(*((iv)++)))<< 8L, v1|=((unsigned long)(*((iv)++))));
                ti[1] = v1;
                BF_encrypt((unsigned int *)ti, schedule);
                iv = (unsigned char *)ivec;
                t = ti[0];
                (*((iv)++)=(unsigned char)(((t)>>24L)&0xff), *((iv)++)=(unsigned char)(((t)>>16L)&0xff), *((iv)++)=(unsigned char)(((t)>> 8L)&0xff), *((iv)++)=(unsigned char)(((t) )&0xff));
                t = ti[1];
                (*((iv)++)=(unsigned char)(((t)>>24L)&0xff), *((iv)++)=(unsigned char)(((t)>>16L)&0xff), *((iv)++)=(unsigned char)(((t)>> 8L)&0xff), *((iv)++)=(unsigned char)(((t) )&0xff));
                iv = (unsigned char *)ivec;
            }
            cc = *(in++);
            c = iv[n];
            iv[n] = cc;
            *(out++) = c ^ cc;
            n = (n + 1) & 0x07;
        }
    }
    v0 = v1 = ti[0] = ti[1] = t = c = cc = 0;
    *num = n;
}
