# 1 "../deps/openssl/openssl/crypto/bf/bf_skey.c"
# 1 "<built-in>"
# 1 "<command-line>"
# 1 "/usr/include/stdc-predef.h" 1 3 4
# 1 "<command-line>" 2
# 1 "../deps/openssl/openssl/crypto/bf/bf_skey.c"
# 10 "../deps/openssl/openssl/crypto/bf/bf_skey.c"
# 1 "/usr/include/stdio.h" 1 3 4
# 27 "/usr/include/stdio.h" 3 4
# 1 "/usr/include/x86_64-linux-gnu/bits/libc-header-start.h" 1 3 4
# 33 "/usr/include/x86_64-linux-gnu/bits/libc-header-start.h" 3 4
# 1 "/usr/include/features.h" 1 3 4
# 461 "/usr/include/features.h" 3 4
# 1 "/usr/include/x86_64-linux-gnu/sys/cdefs.h" 1 3 4
# 452 "/usr/include/x86_64-linux-gnu/sys/cdefs.h" 3 4
# 1 "/usr/include/x86_64-linux-gnu/bits/wordsize.h" 1 3 4
# 453 "/usr/include/x86_64-linux-gnu/sys/cdefs.h" 2 3 4
# 1 "/usr/include/x86_64-linux-gnu/bits/long-double.h" 1 3 4
# 454 "/usr/include/x86_64-linux-gnu/sys/cdefs.h" 2 3 4
# 462 "/usr/include/features.h" 2 3 4
# 485 "/usr/include/features.h" 3 4
# 1 "/usr/include/x86_64-linux-gnu/gnu/stubs.h" 1 3 4
# 10 "/usr/include/x86_64-linux-gnu/gnu/stubs.h" 3 4
# 1 "/usr/include/x86_64-linux-gnu/gnu/stubs-64.h" 1 3 4
# 11 "/usr/include/x86_64-linux-gnu/gnu/stubs.h" 2 3 4
# 486 "/usr/include/features.h" 2 3 4
# 34 "/usr/include/x86_64-linux-gnu/bits/libc-header-start.h" 2 3 4
# 28 "/usr/include/stdio.h" 2 3 4





# 1 "/usr/lib/gcc/x86_64-linux-gnu/9/include/stddef.h" 1 3 4
# 209 "/usr/lib/gcc/x86_64-linux-gnu/9/include/stddef.h" 3 4

# 209 "/usr/lib/gcc/x86_64-linux-gnu/9/include/stddef.h" 3 4
typedef long unsigned int size_t;
# 34 "/usr/include/stdio.h" 2 3 4


# 1 "/usr/lib/gcc/x86_64-linux-gnu/9/include/stdarg.h" 1 3 4
# 40 "/usr/lib/gcc/x86_64-linux-gnu/9/include/stdarg.h" 3 4
typedef __builtin_va_list __gnuc_va_list;
# 37 "/usr/include/stdio.h" 2 3 4

# 1 "/usr/include/x86_64-linux-gnu/bits/types.h" 1 3 4
# 27 "/usr/include/x86_64-linux-gnu/bits/types.h" 3 4
# 1 "/usr/include/x86_64-linux-gnu/bits/wordsize.h" 1 3 4
# 28 "/usr/include/x86_64-linux-gnu/bits/types.h" 2 3 4
# 1 "/usr/include/x86_64-linux-gnu/bits/timesize.h" 1 3 4
# 29 "/usr/include/x86_64-linux-gnu/bits/types.h" 2 3 4


typedef unsigned char __u_char;
typedef unsigned short int __u_short;
typedef unsigned int __u_int;
typedef unsigned long int __u_long;


typedef signed char __int8_t;
typedef unsigned char __uint8_t;
typedef signed short int __int16_t;
typedef unsigned short int __uint16_t;
typedef signed int __int32_t;
typedef unsigned int __uint32_t;

typedef signed long int __int64_t;
typedef unsigned long int __uint64_t;






typedef __int8_t __int_least8_t;
typedef __uint8_t __uint_least8_t;
typedef __int16_t __int_least16_t;
typedef __uint16_t __uint_least16_t;
typedef __int32_t __int_least32_t;
typedef __uint32_t __uint_least32_t;
typedef __int64_t __int_least64_t;
typedef __uint64_t __uint_least64_t;



typedef long int __quad_t;
typedef unsigned long int __u_quad_t;







typedef long int __intmax_t;
typedef unsigned long int __uintmax_t;
# 141 "/usr/include/x86_64-linux-gnu/bits/types.h" 3 4
# 1 "/usr/include/x86_64-linux-gnu/bits/typesizes.h" 1 3 4
# 142 "/usr/include/x86_64-linux-gnu/bits/types.h" 2 3 4
# 1 "/usr/include/x86_64-linux-gnu/bits/time64.h" 1 3 4
# 143 "/usr/include/x86_64-linux-gnu/bits/types.h" 2 3 4


typedef unsigned long int __dev_t;
typedef unsigned int __uid_t;
typedef unsigned int __gid_t;
typedef unsigned long int __ino_t;
typedef unsigned long int __ino64_t;
typedef unsigned int __mode_t;
typedef unsigned long int __nlink_t;
typedef long int __off_t;
typedef long int __off64_t;
typedef int __pid_t;
typedef struct { int __val[2]; } __fsid_t;
typedef long int __clock_t;
typedef unsigned long int __rlim_t;
typedef unsigned long int __rlim64_t;
typedef unsigned int __id_t;
typedef long int __time_t;
typedef unsigned int __useconds_t;
typedef long int __suseconds_t;

typedef int __daddr_t;
typedef int __key_t;


typedef int __clockid_t;


typedef void * __timer_t;


typedef long int __blksize_t;




typedef long int __blkcnt_t;
typedef long int __blkcnt64_t;


typedef unsigned long int __fsblkcnt_t;
typedef unsigned long int __fsblkcnt64_t;


typedef unsigned long int __fsfilcnt_t;
typedef unsigned long int __fsfilcnt64_t;


typedef long int __fsword_t;

typedef long int __ssize_t;


typedef long int __syscall_slong_t;

typedef unsigned long int __syscall_ulong_t;



typedef __off64_t __loff_t;
typedef char *__caddr_t;


typedef long int __intptr_t;


typedef unsigned int __socklen_t;




typedef int __sig_atomic_t;
# 39 "/usr/include/stdio.h" 2 3 4
# 1 "/usr/include/x86_64-linux-gnu/bits/types/__fpos_t.h" 1 3 4




# 1 "/usr/include/x86_64-linux-gnu/bits/types/__mbstate_t.h" 1 3 4
# 13 "/usr/include/x86_64-linux-gnu/bits/types/__mbstate_t.h" 3 4
typedef struct
{
  int __count;
  union
  {
    unsigned int __wch;
    char __wchb[4];
  } __value;
} __mbstate_t;
# 6 "/usr/include/x86_64-linux-gnu/bits/types/__fpos_t.h" 2 3 4




typedef struct _G_fpos_t
{
  __off_t __pos;
  __mbstate_t __state;
} __fpos_t;
# 40 "/usr/include/stdio.h" 2 3 4
# 1 "/usr/include/x86_64-linux-gnu/bits/types/__fpos64_t.h" 1 3 4
# 10 "/usr/include/x86_64-linux-gnu/bits/types/__fpos64_t.h" 3 4
typedef struct _G_fpos64_t
{
  __off64_t __pos;
  __mbstate_t __state;
} __fpos64_t;
# 41 "/usr/include/stdio.h" 2 3 4
# 1 "/usr/include/x86_64-linux-gnu/bits/types/__FILE.h" 1 3 4



struct _IO_FILE;
typedef struct _IO_FILE __FILE;
# 42 "/usr/include/stdio.h" 2 3 4
# 1 "/usr/include/x86_64-linux-gnu/bits/types/FILE.h" 1 3 4



struct _IO_FILE;


typedef struct _IO_FILE FILE;
# 43 "/usr/include/stdio.h" 2 3 4
# 1 "/usr/include/x86_64-linux-gnu/bits/types/struct_FILE.h" 1 3 4
# 35 "/usr/include/x86_64-linux-gnu/bits/types/struct_FILE.h" 3 4
struct _IO_FILE;
struct _IO_marker;
struct _IO_codecvt;
struct _IO_wide_data;




typedef void _IO_lock_t;





struct _IO_FILE
{
  int _flags;


  char *_IO_read_ptr;
  char *_IO_read_end;
  char *_IO_read_base;
  char *_IO_write_base;
  char *_IO_write_ptr;
  char *_IO_write_end;
  char *_IO_buf_base;
  char *_IO_buf_end;


  char *_IO_save_base;
  char *_IO_backup_base;
  char *_IO_save_end;

  struct _IO_marker *_markers;

  struct _IO_FILE *_chain;

  int _fileno;
  int _flags2;
  __off_t _old_offset;


  unsigned short _cur_column;
  signed char _vtable_offset;
  char _shortbuf[1];

  _IO_lock_t *_lock;







  __off64_t _offset;

  struct _IO_codecvt *_codecvt;
  struct _IO_wide_data *_wide_data;
  struct _IO_FILE *_freeres_list;
  void *_freeres_buf;
  size_t __pad5;
  int _mode;

  char _unused2[15 * sizeof (int) - 4 * sizeof (void *) - sizeof (size_t)];
};
# 44 "/usr/include/stdio.h" 2 3 4
# 52 "/usr/include/stdio.h" 3 4
typedef __gnuc_va_list va_list;
# 63 "/usr/include/stdio.h" 3 4
typedef __off_t off_t;
# 77 "/usr/include/stdio.h" 3 4
typedef __ssize_t ssize_t;






typedef __fpos_t fpos_t;
# 133 "/usr/include/stdio.h" 3 4
# 1 "/usr/include/x86_64-linux-gnu/bits/stdio_lim.h" 1 3 4
# 134 "/usr/include/stdio.h" 2 3 4



extern FILE *stdin;
extern FILE *stdout;
extern FILE *stderr;






extern int remove (const char *__filename) __attribute__ ((__nothrow__ , __leaf__));

extern int rename (const char *__old, const char *__new) __attribute__ ((__nothrow__ , __leaf__));



extern int renameat (int __oldfd, const char *__old, int __newfd,
       const char *__new) __attribute__ ((__nothrow__ , __leaf__));
# 173 "/usr/include/stdio.h" 3 4
extern FILE *tmpfile (void) __attribute__ ((__warn_unused_result__));
# 187 "/usr/include/stdio.h" 3 4
extern char *tmpnam (char *__s) __attribute__ ((__nothrow__ , __leaf__)) __attribute__ ((__warn_unused_result__));




extern char *tmpnam_r (char *__s) __attribute__ ((__nothrow__ , __leaf__)) __attribute__ ((__warn_unused_result__));
# 204 "/usr/include/stdio.h" 3 4
extern char *tempnam (const char *__dir, const char *__pfx)
     __attribute__ ((__nothrow__ , __leaf__)) __attribute__ ((__malloc__)) __attribute__ ((__warn_unused_result__));







extern int fclose (FILE *__stream);




extern int fflush (FILE *__stream);
# 227 "/usr/include/stdio.h" 3 4
extern int fflush_unlocked (FILE *__stream);
# 246 "/usr/include/stdio.h" 3 4
extern FILE *fopen (const char *__restrict __filename,
      const char *__restrict __modes) __attribute__ ((__warn_unused_result__));




extern FILE *freopen (const char *__restrict __filename,
        const char *__restrict __modes,
        FILE *__restrict __stream) __attribute__ ((__warn_unused_result__));
# 279 "/usr/include/stdio.h" 3 4
extern FILE *fdopen (int __fd, const char *__modes) __attribute__ ((__nothrow__ , __leaf__)) __attribute__ ((__warn_unused_result__));
# 292 "/usr/include/stdio.h" 3 4
extern FILE *fmemopen (void *__s, size_t __len, const char *__modes)
  __attribute__ ((__nothrow__ , __leaf__)) __attribute__ ((__warn_unused_result__));




extern FILE *open_memstream (char **__bufloc, size_t *__sizeloc) __attribute__ ((__nothrow__ , __leaf__)) __attribute__ ((__warn_unused_result__));





extern void setbuf (FILE *__restrict __stream, char *__restrict __buf) __attribute__ ((__nothrow__ , __leaf__));



extern int setvbuf (FILE *__restrict __stream, char *__restrict __buf,
      int __modes, size_t __n) __attribute__ ((__nothrow__ , __leaf__));




extern void setbuffer (FILE *__restrict __stream, char *__restrict __buf,
         size_t __size) __attribute__ ((__nothrow__ , __leaf__));


extern void setlinebuf (FILE *__stream) __attribute__ ((__nothrow__ , __leaf__));







extern int fprintf (FILE *__restrict __stream,
      const char *__restrict __format, ...);




extern int printf (const char *__restrict __format, ...);

extern int sprintf (char *__restrict __s,
      const char *__restrict __format, ...) __attribute__ ((__nothrow__));





extern int vfprintf (FILE *__restrict __s, const char *__restrict __format,
       __gnuc_va_list __arg);




extern int vprintf (const char *__restrict __format, __gnuc_va_list __arg);

extern int vsprintf (char *__restrict __s, const char *__restrict __format,
       __gnuc_va_list __arg) __attribute__ ((__nothrow__));



extern int snprintf (char *__restrict __s, size_t __maxlen,
       const char *__restrict __format, ...)
     __attribute__ ((__nothrow__)) __attribute__ ((__format__ (__printf__, 3, 4)));

extern int vsnprintf (char *__restrict __s, size_t __maxlen,
        const char *__restrict __format, __gnuc_va_list __arg)
     __attribute__ ((__nothrow__)) __attribute__ ((__format__ (__printf__, 3, 0)));
# 379 "/usr/include/stdio.h" 3 4
extern int vdprintf (int __fd, const char *__restrict __fmt,
       __gnuc_va_list __arg)
     __attribute__ ((__format__ (__printf__, 2, 0)));
extern int dprintf (int __fd, const char *__restrict __fmt, ...)
     __attribute__ ((__format__ (__printf__, 2, 3)));







extern int fscanf (FILE *__restrict __stream,
     const char *__restrict __format, ...) __attribute__ ((__warn_unused_result__));




extern int scanf (const char *__restrict __format, ...) __attribute__ ((__warn_unused_result__));

extern int sscanf (const char *__restrict __s,
     const char *__restrict __format, ...) __attribute__ ((__nothrow__ , __leaf__));






extern int fscanf (FILE *__restrict __stream, const char *__restrict __format, ...) __asm__ ("" "__isoc99_fscanf")

                          __attribute__ ((__warn_unused_result__));
extern int scanf (const char *__restrict __format, ...) __asm__ ("" "__isoc99_scanf")
                         __attribute__ ((__warn_unused_result__));
extern int sscanf (const char *__restrict __s, const char *__restrict __format, ...) __asm__ ("" "__isoc99_sscanf") __attribute__ ((__nothrow__ , __leaf__))

                      ;
# 432 "/usr/include/stdio.h" 3 4
extern int vfscanf (FILE *__restrict __s, const char *__restrict __format,
      __gnuc_va_list __arg)
     __attribute__ ((__format__ (__scanf__, 2, 0))) __attribute__ ((__warn_unused_result__));





extern int vscanf (const char *__restrict __format, __gnuc_va_list __arg)
     __attribute__ ((__format__ (__scanf__, 1, 0))) __attribute__ ((__warn_unused_result__));


extern int vsscanf (const char *__restrict __s,
      const char *__restrict __format, __gnuc_va_list __arg)
     __attribute__ ((__nothrow__ , __leaf__)) __attribute__ ((__format__ (__scanf__, 2, 0)));




extern int vfscanf (FILE *__restrict __s, const char *__restrict __format, __gnuc_va_list __arg) __asm__ ("" "__isoc99_vfscanf")



     __attribute__ ((__format__ (__scanf__, 2, 0))) __attribute__ ((__warn_unused_result__));
extern int vscanf (const char *__restrict __format, __gnuc_va_list __arg) __asm__ ("" "__isoc99_vscanf")

     __attribute__ ((__format__ (__scanf__, 1, 0))) __attribute__ ((__warn_unused_result__));
extern int vsscanf (const char *__restrict __s, const char *__restrict __format, __gnuc_va_list __arg) __asm__ ("" "__isoc99_vsscanf") __attribute__ ((__nothrow__ , __leaf__))



     __attribute__ ((__format__ (__scanf__, 2, 0)));
# 485 "/usr/include/stdio.h" 3 4
extern int fgetc (FILE *__stream);
extern int getc (FILE *__stream);





extern int getchar (void);






extern int getc_unlocked (FILE *__stream);
extern int getchar_unlocked (void);
# 510 "/usr/include/stdio.h" 3 4
extern int fgetc_unlocked (FILE *__stream);
# 521 "/usr/include/stdio.h" 3 4
extern int fputc (int __c, FILE *__stream);
extern int putc (int __c, FILE *__stream);





extern int putchar (int __c);
# 537 "/usr/include/stdio.h" 3 4
extern int fputc_unlocked (int __c, FILE *__stream);







extern int putc_unlocked (int __c, FILE *__stream);
extern int putchar_unlocked (int __c);






extern int getw (FILE *__stream);


extern int putw (int __w, FILE *__stream);







extern char *fgets (char *__restrict __s, int __n, FILE *__restrict __stream)
     __attribute__ ((__warn_unused_result__));
# 603 "/usr/include/stdio.h" 3 4
extern __ssize_t __getdelim (char **__restrict __lineptr,
                             size_t *__restrict __n, int __delimiter,
                             FILE *__restrict __stream) __attribute__ ((__warn_unused_result__));
extern __ssize_t getdelim (char **__restrict __lineptr,
                           size_t *__restrict __n, int __delimiter,
                           FILE *__restrict __stream) __attribute__ ((__warn_unused_result__));







extern __ssize_t getline (char **__restrict __lineptr,
                          size_t *__restrict __n,
                          FILE *__restrict __stream) __attribute__ ((__warn_unused_result__));







extern int fputs (const char *__restrict __s, FILE *__restrict __stream);





extern int puts (const char *__s);






extern int ungetc (int __c, FILE *__stream);






extern size_t fread (void *__restrict __ptr, size_t __size,
       size_t __n, FILE *__restrict __stream) __attribute__ ((__warn_unused_result__));




extern size_t fwrite (const void *__restrict __ptr, size_t __size,
        size_t __n, FILE *__restrict __s);
# 673 "/usr/include/stdio.h" 3 4
extern size_t fread_unlocked (void *__restrict __ptr, size_t __size,
         size_t __n, FILE *__restrict __stream) __attribute__ ((__warn_unused_result__));
extern size_t fwrite_unlocked (const void *__restrict __ptr, size_t __size,
          size_t __n, FILE *__restrict __stream);







extern int fseek (FILE *__stream, long int __off, int __whence);




extern long int ftell (FILE *__stream) __attribute__ ((__warn_unused_result__));




extern void rewind (FILE *__stream);
# 707 "/usr/include/stdio.h" 3 4
extern int fseeko (FILE *__stream, __off_t __off, int __whence);




extern __off_t ftello (FILE *__stream) __attribute__ ((__warn_unused_result__));
# 731 "/usr/include/stdio.h" 3 4
extern int fgetpos (FILE *__restrict __stream, fpos_t *__restrict __pos);




extern int fsetpos (FILE *__stream, const fpos_t *__pos);
# 757 "/usr/include/stdio.h" 3 4
extern void clearerr (FILE *__stream) __attribute__ ((__nothrow__ , __leaf__));

extern int feof (FILE *__stream) __attribute__ ((__nothrow__ , __leaf__)) __attribute__ ((__warn_unused_result__));

extern int ferror (FILE *__stream) __attribute__ ((__nothrow__ , __leaf__)) __attribute__ ((__warn_unused_result__));



extern void clearerr_unlocked (FILE *__stream) __attribute__ ((__nothrow__ , __leaf__));
extern int feof_unlocked (FILE *__stream) __attribute__ ((__nothrow__ , __leaf__)) __attribute__ ((__warn_unused_result__));
extern int ferror_unlocked (FILE *__stream) __attribute__ ((__nothrow__ , __leaf__)) __attribute__ ((__warn_unused_result__));







extern void perror (const char *__s);





# 1 "/usr/include/x86_64-linux-gnu/bits/sys_errlist.h" 1 3 4
# 26 "/usr/include/x86_64-linux-gnu/bits/sys_errlist.h" 3 4
extern int sys_nerr;
extern const char *const sys_errlist[];
# 782 "/usr/include/stdio.h" 2 3 4




extern int fileno (FILE *__stream) __attribute__ ((__nothrow__ , __leaf__)) __attribute__ ((__warn_unused_result__));




extern int fileno_unlocked (FILE *__stream) __attribute__ ((__nothrow__ , __leaf__)) __attribute__ ((__warn_unused_result__));
# 800 "/usr/include/stdio.h" 3 4
extern FILE *popen (const char *__command, const char *__modes) __attribute__ ((__warn_unused_result__));





extern int pclose (FILE *__stream);





extern char *ctermid (char *__s) __attribute__ ((__nothrow__ , __leaf__));
# 840 "/usr/include/stdio.h" 3 4
extern void flockfile (FILE *__stream) __attribute__ ((__nothrow__ , __leaf__));



extern int ftrylockfile (FILE *__stream) __attribute__ ((__nothrow__ , __leaf__)) __attribute__ ((__warn_unused_result__));


extern void funlockfile (FILE *__stream) __attribute__ ((__nothrow__ , __leaf__));
# 858 "/usr/include/stdio.h" 3 4
extern int __uflow (FILE *);
extern int __overflow (FILE *, int);




# 1 "/usr/include/x86_64-linux-gnu/bits/stdio.h" 1 3 4
# 46 "/usr/include/x86_64-linux-gnu/bits/stdio.h" 3 4
extern __inline __attribute__ ((__gnu_inline__)) int
getchar (void)
{
  return getc (stdin);
}




extern __inline __attribute__ ((__gnu_inline__)) int
fgetc_unlocked (FILE *__fp)
{
  return (__builtin_expect (((__fp)->_IO_read_ptr >= (__fp)->_IO_read_end), 0) ? __uflow (__fp) : *(unsigned char *) (__fp)->_IO_read_ptr++);
}





extern __inline __attribute__ ((__gnu_inline__)) int
getc_unlocked (FILE *__fp)
{
  return (__builtin_expect (((__fp)->_IO_read_ptr >= (__fp)->_IO_read_end), 0) ? __uflow (__fp) : *(unsigned char *) (__fp)->_IO_read_ptr++);
}


extern __inline __attribute__ ((__gnu_inline__)) int
getchar_unlocked (void)
{
  return (__builtin_expect (((stdin)->_IO_read_ptr >= (stdin)->_IO_read_end), 0) ? __uflow (stdin) : *(unsigned char *) (stdin)->_IO_read_ptr++);
}




extern __inline __attribute__ ((__gnu_inline__)) int
putchar (int __c)
{
  return putc (__c, stdout);
}




extern __inline __attribute__ ((__gnu_inline__)) int
fputc_unlocked (int __c, FILE *__stream)
{
  return (__builtin_expect (((__stream)->_IO_write_ptr >= (__stream)->_IO_write_end), 0) ? __overflow (__stream, (unsigned char) (__c)) : (unsigned char) (*(__stream)->_IO_write_ptr++ = (__c)));
}





extern __inline __attribute__ ((__gnu_inline__)) int
putc_unlocked (int __c, FILE *__stream)
{
  return (__builtin_expect (((__stream)->_IO_write_ptr >= (__stream)->_IO_write_end), 0) ? __overflow (__stream, (unsigned char) (__c)) : (unsigned char) (*(__stream)->_IO_write_ptr++ = (__c)));
}


extern __inline __attribute__ ((__gnu_inline__)) int
putchar_unlocked (int __c)
{
  return (__builtin_expect (((stdout)->_IO_write_ptr >= (stdout)->_IO_write_end), 0) ? __overflow (stdout, (unsigned char) (__c)) : (unsigned char) (*(stdout)->_IO_write_ptr++ = (__c)));
}
# 127 "/usr/include/x86_64-linux-gnu/bits/stdio.h" 3 4
extern __inline __attribute__ ((__gnu_inline__)) int
__attribute__ ((__nothrow__ , __leaf__)) feof_unlocked (FILE *__stream)
{
  return (((__stream)->_flags & 0x0010) != 0);
}


extern __inline __attribute__ ((__gnu_inline__)) int
__attribute__ ((__nothrow__ , __leaf__)) ferror_unlocked (FILE *__stream)
{
  return (((__stream)->_flags & 0x0020) != 0);
}
# 865 "/usr/include/stdio.h" 2 3 4


# 1 "/usr/include/x86_64-linux-gnu/bits/stdio2.h" 1 3 4
# 26 "/usr/include/x86_64-linux-gnu/bits/stdio2.h" 3 4
extern int __sprintf_chk (char *__restrict __s, int __flag, size_t __slen,
     const char *__restrict __format, ...) __attribute__ ((__nothrow__ , __leaf__));
extern int __vsprintf_chk (char *__restrict __s, int __flag, size_t __slen,
      const char *__restrict __format,
      __gnuc_va_list __ap) __attribute__ ((__nothrow__ , __leaf__));


extern __inline __attribute__ ((__always_inline__)) __attribute__ ((__gnu_inline__)) __attribute__ ((__artificial__)) int
__attribute__ ((__nothrow__ , __leaf__)) sprintf (char *__restrict __s, const char *__restrict __fmt, ...)
{
  return __builtin___sprintf_chk (__s, 2 - 1,
      __builtin_object_size (__s, 2 > 1), __fmt, __builtin_va_arg_pack ());
}






extern __inline __attribute__ ((__always_inline__)) __attribute__ ((__gnu_inline__)) __attribute__ ((__artificial__)) int
__attribute__ ((__nothrow__ , __leaf__)) vsprintf (char *__restrict __s, const char *__restrict __fmt, __gnuc_va_list __ap)

{
  return __builtin___vsprintf_chk (__s, 2 - 1,
       __builtin_object_size (__s, 2 > 1), __fmt, __ap);
}



extern int __snprintf_chk (char *__restrict __s, size_t __n, int __flag,
      size_t __slen, const char *__restrict __format,
      ...) __attribute__ ((__nothrow__ , __leaf__));
extern int __vsnprintf_chk (char *__restrict __s, size_t __n, int __flag,
       size_t __slen, const char *__restrict __format,
       __gnuc_va_list __ap) __attribute__ ((__nothrow__ , __leaf__));


extern __inline __attribute__ ((__always_inline__)) __attribute__ ((__gnu_inline__)) __attribute__ ((__artificial__)) int
__attribute__ ((__nothrow__ , __leaf__)) snprintf (char *__restrict __s, size_t __n, const char *__restrict __fmt, ...)

{
  return __builtin___snprintf_chk (__s, __n, 2 - 1,
       __builtin_object_size (__s, 2 > 1), __fmt, __builtin_va_arg_pack ());
}






extern __inline __attribute__ ((__always_inline__)) __attribute__ ((__gnu_inline__)) __attribute__ ((__artificial__)) int
__attribute__ ((__nothrow__ , __leaf__)) vsnprintf (char *__restrict __s, size_t __n, const char *__restrict __fmt, __gnuc_va_list __ap)

{
  return __builtin___vsnprintf_chk (__s, __n, 2 - 1,
        __builtin_object_size (__s, 2 > 1), __fmt, __ap);
}





extern int __fprintf_chk (FILE *__restrict __stream, int __flag,
     const char *__restrict __format, ...);
extern int __printf_chk (int __flag, const char *__restrict __format, ...);
extern int __vfprintf_chk (FILE *__restrict __stream, int __flag,
      const char *__restrict __format, __gnuc_va_list __ap);
extern int __vprintf_chk (int __flag, const char *__restrict __format,
     __gnuc_va_list __ap);


extern __inline __attribute__ ((__always_inline__)) __attribute__ ((__gnu_inline__)) __attribute__ ((__artificial__)) int
fprintf (FILE *__restrict __stream, const char *__restrict __fmt, ...)
{
  return __fprintf_chk (__stream, 2 - 1, __fmt,
   __builtin_va_arg_pack ());
}

extern __inline __attribute__ ((__always_inline__)) __attribute__ ((__gnu_inline__)) __attribute__ ((__artificial__)) int
printf (const char *__restrict __fmt, ...)
{
  return __printf_chk (2 - 1, __fmt, __builtin_va_arg_pack ());
}







extern __inline __attribute__ ((__always_inline__)) __attribute__ ((__gnu_inline__)) __attribute__ ((__artificial__)) int
vprintf (const char *__restrict __fmt, __gnuc_va_list __ap)
{

  return __vfprintf_chk (stdout, 2 - 1, __fmt, __ap);



}

extern __inline __attribute__ ((__always_inline__)) __attribute__ ((__gnu_inline__)) __attribute__ ((__artificial__)) int
vfprintf (FILE *__restrict __stream,
   const char *__restrict __fmt, __gnuc_va_list __ap)
{
  return __vfprintf_chk (__stream, 2 - 1, __fmt, __ap);
}


extern int __dprintf_chk (int __fd, int __flag, const char *__restrict __fmt,
     ...) __attribute__ ((__format__ (__printf__, 3, 4)));
extern int __vdprintf_chk (int __fd, int __flag,
      const char *__restrict __fmt, __gnuc_va_list __arg)
     __attribute__ ((__format__ (__printf__, 3, 0)));


extern __inline __attribute__ ((__always_inline__)) __attribute__ ((__gnu_inline__)) __attribute__ ((__artificial__)) int
dprintf (int __fd, const char *__restrict __fmt, ...)
{
  return __dprintf_chk (__fd, 2 - 1, __fmt,
   __builtin_va_arg_pack ());
}





extern __inline __attribute__ ((__always_inline__)) __attribute__ ((__gnu_inline__)) __attribute__ ((__artificial__)) int
vdprintf (int __fd, const char *__restrict __fmt, __gnuc_va_list __ap)
{
  return __vdprintf_chk (__fd, 2 - 1, __fmt, __ap);
}
# 243 "/usr/include/x86_64-linux-gnu/bits/stdio2.h" 3 4
extern char *__fgets_chk (char *__restrict __s, size_t __size, int __n,
     FILE *__restrict __stream) __attribute__ ((__warn_unused_result__));
extern char *__fgets_alias (char *__restrict __s, int __n, FILE *__restrict __stream) __asm__ ("" "fgets")

                                        __attribute__ ((__warn_unused_result__));
extern char *__fgets_chk_warn (char *__restrict __s, size_t __size, int __n, FILE *__restrict __stream) __asm__ ("" "__fgets_chk")


     __attribute__ ((__warn_unused_result__)) __attribute__((__warning__ ("fgets called with bigger size than length " "of destination buffer")))
                                 ;

extern __inline __attribute__ ((__always_inline__)) __attribute__ ((__gnu_inline__)) __attribute__ ((__artificial__)) __attribute__ ((__warn_unused_result__)) char *
fgets (char *__restrict __s, int __n, FILE *__restrict __stream)
{
  if (__builtin_object_size (__s, 2 > 1) != (size_t) -1)
    {
      if (!__builtin_constant_p (__n) || __n <= 0)
 return __fgets_chk (__s, __builtin_object_size (__s, 2 > 1), __n, __stream);

      if ((size_t) __n > __builtin_object_size (__s, 2 > 1))
 return __fgets_chk_warn (__s, __builtin_object_size (__s, 2 > 1), __n, __stream);
    }
  return __fgets_alias (__s, __n, __stream);
}

extern size_t __fread_chk (void *__restrict __ptr, size_t __ptrlen,
      size_t __size, size_t __n,
      FILE *__restrict __stream) __attribute__ ((__warn_unused_result__));
extern size_t __fread_alias (void *__restrict __ptr, size_t __size, size_t __n, FILE *__restrict __stream) __asm__ ("" "fread")


            __attribute__ ((__warn_unused_result__));
extern size_t __fread_chk_warn (void *__restrict __ptr, size_t __ptrlen, size_t __size, size_t __n, FILE *__restrict __stream) __asm__ ("" "__fread_chk")




     __attribute__ ((__warn_unused_result__)) __attribute__((__warning__ ("fread called with bigger size * nmemb than length " "of destination buffer")))
                                 ;

extern __inline __attribute__ ((__always_inline__)) __attribute__ ((__gnu_inline__)) __attribute__ ((__artificial__)) __attribute__ ((__warn_unused_result__)) size_t
fread (void *__restrict __ptr, size_t __size, size_t __n,
       FILE *__restrict __stream)
{
  if (__builtin_object_size (__ptr, 0) != (size_t) -1)
    {
      if (!__builtin_constant_p (__size)
   || !__builtin_constant_p (__n)
   || (__size | __n) >= (((size_t) 1) << (8 * sizeof (size_t) / 2)))
 return __fread_chk (__ptr, __builtin_object_size (__ptr, 0), __size, __n, __stream);

      if (__size * __n > __builtin_object_size (__ptr, 0))
 return __fread_chk_warn (__ptr, __builtin_object_size (__ptr, 0), __size, __n, __stream);
    }
  return __fread_alias (__ptr, __size, __n, __stream);
}
# 329 "/usr/include/x86_64-linux-gnu/bits/stdio2.h" 3 4
extern size_t __fread_unlocked_chk (void *__restrict __ptr, size_t __ptrlen,
        size_t __size, size_t __n,
        FILE *__restrict __stream) __attribute__ ((__warn_unused_result__));
extern size_t __fread_unlocked_alias (void *__restrict __ptr, size_t __size, size_t __n, FILE *__restrict __stream) __asm__ ("" "fread_unlocked")


                     __attribute__ ((__warn_unused_result__));
extern size_t __fread_unlocked_chk_warn (void *__restrict __ptr, size_t __ptrlen, size_t __size, size_t __n, FILE *__restrict __stream) __asm__ ("" "__fread_unlocked_chk")




     __attribute__ ((__warn_unused_result__)) __attribute__((__warning__ ("fread_unlocked called with bigger size * nmemb than " "length of destination buffer")))
                                        ;

extern __inline __attribute__ ((__always_inline__)) __attribute__ ((__gnu_inline__)) __attribute__ ((__artificial__)) __attribute__ ((__warn_unused_result__)) size_t
fread_unlocked (void *__restrict __ptr, size_t __size, size_t __n,
  FILE *__restrict __stream)
{
  if (__builtin_object_size (__ptr, 0) != (size_t) -1)
    {
      if (!__builtin_constant_p (__size)
   || !__builtin_constant_p (__n)
   || (__size | __n) >= (((size_t) 1) << (8 * sizeof (size_t) / 2)))
 return __fread_unlocked_chk (__ptr, __builtin_object_size (__ptr, 0), __size, __n,
         __stream);

      if (__size * __n > __builtin_object_size (__ptr, 0))
 return __fread_unlocked_chk_warn (__ptr, __builtin_object_size (__ptr, 0), __size, __n,
       __stream);
    }


  if (__builtin_constant_p (__size)
      && __builtin_constant_p (__n)
      && (__size | __n) < (((size_t) 1) << (8 * sizeof (size_t) / 2))
      && __size * __n <= 8)
    {
      size_t __cnt = __size * __n;
      char *__cptr = (char *) __ptr;
      if (__cnt == 0)
 return 0;

      for (; __cnt > 0; --__cnt)
 {
   int __c = getc_unlocked (__stream);
   if (__c == (-1))
     break;
   *__cptr++ = __c;
 }
      return (__cptr - (char *) __ptr) / __size;
    }

  return __fread_unlocked_alias (__ptr, __size, __n, __stream);
}
# 868 "/usr/include/stdio.h" 2 3 4






# 11 "../deps/openssl/openssl/crypto/bf/bf_skey.c" 2
# 1 "/usr/include/string.h" 1 3 4
# 26 "/usr/include/string.h" 3 4
# 1 "/usr/include/x86_64-linux-gnu/bits/libc-header-start.h" 1 3 4
# 27 "/usr/include/string.h" 2 3 4






# 1 "/usr/lib/gcc/x86_64-linux-gnu/9/include/stddef.h" 1 3 4
# 34 "/usr/include/string.h" 2 3 4
# 43 "/usr/include/string.h" 3 4
extern void *memcpy (void *__restrict __dest, const void *__restrict __src,
       size_t __n) __attribute__ ((__nothrow__ , __leaf__)) __attribute__ ((__nonnull__ (1, 2)));


extern void *memmove (void *__dest, const void *__src, size_t __n)
     __attribute__ ((__nothrow__ , __leaf__)) __attribute__ ((__nonnull__ (1, 2)));





extern void *memccpy (void *__restrict __dest, const void *__restrict __src,
        int __c, size_t __n)
     __attribute__ ((__nothrow__ , __leaf__)) __attribute__ ((__nonnull__ (1, 2)));




extern void *memset (void *__s, int __c, size_t __n) __attribute__ ((__nothrow__ , __leaf__)) __attribute__ ((__nonnull__ (1)));


extern int memcmp (const void *__s1, const void *__s2, size_t __n)
     __attribute__ ((__nothrow__ , __leaf__)) __attribute__ ((__pure__)) __attribute__ ((__nonnull__ (1, 2)));
# 91 "/usr/include/string.h" 3 4
extern void *memchr (const void *__s, int __c, size_t __n)
      __attribute__ ((__nothrow__ , __leaf__)) __attribute__ ((__pure__)) __attribute__ ((__nonnull__ (1)));
# 122 "/usr/include/string.h" 3 4
extern char *strcpy (char *__restrict __dest, const char *__restrict __src)
     __attribute__ ((__nothrow__ , __leaf__)) __attribute__ ((__nonnull__ (1, 2)));

extern char *strncpy (char *__restrict __dest,
        const char *__restrict __src, size_t __n)
     __attribute__ ((__nothrow__ , __leaf__)) __attribute__ ((__nonnull__ (1, 2)));


extern char *strcat (char *__restrict __dest, const char *__restrict __src)
     __attribute__ ((__nothrow__ , __leaf__)) __attribute__ ((__nonnull__ (1, 2)));

extern char *strncat (char *__restrict __dest, const char *__restrict __src,
        size_t __n) __attribute__ ((__nothrow__ , __leaf__)) __attribute__ ((__nonnull__ (1, 2)));


extern int strcmp (const char *__s1, const char *__s2)
     __attribute__ ((__nothrow__ , __leaf__)) __attribute__ ((__pure__)) __attribute__ ((__nonnull__ (1, 2)));

extern int strncmp (const char *__s1, const char *__s2, size_t __n)
     __attribute__ ((__nothrow__ , __leaf__)) __attribute__ ((__pure__)) __attribute__ ((__nonnull__ (1, 2)));


extern int strcoll (const char *__s1, const char *__s2)
     __attribute__ ((__nothrow__ , __leaf__)) __attribute__ ((__pure__)) __attribute__ ((__nonnull__ (1, 2)));

extern size_t strxfrm (char *__restrict __dest,
         const char *__restrict __src, size_t __n)
     __attribute__ ((__nothrow__ , __leaf__)) __attribute__ ((__nonnull__ (2)));



# 1 "/usr/include/x86_64-linux-gnu/bits/types/locale_t.h" 1 3 4
# 22 "/usr/include/x86_64-linux-gnu/bits/types/locale_t.h" 3 4
# 1 "/usr/include/x86_64-linux-gnu/bits/types/__locale_t.h" 1 3 4
# 28 "/usr/include/x86_64-linux-gnu/bits/types/__locale_t.h" 3 4
struct __locale_struct
{

  struct __locale_data *__locales[13];


  const unsigned short int *__ctype_b;
  const int *__ctype_tolower;
  const int *__ctype_toupper;


  const char *__names[13];
};

typedef struct __locale_struct *__locale_t;
# 23 "/usr/include/x86_64-linux-gnu/bits/types/locale_t.h" 2 3 4

typedef __locale_t locale_t;
# 154 "/usr/include/string.h" 2 3 4


extern int strcoll_l (const char *__s1, const char *__s2, locale_t __l)
     __attribute__ ((__nothrow__ , __leaf__)) __attribute__ ((__pure__)) __attribute__ ((__nonnull__ (1, 2, 3)));


extern size_t strxfrm_l (char *__dest, const char *__src, size_t __n,
    locale_t __l) __attribute__ ((__nothrow__ , __leaf__)) __attribute__ ((__nonnull__ (2, 4)));





extern char *strdup (const char *__s)
     __attribute__ ((__nothrow__ , __leaf__)) __attribute__ ((__malloc__)) __attribute__ ((__nonnull__ (1)));






extern char *strndup (const char *__string, size_t __n)
     __attribute__ ((__nothrow__ , __leaf__)) __attribute__ ((__malloc__)) __attribute__ ((__nonnull__ (1)));
# 226 "/usr/include/string.h" 3 4
extern char *strchr (const char *__s, int __c)
     __attribute__ ((__nothrow__ , __leaf__)) __attribute__ ((__pure__)) __attribute__ ((__nonnull__ (1)));
# 253 "/usr/include/string.h" 3 4
extern char *strrchr (const char *__s, int __c)
     __attribute__ ((__nothrow__ , __leaf__)) __attribute__ ((__pure__)) __attribute__ ((__nonnull__ (1)));
# 273 "/usr/include/string.h" 3 4
extern size_t strcspn (const char *__s, const char *__reject)
     __attribute__ ((__nothrow__ , __leaf__)) __attribute__ ((__pure__)) __attribute__ ((__nonnull__ (1, 2)));


extern size_t strspn (const char *__s, const char *__accept)
     __attribute__ ((__nothrow__ , __leaf__)) __attribute__ ((__pure__)) __attribute__ ((__nonnull__ (1, 2)));
# 303 "/usr/include/string.h" 3 4
extern char *strpbrk (const char *__s, const char *__accept)
     __attribute__ ((__nothrow__ , __leaf__)) __attribute__ ((__pure__)) __attribute__ ((__nonnull__ (1, 2)));
# 330 "/usr/include/string.h" 3 4
extern char *strstr (const char *__haystack, const char *__needle)
     __attribute__ ((__nothrow__ , __leaf__)) __attribute__ ((__pure__)) __attribute__ ((__nonnull__ (1, 2)));




extern char *strtok (char *__restrict __s, const char *__restrict __delim)
     __attribute__ ((__nothrow__ , __leaf__)) __attribute__ ((__nonnull__ (2)));



extern char *__strtok_r (char *__restrict __s,
    const char *__restrict __delim,
    char **__restrict __save_ptr)
     __attribute__ ((__nothrow__ , __leaf__)) __attribute__ ((__nonnull__ (2, 3)));

extern char *strtok_r (char *__restrict __s, const char *__restrict __delim,
         char **__restrict __save_ptr)
     __attribute__ ((__nothrow__ , __leaf__)) __attribute__ ((__nonnull__ (2, 3)));
# 385 "/usr/include/string.h" 3 4
extern size_t strlen (const char *__s)
     __attribute__ ((__nothrow__ , __leaf__)) __attribute__ ((__pure__)) __attribute__ ((__nonnull__ (1)));




extern size_t strnlen (const char *__string, size_t __maxlen)
     __attribute__ ((__nothrow__ , __leaf__)) __attribute__ ((__pure__)) __attribute__ ((__nonnull__ (1)));




extern char *strerror (int __errnum) __attribute__ ((__nothrow__ , __leaf__));
# 410 "/usr/include/string.h" 3 4
extern int strerror_r (int __errnum, char *__buf, size_t __buflen) __asm__ ("" "__xpg_strerror_r") __attribute__ ((__nothrow__ , __leaf__))

                        __attribute__ ((__nonnull__ (2)));
# 428 "/usr/include/string.h" 3 4
extern char *strerror_l (int __errnum, locale_t __l) __attribute__ ((__nothrow__ , __leaf__));



# 1 "/usr/include/strings.h" 1 3 4
# 23 "/usr/include/strings.h" 3 4
# 1 "/usr/lib/gcc/x86_64-linux-gnu/9/include/stddef.h" 1 3 4
# 24 "/usr/include/strings.h" 2 3 4










extern int bcmp (const void *__s1, const void *__s2, size_t __n)
     __attribute__ ((__nothrow__ , __leaf__)) __attribute__ ((__pure__)) __attribute__ ((__nonnull__ (1, 2)));


extern void bcopy (const void *__src, void *__dest, size_t __n)
  __attribute__ ((__nothrow__ , __leaf__)) __attribute__ ((__nonnull__ (1, 2)));


extern void bzero (void *__s, size_t __n) __attribute__ ((__nothrow__ , __leaf__)) __attribute__ ((__nonnull__ (1)));
# 68 "/usr/include/strings.h" 3 4
extern char *index (const char *__s, int __c)
     __attribute__ ((__nothrow__ , __leaf__)) __attribute__ ((__pure__)) __attribute__ ((__nonnull__ (1)));
# 96 "/usr/include/strings.h" 3 4
extern char *rindex (const char *__s, int __c)
     __attribute__ ((__nothrow__ , __leaf__)) __attribute__ ((__pure__)) __attribute__ ((__nonnull__ (1)));






extern int ffs (int __i) __attribute__ ((__nothrow__ , __leaf__)) __attribute__ ((__const__));





extern int ffsl (long int __l) __attribute__ ((__nothrow__ , __leaf__)) __attribute__ ((__const__));
__extension__ extern int ffsll (long long int __ll)
     __attribute__ ((__nothrow__ , __leaf__)) __attribute__ ((__const__));



extern int strcasecmp (const char *__s1, const char *__s2)
     __attribute__ ((__nothrow__ , __leaf__)) __attribute__ ((__pure__)) __attribute__ ((__nonnull__ (1, 2)));


extern int strncasecmp (const char *__s1, const char *__s2, size_t __n)
     __attribute__ ((__nothrow__ , __leaf__)) __attribute__ ((__pure__)) __attribute__ ((__nonnull__ (1, 2)));






extern int strcasecmp_l (const char *__s1, const char *__s2, locale_t __loc)
     __attribute__ ((__nothrow__ , __leaf__)) __attribute__ ((__pure__)) __attribute__ ((__nonnull__ (1, 2, 3)));



extern int strncasecmp_l (const char *__s1, const char *__s2,
     size_t __n, locale_t __loc)
     __attribute__ ((__nothrow__ , __leaf__)) __attribute__ ((__pure__)) __attribute__ ((__nonnull__ (1, 2, 4)));








# 1 "/usr/include/x86_64-linux-gnu/bits/strings_fortified.h" 1 3 4
# 22 "/usr/include/x86_64-linux-gnu/bits/strings_fortified.h" 3 4
extern __inline __attribute__ ((__always_inline__)) __attribute__ ((__gnu_inline__)) __attribute__ ((__artificial__)) void
__attribute__ ((__nothrow__ , __leaf__)) bcopy (const void *__src, void *__dest, size_t __len)
{
  (void) __builtin___memmove_chk (__dest, __src, __len, __builtin_object_size (__dest, 0));
}

extern __inline __attribute__ ((__always_inline__)) __attribute__ ((__gnu_inline__)) __attribute__ ((__artificial__)) void
__attribute__ ((__nothrow__ , __leaf__)) bzero (void *__dest, size_t __len)
{
  (void) __builtin___memset_chk (__dest, '\0', __len, __builtin_object_size (__dest, 0));
}
# 145 "/usr/include/strings.h" 2 3 4
# 433 "/usr/include/string.h" 2 3 4



extern void explicit_bzero (void *__s, size_t __n) __attribute__ ((__nothrow__ , __leaf__)) __attribute__ ((__nonnull__ (1)));



extern char *strsep (char **__restrict __stringp,
       const char *__restrict __delim)
     __attribute__ ((__nothrow__ , __leaf__)) __attribute__ ((__nonnull__ (1, 2)));




extern char *strsignal (int __sig) __attribute__ ((__nothrow__ , __leaf__));


extern char *__stpcpy (char *__restrict __dest, const char *__restrict __src)
     __attribute__ ((__nothrow__ , __leaf__)) __attribute__ ((__nonnull__ (1, 2)));
extern char *stpcpy (char *__restrict __dest, const char *__restrict __src)
     __attribute__ ((__nothrow__ , __leaf__)) __attribute__ ((__nonnull__ (1, 2)));



extern char *__stpncpy (char *__restrict __dest,
   const char *__restrict __src, size_t __n)
     __attribute__ ((__nothrow__ , __leaf__)) __attribute__ ((__nonnull__ (1, 2)));
extern char *stpncpy (char *__restrict __dest,
        const char *__restrict __src, size_t __n)
     __attribute__ ((__nothrow__ , __leaf__)) __attribute__ ((__nonnull__ (1, 2)));
# 495 "/usr/include/string.h" 3 4
# 1 "/usr/include/x86_64-linux-gnu/bits/string_fortified.h" 1 3 4
# 30 "/usr/include/x86_64-linux-gnu/bits/string_fortified.h" 3 4
extern __inline __attribute__ ((__always_inline__)) __attribute__ ((__gnu_inline__)) __attribute__ ((__artificial__)) void *
__attribute__ ((__nothrow__ , __leaf__)) memcpy (void *__restrict __dest, const void *__restrict __src, size_t __len)

{
  return __builtin___memcpy_chk (__dest, __src, __len, __builtin_object_size (__dest, 0));
}

extern __inline __attribute__ ((__always_inline__)) __attribute__ ((__gnu_inline__)) __attribute__ ((__artificial__)) void *
__attribute__ ((__nothrow__ , __leaf__)) memmove (void *__dest, const void *__src, size_t __len)
{
  return __builtin___memmove_chk (__dest, __src, __len, __builtin_object_size (__dest, 0));
}
# 58 "/usr/include/x86_64-linux-gnu/bits/string_fortified.h" 3 4
extern __inline __attribute__ ((__always_inline__)) __attribute__ ((__gnu_inline__)) __attribute__ ((__artificial__)) void *
__attribute__ ((__nothrow__ , __leaf__)) memset (void *__dest, int __ch, size_t __len)
{
# 71 "/usr/include/x86_64-linux-gnu/bits/string_fortified.h" 3 4
  return __builtin___memset_chk (__dest, __ch, __len, __builtin_object_size (__dest, 0));
}




void __explicit_bzero_chk (void *__dest, size_t __len, size_t __destlen)
  __attribute__ ((__nothrow__ , __leaf__)) __attribute__ ((__nonnull__ (1)));

extern __inline __attribute__ ((__always_inline__)) __attribute__ ((__gnu_inline__)) __attribute__ ((__artificial__)) void
__attribute__ ((__nothrow__ , __leaf__)) explicit_bzero (void *__dest, size_t __len)
{
  __explicit_bzero_chk (__dest, __len, __builtin_object_size (__dest, 0));
}


extern __inline __attribute__ ((__always_inline__)) __attribute__ ((__gnu_inline__)) __attribute__ ((__artificial__)) char *
__attribute__ ((__nothrow__ , __leaf__)) strcpy (char *__restrict __dest, const char *__restrict __src)
{
  return __builtin___strcpy_chk (__dest, __src, __builtin_object_size (__dest, 2 > 1));
}
# 102 "/usr/include/x86_64-linux-gnu/bits/string_fortified.h" 3 4
extern __inline __attribute__ ((__always_inline__)) __attribute__ ((__gnu_inline__)) __attribute__ ((__artificial__)) char *
__attribute__ ((__nothrow__ , __leaf__)) strncpy (char *__restrict __dest, const char *__restrict __src, size_t __len)

{
  return __builtin___strncpy_chk (__dest, __src, __len, __builtin_object_size (__dest, 2 > 1));
}


extern char *__stpncpy_chk (char *__dest, const char *__src, size_t __n,
       size_t __destlen) __attribute__ ((__nothrow__ , __leaf__));
extern char *__stpncpy_alias (char *__dest, const char *__src, size_t __n) __asm__ ("" "stpncpy") __attribute__ ((__nothrow__ , __leaf__))
                                 ;

extern __inline __attribute__ ((__always_inline__)) __attribute__ ((__gnu_inline__)) __attribute__ ((__artificial__)) char *
__attribute__ ((__nothrow__ , __leaf__)) stpncpy (char *__dest, const char *__src, size_t __n)
{
  if (__builtin_object_size (__dest, 2 > 1) != (size_t) -1
      && (!__builtin_constant_p (__n) || __n > __builtin_object_size (__dest, 2 > 1)))
    return __stpncpy_chk (__dest, __src, __n, __builtin_object_size (__dest, 2 > 1));
  return __stpncpy_alias (__dest, __src, __n);
}


extern __inline __attribute__ ((__always_inline__)) __attribute__ ((__gnu_inline__)) __attribute__ ((__artificial__)) char *
__attribute__ ((__nothrow__ , __leaf__)) strcat (char *__restrict __dest, const char *__restrict __src)
{
  return __builtin___strcat_chk (__dest, __src, __builtin_object_size (__dest, 2 > 1));
}


extern __inline __attribute__ ((__always_inline__)) __attribute__ ((__gnu_inline__)) __attribute__ ((__artificial__)) char *
__attribute__ ((__nothrow__ , __leaf__)) strncat (char *__restrict __dest, const char *__restrict __src, size_t __len)

{
  return __builtin___strncat_chk (__dest, __src, __len, __builtin_object_size (__dest, 2 > 1));
}
# 496 "/usr/include/string.h" 2 3 4




# 12 "../deps/openssl/openssl/crypto/bf/bf_skey.c" 2
# 1 "../deps/openssl/openssl/include/openssl/blowfish.h" 1
# 13 "../deps/openssl/openssl/include/openssl/blowfish.h"
# 1 "../deps/openssl/openssl/include/openssl/opensslconf.h" 1
# 1 "../deps/openssl/openssl/include/../../config/opensslconf.h" 1
# 9 "../deps/openssl/openssl/include/../../config/opensslconf.h"
# 1 "../deps/openssl/openssl/include/../../config/./opensslconf_asm.h" 1
# 98 "../deps/openssl/openssl/include/../../config/./opensslconf_asm.h"
# 1 "../deps/openssl/openssl/include/../../config/././archs/linux-x86_64/asm/include/openssl/opensslconf.h" 1
# 13 "../deps/openssl/openssl/include/../../config/././archs/linux-x86_64/asm/include/openssl/opensslconf.h"
# 1 "../deps/openssl/openssl/include/openssl/opensslv.h" 1
# 14 "../deps/openssl/openssl/include/../../config/././archs/linux-x86_64/asm/include/openssl/opensslconf.h" 2
# 99 "../deps/openssl/openssl/include/../../config/./opensslconf_asm.h" 2
# 10 "../deps/openssl/openssl/include/../../config/opensslconf.h" 2
# 1 "../deps/openssl/openssl/include/openssl/opensslconf.h" 2
# 14 "../deps/openssl/openssl/include/openssl/blowfish.h" 2


# 1 "../deps/openssl/openssl/include/openssl/e_os2.h" 1
# 13 "../deps/openssl/openssl/include/openssl/e_os2.h"
# 1 "../deps/openssl/openssl/include/openssl/opensslconf.h" 1
# 1 "../deps/openssl/openssl/include/../../config/opensslconf.h" 1
# 9 "../deps/openssl/openssl/include/../../config/opensslconf.h"
# 1 "../deps/openssl/openssl/include/../../config/./opensslconf_asm.h" 1
# 98 "../deps/openssl/openssl/include/../../config/./opensslconf_asm.h"
# 1 "../deps/openssl/openssl/include/../../config/././archs/linux-x86_64/asm/include/openssl/opensslconf.h" 1
# 99 "../deps/openssl/openssl/include/../../config/./opensslconf_asm.h" 2
# 10 "../deps/openssl/openssl/include/../../config/opensslconf.h" 2
# 1 "../deps/openssl/openssl/include/openssl/opensslconf.h" 2
# 14 "../deps/openssl/openssl/include/openssl/e_os2.h" 2
# 243 "../deps/openssl/openssl/include/openssl/e_os2.h"
# 1 "/usr/include/inttypes.h" 1 3 4
# 27 "/usr/include/inttypes.h" 3 4
# 1 "/usr/lib/gcc/x86_64-linux-gnu/9/include/stdint.h" 1 3 4
# 9 "/usr/lib/gcc/x86_64-linux-gnu/9/include/stdint.h" 3 4
# 1 "/usr/include/stdint.h" 1 3 4
# 26 "/usr/include/stdint.h" 3 4
# 1 "/usr/include/x86_64-linux-gnu/bits/libc-header-start.h" 1 3 4
# 27 "/usr/include/stdint.h" 2 3 4

# 1 "/usr/include/x86_64-linux-gnu/bits/wchar.h" 1 3 4
# 29 "/usr/include/stdint.h" 2 3 4
# 1 "/usr/include/x86_64-linux-gnu/bits/wordsize.h" 1 3 4
# 30 "/usr/include/stdint.h" 2 3 4




# 1 "/usr/include/x86_64-linux-gnu/bits/stdint-intn.h" 1 3 4
# 24 "/usr/include/x86_64-linux-gnu/bits/stdint-intn.h" 3 4
typedef __int8_t int8_t;
typedef __int16_t int16_t;
typedef __int32_t int32_t;
typedef __int64_t int64_t;
# 35 "/usr/include/stdint.h" 2 3 4


# 1 "/usr/include/x86_64-linux-gnu/bits/stdint-uintn.h" 1 3 4
# 24 "/usr/include/x86_64-linux-gnu/bits/stdint-uintn.h" 3 4
typedef __uint8_t uint8_t;
typedef __uint16_t uint16_t;
typedef __uint32_t uint32_t;
typedef __uint64_t uint64_t;
# 38 "/usr/include/stdint.h" 2 3 4





typedef __int_least8_t int_least8_t;
typedef __int_least16_t int_least16_t;
typedef __int_least32_t int_least32_t;
typedef __int_least64_t int_least64_t;


typedef __uint_least8_t uint_least8_t;
typedef __uint_least16_t uint_least16_t;
typedef __uint_least32_t uint_least32_t;
typedef __uint_least64_t uint_least64_t;





typedef signed char int_fast8_t;

typedef long int int_fast16_t;
typedef long int int_fast32_t;
typedef long int int_fast64_t;
# 71 "/usr/include/stdint.h" 3 4
typedef unsigned char uint_fast8_t;

typedef unsigned long int uint_fast16_t;
typedef unsigned long int uint_fast32_t;
typedef unsigned long int uint_fast64_t;
# 87 "/usr/include/stdint.h" 3 4
typedef long int intptr_t;


typedef unsigned long int uintptr_t;
# 101 "/usr/include/stdint.h" 3 4
typedef __intmax_t intmax_t;
typedef __uintmax_t uintmax_t;
# 10 "/usr/lib/gcc/x86_64-linux-gnu/9/include/stdint.h" 2 3 4
# 28 "/usr/include/inttypes.h" 2 3 4






typedef int __gwchar_t;
# 266 "/usr/include/inttypes.h" 3 4





typedef struct
  {
    long int quot;
    long int rem;
  } imaxdiv_t;
# 290 "/usr/include/inttypes.h" 3 4
extern intmax_t imaxabs (intmax_t __n) __attribute__ ((__nothrow__ , __leaf__)) __attribute__ ((__const__));


extern imaxdiv_t imaxdiv (intmax_t __numer, intmax_t __denom)
      __attribute__ ((__nothrow__ , __leaf__)) __attribute__ ((__const__));


extern intmax_t strtoimax (const char *__restrict __nptr,
      char **__restrict __endptr, int __base) __attribute__ ((__nothrow__ , __leaf__));


extern uintmax_t strtoumax (const char *__restrict __nptr,
       char ** __restrict __endptr, int __base) __attribute__ ((__nothrow__ , __leaf__));


extern intmax_t wcstoimax (const __gwchar_t *__restrict __nptr,
      __gwchar_t **__restrict __endptr, int __base)
     __attribute__ ((__nothrow__ , __leaf__));


extern uintmax_t wcstoumax (const __gwchar_t *__restrict __nptr,
       __gwchar_t ** __restrict __endptr, int __base)
     __attribute__ ((__nothrow__ , __leaf__));





extern long int __strtol_internal (const char *__restrict __nptr,
       char **__restrict __endptr,
       int __base, int __group)
  __attribute__ ((__nothrow__ , __leaf__)) __attribute__ ((__nonnull__ (1))) __attribute__ ((__warn_unused_result__));

extern __inline __attribute__ ((__gnu_inline__)) intmax_t
__attribute__ ((__nothrow__ , __leaf__)) strtoimax (const char *__restrict nptr, char **__restrict endptr, int base)

{
  return __strtol_internal (nptr, endptr, base, 0);
}

extern unsigned long int __strtoul_internal (const char *__restrict __nptr,
          char ** __restrict __endptr,
          int __base, int __group)
  __attribute__ ((__nothrow__ , __leaf__)) __attribute__ ((__nonnull__ (1))) __attribute__ ((__warn_unused_result__));

extern __inline __attribute__ ((__gnu_inline__)) uintmax_t
__attribute__ ((__nothrow__ , __leaf__)) strtoumax (const char *__restrict nptr, char **__restrict endptr, int base)

{
  return __strtoul_internal (nptr, endptr, base, 0);
}

extern long int __wcstol_internal (const __gwchar_t * __restrict __nptr,
       __gwchar_t **__restrict __endptr,
       int __base, int __group)
  __attribute__ ((__nothrow__ , __leaf__)) __attribute__ ((__nonnull__ (1))) __attribute__ ((__warn_unused_result__));

extern __inline __attribute__ ((__gnu_inline__)) intmax_t
__attribute__ ((__nothrow__ , __leaf__)) wcstoimax (const __gwchar_t *__restrict nptr, __gwchar_t **__restrict endptr, int base)

{
  return __wcstol_internal (nptr, endptr, base, 0);
}

extern unsigned long int __wcstoul_internal (const __gwchar_t *
          __restrict __nptr,
          __gwchar_t **
          __restrict __endptr,
          int __base, int __group)
  __attribute__ ((__nothrow__ , __leaf__)) __attribute__ ((__nonnull__ (1))) __attribute__ ((__warn_unused_result__));

extern __inline __attribute__ ((__gnu_inline__)) uintmax_t
__attribute__ ((__nothrow__ , __leaf__)) wcstoumax (const __gwchar_t *__restrict nptr, __gwchar_t **__restrict endptr, int base)

{
  return __wcstoul_internal (nptr, endptr, base, 0);
}
# 432 "/usr/include/inttypes.h" 3 4

# 244 "../deps/openssl/openssl/include/openssl/e_os2.h" 2
# 17 "../deps/openssl/openssl/include/openssl/blowfish.h" 2
# 34 "../deps/openssl/openssl/include/openssl/blowfish.h"

# 34 "../deps/openssl/openssl/include/openssl/blowfish.h"
typedef struct bf_key_st {
    unsigned int P[16 + 2];
    unsigned int S[4 * 256];
} BF_KEY;

void BF_set_key(BF_KEY *key, int len, const unsigned char *data);

void BF_encrypt(unsigned int *data, const BF_KEY *key);
void BF_decrypt(unsigned int *data, const BF_KEY *key);

void BF_ecb_encrypt(const unsigned char *in, unsigned char *out,
                    const BF_KEY *key, int enc);
void BF_cbc_encrypt(const unsigned char *in, unsigned char *out, long length,
                    const BF_KEY *schedule, unsigned char *ivec, int enc);
void BF_cfb64_encrypt(const unsigned char *in, unsigned char *out,
                      long length, const BF_KEY *schedule,
                      unsigned char *ivec, int *num, int enc);
void BF_ofb64_encrypt(const unsigned char *in, unsigned char *out,
                      long length, const BF_KEY *schedule,
                      unsigned char *ivec, int *num);
const char *BF_options(void);
# 13 "../deps/openssl/openssl/crypto/bf/bf_skey.c" 2
# 1 "../deps/openssl/openssl/crypto/bf/bf_local.h" 1
# 12 "../deps/openssl/openssl/crypto/bf/bf_local.h"
# 1 "../deps/openssl/openssl/include/openssl/opensslconf.h" 1
# 1 "../deps/openssl/openssl/include/../../config/opensslconf.h" 1
# 9 "../deps/openssl/openssl/include/../../config/opensslconf.h"
# 1 "../deps/openssl/openssl/include/../../config/./opensslconf_asm.h" 1
# 98 "../deps/openssl/openssl/include/../../config/./opensslconf_asm.h"
# 1 "../deps/openssl/openssl/include/../../config/././archs/linux-x86_64/asm/include/openssl/opensslconf.h" 1
# 99 "../deps/openssl/openssl/include/../../config/./opensslconf_asm.h" 2
# 10 "../deps/openssl/openssl/include/../../config/opensslconf.h" 2
# 1 "../deps/openssl/openssl/include/openssl/opensslconf.h" 2
# 13 "../deps/openssl/openssl/crypto/bf/bf_local.h" 2
# 14 "../deps/openssl/openssl/crypto/bf/bf_skey.c" 2
# 1 "../deps/openssl/openssl/crypto/bf/bf_pi.h" 1
# 10 "../deps/openssl/openssl/crypto/bf/bf_pi.h"
static const BF_KEY bf_init = {
    {
     0x243f6a88L, 0x85a308d3L, 0x13198a2eL, 0x03707344L,
     0xa4093822L, 0x299f31d0L, 0x082efa98L, 0xec4e6c89L,
     0x452821e6L, 0x38d01377L, 0xbe5466cfL, 0x34e90c6cL,
     0xc0ac29b7L, 0xc97c50ddL, 0x3f84d5b5L, 0xb5470917L,
     0x9216d5d9L, 0x8979fb1b}, {
                                0xd1310ba6L, 0x98dfb5acL, 0x2ffd72dbL,
                                0xd01adfb7L,
                                0xb8e1afedL, 0x6a267e96L, 0xba7c9045L,
                                0xf12c7f99L,
                                0x24a19947L, 0xb3916cf7L, 0x0801f2e2L,
                                0x858efc16L,
                                0x636920d8L, 0x71574e69L, 0xa458fea3L,
                                0xf4933d7eL,
                                0x0d95748fL, 0x728eb658L, 0x718bcd58L,
                                0x82154aeeL,
                                0x7b54a41dL, 0xc25a59b5L, 0x9c30d539L,
                                0x2af26013L,
                                0xc5d1b023L, 0x286085f0L, 0xca417918L,
                                0xb8db38efL,
                                0x8e79dcb0L, 0x603a180eL, 0x6c9e0e8bL,
                                0xb01e8a3eL,
                                0xd71577c1L, 0xbd314b27L, 0x78af2fdaL,
                                0x55605c60L,
                                0xe65525f3L, 0xaa55ab94L, 0x57489862L,
                                0x63e81440L,
                                0x55ca396aL, 0x2aab10b6L, 0xb4cc5c34L,
                                0x1141e8ceL,
                                0xa15486afL, 0x7c72e993L, 0xb3ee1411L,
                                0x636fbc2aL,
                                0x2ba9c55dL, 0x741831f6L, 0xce5c3e16L,
                                0x9b87931eL,
                                0xafd6ba33L, 0x6c24cf5cL, 0x7a325381L,
                                0x28958677L,
                                0x3b8f4898L, 0x6b4bb9afL, 0xc4bfe81bL,
                                0x66282193L,
                                0x61d809ccL, 0xfb21a991L, 0x487cac60L,
                                0x5dec8032L,
                                0xef845d5dL, 0xe98575b1L, 0xdc262302L,
                                0xeb651b88L,
                                0x23893e81L, 0xd396acc5L, 0x0f6d6ff3L,
                                0x83f44239L,
                                0x2e0b4482L, 0xa4842004L, 0x69c8f04aL,
                                0x9e1f9b5eL,
                                0x21c66842L, 0xf6e96c9aL, 0x670c9c61L,
                                0xabd388f0L,
                                0x6a51a0d2L, 0xd8542f68L, 0x960fa728L,
                                0xab5133a3L,
                                0x6eef0b6cL, 0x137a3be4L, 0xba3bf050L,
                                0x7efb2a98L,
                                0xa1f1651dL, 0x39af0176L, 0x66ca593eL,
                                0x82430e88L,
                                0x8cee8619L, 0x456f9fb4L, 0x7d84a5c3L,
                                0x3b8b5ebeL,
                                0xe06f75d8L, 0x85c12073L, 0x401a449fL,
                                0x56c16aa6L,
                                0x4ed3aa62L, 0x363f7706L, 0x1bfedf72L,
                                0x429b023dL,
                                0x37d0d724L, 0xd00a1248L, 0xdb0fead3L,
                                0x49f1c09bL,
                                0x075372c9L, 0x80991b7bL, 0x25d479d8L,
                                0xf6e8def7L,
                                0xe3fe501aL, 0xb6794c3bL, 0x976ce0bdL,
                                0x04c006baL,
                                0xc1a94fb6L, 0x409f60c4L, 0x5e5c9ec2L,
                                0x196a2463L,
                                0x68fb6fafL, 0x3e6c53b5L, 0x1339b2ebL,
                                0x3b52ec6fL,
                                0x6dfc511fL, 0x9b30952cL, 0xcc814544L,
                                0xaf5ebd09L,
                                0xbee3d004L, 0xde334afdL, 0x660f2807L,
                                0x192e4bb3L,
                                0xc0cba857L, 0x45c8740fL, 0xd20b5f39L,
                                0xb9d3fbdbL,
                                0x5579c0bdL, 0x1a60320aL, 0xd6a100c6L,
                                0x402c7279L,
                                0x679f25feL, 0xfb1fa3ccL, 0x8ea5e9f8L,
                                0xdb3222f8L,
                                0x3c7516dfL, 0xfd616b15L, 0x2f501ec8L,
                                0xad0552abL,
                                0x323db5faL, 0xfd238760L, 0x53317b48L,
                                0x3e00df82L,
                                0x9e5c57bbL, 0xca6f8ca0L, 0x1a87562eL,
                                0xdf1769dbL,
                                0xd542a8f6L, 0x287effc3L, 0xac6732c6L,
                                0x8c4f5573L,
                                0x695b27b0L, 0xbbca58c8L, 0xe1ffa35dL,
                                0xb8f011a0L,
                                0x10fa3d98L, 0xfd2183b8L, 0x4afcb56cL,
                                0x2dd1d35bL,
                                0x9a53e479L, 0xb6f84565L, 0xd28e49bcL,
                                0x4bfb9790L,
                                0xe1ddf2daL, 0xa4cb7e33L, 0x62fb1341L,
                                0xcee4c6e8L,
                                0xef20cadaL, 0x36774c01L, 0xd07e9efeL,
                                0x2bf11fb4L,
                                0x95dbda4dL, 0xae909198L, 0xeaad8e71L,
                                0x6b93d5a0L,
                                0xd08ed1d0L, 0xafc725e0L, 0x8e3c5b2fL,
                                0x8e7594b7L,
                                0x8ff6e2fbL, 0xf2122b64L, 0x8888b812L,
                                0x900df01cL,
                                0x4fad5ea0L, 0x688fc31cL, 0xd1cff191L,
                                0xb3a8c1adL,
                                0x2f2f2218L, 0xbe0e1777L, 0xea752dfeL,
                                0x8b021fa1L,
                                0xe5a0cc0fL, 0xb56f74e8L, 0x18acf3d6L,
                                0xce89e299L,
                                0xb4a84fe0L, 0xfd13e0b7L, 0x7cc43b81L,
                                0xd2ada8d9L,
                                0x165fa266L, 0x80957705L, 0x93cc7314L,
                                0x211a1477L,
                                0xe6ad2065L, 0x77b5fa86L, 0xc75442f5L,
                                0xfb9d35cfL,
                                0xebcdaf0cL, 0x7b3e89a0L, 0xd6411bd3L,
                                0xae1e7e49L,
                                0x00250e2dL, 0x2071b35eL, 0x226800bbL,
                                0x57b8e0afL,
                                0x2464369bL, 0xf009b91eL, 0x5563911dL,
                                0x59dfa6aaL,
                                0x78c14389L, 0xd95a537fL, 0x207d5ba2L,
                                0x02e5b9c5L,
                                0x83260376L, 0x6295cfa9L, 0x11c81968L,
                                0x4e734a41L,
                                0xb3472dcaL, 0x7b14a94aL, 0x1b510052L,
                                0x9a532915L,
                                0xd60f573fL, 0xbc9bc6e4L, 0x2b60a476L,
                                0x81e67400L,
                                0x08ba6fb5L, 0x571be91fL, 0xf296ec6bL,
                                0x2a0dd915L,
                                0xb6636521L, 0xe7b9f9b6L, 0xff34052eL,
                                0xc5855664L,
                                0x53b02d5dL, 0xa99f8fa1L, 0x08ba4799L,
                                0x6e85076aL,
                                0x4b7a70e9L, 0xb5b32944L, 0xdb75092eL,
                                0xc4192623L,
                                0xad6ea6b0L, 0x49a7df7dL, 0x9cee60b8L,
                                0x8fedb266L,
                                0xecaa8c71L, 0x699a17ffL, 0x5664526cL,
                                0xc2b19ee1L,
                                0x193602a5L, 0x75094c29L, 0xa0591340L,
                                0xe4183a3eL,
                                0x3f54989aL, 0x5b429d65L, 0x6b8fe4d6L,
                                0x99f73fd6L,
                                0xa1d29c07L, 0xefe830f5L, 0x4d2d38e6L,
                                0xf0255dc1L,
                                0x4cdd2086L, 0x8470eb26L, 0x6382e9c6L,
                                0x021ecc5eL,
                                0x09686b3fL, 0x3ebaefc9L, 0x3c971814L,
                                0x6b6a70a1L,
                                0x687f3584L, 0x52a0e286L, 0xb79c5305L,
                                0xaa500737L,
                                0x3e07841cL, 0x7fdeae5cL, 0x8e7d44ecL,
                                0x5716f2b8L,
                                0xb03ada37L, 0xf0500c0dL, 0xf01c1f04L,
                                0x0200b3ffL,
                                0xae0cf51aL, 0x3cb574b2L, 0x25837a58L,
                                0xdc0921bdL,
                                0xd19113f9L, 0x7ca92ff6L, 0x94324773L,
                                0x22f54701L,
                                0x3ae5e581L, 0x37c2dadcL, 0xc8b57634L,
                                0x9af3dda7L,
                                0xa9446146L, 0x0fd0030eL, 0xecc8c73eL,
                                0xa4751e41L,
                                0xe238cd99L, 0x3bea0e2fL, 0x3280bba1L,
                                0x183eb331L,
                                0x4e548b38L, 0x4f6db908L, 0x6f420d03L,
                                0xf60a04bfL,
                                0x2cb81290L, 0x24977c79L, 0x5679b072L,
                                0xbcaf89afL,
                                0xde9a771fL, 0xd9930810L, 0xb38bae12L,
                                0xdccf3f2eL,
                                0x5512721fL, 0x2e6b7124L, 0x501adde6L,
                                0x9f84cd87L,
                                0x7a584718L, 0x7408da17L, 0xbc9f9abcL,
                                0xe94b7d8cL,
                                0xec7aec3aL, 0xdb851dfaL, 0x63094366L,
                                0xc464c3d2L,
                                0xef1c1847L, 0x3215d908L, 0xdd433b37L,
                                0x24c2ba16L,
                                0x12a14d43L, 0x2a65c451L, 0x50940002L,
                                0x133ae4ddL,
                                0x71dff89eL, 0x10314e55L, 0x81ac77d6L,
                                0x5f11199bL,
                                0x043556f1L, 0xd7a3c76bL, 0x3c11183bL,
                                0x5924a509L,
                                0xf28fe6edL, 0x97f1fbfaL, 0x9ebabf2cL,
                                0x1e153c6eL,
                                0x86e34570L, 0xeae96fb1L, 0x860e5e0aL,
                                0x5a3e2ab3L,
                                0x771fe71cL, 0x4e3d06faL, 0x2965dcb9L,
                                0x99e71d0fL,
                                0x803e89d6L, 0x5266c825L, 0x2e4cc978L,
                                0x9c10b36aL,
                                0xc6150ebaL, 0x94e2ea78L, 0xa5fc3c53L,
                                0x1e0a2df4L,
                                0xf2f74ea7L, 0x361d2b3dL, 0x1939260fL,
                                0x19c27960L,
                                0x5223a708L, 0xf71312b6L, 0xebadfe6eL,
                                0xeac31f66L,
                                0xe3bc4595L, 0xa67bc883L, 0xb17f37d1L,
                                0x018cff28L,
                                0xc332ddefL, 0xbe6c5aa5L, 0x65582185L,
                                0x68ab9802L,
                                0xeecea50fL, 0xdb2f953bL, 0x2aef7dadL,
                                0x5b6e2f84L,
                                0x1521b628L, 0x29076170L, 0xecdd4775L,
                                0x619f1510L,
                                0x13cca830L, 0xeb61bd96L, 0x0334fe1eL,
                                0xaa0363cfL,
                                0xb5735c90L, 0x4c70a239L, 0xd59e9e0bL,
                                0xcbaade14L,
                                0xeecc86bcL, 0x60622ca7L, 0x9cab5cabL,
                                0xb2f3846eL,
                                0x648b1eafL, 0x19bdf0caL, 0xa02369b9L,
                                0x655abb50L,
                                0x40685a32L, 0x3c2ab4b3L, 0x319ee9d5L,
                                0xc021b8f7L,
                                0x9b540b19L, 0x875fa099L, 0x95f7997eL,
                                0x623d7da8L,
                                0xf837889aL, 0x97e32d77L, 0x11ed935fL,
                                0x16681281L,
                                0x0e358829L, 0xc7e61fd6L, 0x96dedfa1L,
                                0x7858ba99L,
                                0x57f584a5L, 0x1b227263L, 0x9b83c3ffL,
                                0x1ac24696L,
                                0xcdb30aebL, 0x532e3054L, 0x8fd948e4L,
                                0x6dbc3128L,
                                0x58ebf2efL, 0x34c6ffeaL, 0xfe28ed61L,
                                0xee7c3c73L,
                                0x5d4a14d9L, 0xe864b7e3L, 0x42105d14L,
                                0x203e13e0L,
                                0x45eee2b6L, 0xa3aaabeaL, 0xdb6c4f15L,
                                0xfacb4fd0L,
                                0xc742f442L, 0xef6abbb5L, 0x654f3b1dL,
                                0x41cd2105L,
                                0xd81e799eL, 0x86854dc7L, 0xe44b476aL,
                                0x3d816250L,
                                0xcf62a1f2L, 0x5b8d2646L, 0xfc8883a0L,
                                0xc1c7b6a3L,
                                0x7f1524c3L, 0x69cb7492L, 0x47848a0bL,
                                0x5692b285L,
                                0x095bbf00L, 0xad19489dL, 0x1462b174L,
                                0x23820e00L,
                                0x58428d2aL, 0x0c55f5eaL, 0x1dadf43eL,
                                0x233f7061L,
                                0x3372f092L, 0x8d937e41L, 0xd65fecf1L,
                                0x6c223bdbL,
                                0x7cde3759L, 0xcbee7460L, 0x4085f2a7L,
                                0xce77326eL,
                                0xa6078084L, 0x19f8509eL, 0xe8efd855L,
                                0x61d99735L,
                                0xa969a7aaL, 0xc50c06c2L, 0x5a04abfcL,
                                0x800bcadcL,
                                0x9e447a2eL, 0xc3453484L, 0xfdd56705L,
                                0x0e1e9ec9L,
                                0xdb73dbd3L, 0x105588cdL, 0x675fda79L,
                                0xe3674340L,
                                0xc5c43465L, 0x713e38d8L, 0x3d28f89eL,
                                0xf16dff20L,
                                0x153e21e7L, 0x8fb03d4aL, 0xe6e39f2bL,
                                0xdb83adf7L,
                                0xe93d5a68L, 0x948140f7L, 0xf64c261cL,
                                0x94692934L,
                                0x411520f7L, 0x7602d4f7L, 0xbcf46b2eL,
                                0xd4a20068L,
                                0xd4082471L, 0x3320f46aL, 0x43b7d4b7L,
                                0x500061afL,
                                0x1e39f62eL, 0x97244546L, 0x14214f74L,
                                0xbf8b8840L,
                                0x4d95fc1dL, 0x96b591afL, 0x70f4ddd3L,
                                0x66a02f45L,
                                0xbfbc09ecL, 0x03bd9785L, 0x7fac6dd0L,
                                0x31cb8504L,
                                0x96eb27b3L, 0x55fd3941L, 0xda2547e6L,
                                0xabca0a9aL,
                                0x28507825L, 0x530429f4L, 0x0a2c86daL,
                                0xe9b66dfbL,
                                0x68dc1462L, 0xd7486900L, 0x680ec0a4L,
                                0x27a18deeL,
                                0x4f3ffea2L, 0xe887ad8cL, 0xb58ce006L,
                                0x7af4d6b6L,
                                0xaace1e7cL, 0xd3375fecL, 0xce78a399L,
                                0x406b2a42L,
                                0x20fe9e35L, 0xd9f385b9L, 0xee39d7abL,
                                0x3b124e8bL,
                                0x1dc9faf7L, 0x4b6d1856L, 0x26a36631L,
                                0xeae397b2L,
                                0x3a6efa74L, 0xdd5b4332L, 0x6841e7f7L,
                                0xca7820fbL,
                                0xfb0af54eL, 0xd8feb397L, 0x454056acL,
                                0xba489527L,
                                0x55533a3aL, 0x20838d87L, 0xfe6ba9b7L,
                                0xd096954bL,
                                0x55a867bcL, 0xa1159a58L, 0xcca92963L,
                                0x99e1db33L,
                                0xa62a4a56L, 0x3f3125f9L, 0x5ef47e1cL,
                                0x9029317cL,
                                0xfdf8e802L, 0x04272f70L, 0x80bb155cL,
                                0x05282ce3L,
                                0x95c11548L, 0xe4c66d22L, 0x48c1133fL,
                                0xc70f86dcL,
                                0x07f9c9eeL, 0x41041f0fL, 0x404779a4L,
                                0x5d886e17L,
                                0x325f51ebL, 0xd59bc0d1L, 0xf2bcc18fL,
                                0x41113564L,
                                0x257b7834L, 0x602a9c60L, 0xdff8e8a3L,
                                0x1f636c1bL,
                                0x0e12b4c2L, 0x02e1329eL, 0xaf664fd1L,
                                0xcad18115L,
                                0x6b2395e0L, 0x333e92e1L, 0x3b240b62L,
                                0xeebeb922L,
                                0x85b2a20eL, 0xe6ba0d99L, 0xde720c8cL,
                                0x2da2f728L,
                                0xd0127845L, 0x95b794fdL, 0x647d0862L,
                                0xe7ccf5f0L,
                                0x5449a36fL, 0x877d48faL, 0xc39dfd27L,
                                0xf33e8d1eL,
                                0x0a476341L, 0x992eff74L, 0x3a6f6eabL,
                                0xf4f8fd37L,
                                0xa812dc60L, 0xa1ebddf8L, 0x991be14cL,
                                0xdb6e6b0dL,
                                0xc67b5510L, 0x6d672c37L, 0x2765d43bL,
                                0xdcd0e804L,
                                0xf1290dc7L, 0xcc00ffa3L, 0xb5390f92L,
                                0x690fed0bL,
                                0x667b9ffbL, 0xcedb7d9cL, 0xa091cf0bL,
                                0xd9155ea3L,
                                0xbb132f88L, 0x515bad24L, 0x7b9479bfL,
                                0x763bd6ebL,
                                0x37392eb3L, 0xcc115979L, 0x8026e297L,
                                0xf42e312dL,
                                0x6842ada7L, 0xc66a2b3bL, 0x12754cccL,
                                0x782ef11cL,
                                0x6a124237L, 0xb79251e7L, 0x06a1bbe6L,
                                0x4bfb6350L,
                                0x1a6b1018L, 0x11caedfaL, 0x3d25bdd8L,
                                0xe2e1c3c9L,
                                0x44421659L, 0x0a121386L, 0xd90cec6eL,
                                0xd5abea2aL,
                                0x64af674eL, 0xda86a85fL, 0xbebfe988L,
                                0x64e4c3feL,
                                0x9dbc8057L, 0xf0f7c086L, 0x60787bf8L,
                                0x6003604dL,
                                0xd1fd8346L, 0xf6381fb0L, 0x7745ae04L,
                                0xd736fcccL,
                                0x83426b33L, 0xf01eab71L, 0xb0804187L,
                                0x3c005e5fL,
                                0x77a057beL, 0xbde8ae24L, 0x55464299L,
                                0xbf582e61L,
                                0x4e58f48fL, 0xf2ddfda2L, 0xf474ef38L,
                                0x8789bdc2L,
                                0x5366f9c3L, 0xc8b38e74L, 0xb475f255L,
                                0x46fcd9b9L,
                                0x7aeb2661L, 0x8b1ddf84L, 0x846a0e79L,
                                0x915f95e2L,
                                0x466e598eL, 0x20b45770L, 0x8cd55591L,
                                0xc902de4cL,
                                0xb90bace1L, 0xbb8205d0L, 0x11a86248L,
                                0x7574a99eL,
                                0xb77f19b6L, 0xe0a9dc09L, 0x662d09a1L,
                                0xc4324633L,
                                0xe85a1f02L, 0x09f0be8cL, 0x4a99a025L,
                                0x1d6efe10L,
                                0x1ab93d1dL, 0x0ba5a4dfL, 0xa186f20fL,
                                0x2868f169L,
                                0xdcb7da83L, 0x573906feL, 0xa1e2ce9bL,
                                0x4fcd7f52L,
                                0x50115e01L, 0xa70683faL, 0xa002b5c4L,
                                0x0de6d027L,
                                0x9af88c27L, 0x773f8641L, 0xc3604c06L,
                                0x61a806b5L,
                                0xf0177a28L, 0xc0f586e0L, 0x006058aaL,
                                0x30dc7d62L,
                                0x11e69ed7L, 0x2338ea63L, 0x53c2dd94L,
                                0xc2c21634L,
                                0xbbcbee56L, 0x90bcb6deL, 0xebfc7da1L,
                                0xce591d76L,
                                0x6f05e409L, 0x4b7c0188L, 0x39720a3dL,
                                0x7c927c24L,
                                0x86e3725fL, 0x724d9db9L, 0x1ac15bb4L,
                                0xd39eb8fcL,
                                0xed545578L, 0x08fca5b5L, 0xd83d7cd3L,
                                0x4dad0fc4L,
                                0x1e50ef5eL, 0xb161e6f8L, 0xa28514d9L,
                                0x6c51133cL,
                                0x6fd5c7e7L, 0x56e14ec4L, 0x362abfceL,
                                0xddc6c837L,
                                0xd79a3234L, 0x92638212L, 0x670efa8eL,
                                0x406000e0L,
                                0x3a39ce37L, 0xd3faf5cfL, 0xabc27737L,
                                0x5ac52d1bL,
                                0x5cb0679eL, 0x4fa33742L, 0xd3822740L,
                                0x99bc9bbeL,
                                0xd5118e9dL, 0xbf0f7315L, 0xd62d1c7eL,
                                0xc700c47bL,
                                0xb78c1b6bL, 0x21a19045L, 0xb26eb1beL,
                                0x6a366eb4L,
                                0x5748ab2fL, 0xbc946e79L, 0xc6a376d2L,
                                0x6549c2c8L,
                                0x530ff8eeL, 0x468dde7dL, 0xd5730a1dL,
                                0x4cd04dc6L,
                                0x2939bbdbL, 0xa9ba4650L, 0xac9526e8L,
                                0xbe5ee304L,
                                0xa1fad5f0L, 0x6a2d519aL, 0x63ef8ce2L,
                                0x9a86ee22L,
                                0xc089c2b8L, 0x43242ef6L, 0xa51e03aaL,
                                0x9cf2d0a4L,
                                0x83c061baL, 0x9be96a4dL, 0x8fe51550L,
                                0xba645bd6L,
                                0x2826a2f9L, 0xa73a3ae1L, 0x4ba99586L,
                                0xef5562e9L,
                                0xc72fefd3L, 0xf752f7daL, 0x3f046f69L,
                                0x77fa0a59L,
                                0x80e4a915L, 0x87b08601L, 0x9b09e6adL,
                                0x3b3ee593L,
                                0xe990fd5aL, 0x9e34d797L, 0x2cf0b7d9L,
                                0x022b8b51L,
                                0x96d5ac3aL, 0x017da67dL, 0xd1cf3ed6L,
                                0x7c7d2d28L,
                                0x1f9f25cfL, 0xadf2b89bL, 0x5ad6b472L,
                                0x5a88f54cL,
                                0xe029ac71L, 0xe019a5e6L, 0x47b0acfdL,
                                0xed93fa9bL,
                                0xe8d3c48dL, 0x283b57ccL, 0xf8d56629L,
                                0x79132e28L,
                                0x785f0191L, 0xed756055L, 0xf7960e44L,
                                0xe3d35e8cL,
                                0x15056dd4L, 0x88f46dbaL, 0x03a16125L,
                                0x0564f0bdL,
                                0xc3eb9e15L, 0x3c9057a2L, 0x97271aecL,
                                0xa93a072aL,
                                0x1b3f6d9bL, 0x1e6321f5L, 0xf59c66fbL,
                                0x26dcf319L,
                                0x7533d928L, 0xb155fdf5L, 0x03563482L,
                                0x8aba3cbbL,
                                0x28517711L, 0xc20ad9f8L, 0xabcc5167L,
                                0xccad925fL,
                                0x4de81751L, 0x3830dc8eL, 0x379d5862L,
                                0x9320f991L,
                                0xea7a90c2L, 0xfb3e7bceL, 0x5121ce64L,
                                0x774fbe32L,
                                0xa8b6e37eL, 0xc3293d46L, 0x48de5369L,
                                0x6413e680L,
                                0xa2ae0810L, 0xdd6db224L, 0x69852dfdL,
                                0x09072166L,
                                0xb39a460aL, 0x6445c0ddL, 0x586cdecfL,
                                0x1c20c8aeL,
                                0x5bbef7ddL, 0x1b588d40L, 0xccd2017fL,
                                0x6bb4e3bbL,
                                0xdda26a7eL, 0x3a59ff45L, 0x3e350a44L,
                                0xbcb4cdd5L,
                                0x72eacea8L, 0xfa6484bbL, 0x8d6612aeL,
                                0xbf3c6f47L,
                                0xd29be463L, 0x542f5d9eL, 0xaec2771bL,
                                0xf64e6370L,
                                0x740e0d8dL, 0xe75b1357L, 0xf8721671L,
                                0xaf537d5dL,
                                0x4040cb08L, 0x4eb4e2ccL, 0x34d2466aL,
                                0x0115af84L,
                                0xe1b00428L, 0x95983a1dL, 0x06b89fb4L,
                                0xce6ea048L,
                                0x6f3f3b82L, 0x3520ab82L, 0x011a1d4bL,
                                0x277227f8L,
                                0x611560b1L, 0xe7933fdcL, 0xbb3a792bL,
                                0x344525bdL,
                                0xa08839e1L, 0x51ce794bL, 0x2f32c9b7L,
                                0xa01fbac9L,
                                0xe01cc87eL, 0xbcc7d1f6L, 0xcf0111c3L,
                                0xa1e8aac7L,
                                0x1a908749L, 0xd44fbd9aL, 0xd0dadecbL,
                                0xd50ada38L,
                                0x0339c32aL, 0xc6913667L, 0x8df9317cL,
                                0xe0b12b4fL,
                                0xf79e59b7L, 0x43f5bb3aL, 0xf2d519ffL,
                                0x27d9459cL,
                                0xbf97222cL, 0x15e6fc2aL, 0x0f91fc71L,
                                0x9b941525L,
                                0xfae59361L, 0xceb69cebL, 0xc2a86459L,
                                0x12baa8d1L,
                                0xb6c1075eL, 0xe3056a0cL, 0x10d25065L,
                                0xcb03a442L,
                                0xe0ec6e0eL, 0x1698db3bL, 0x4c98a0beL,
                                0x3278e964L,
                                0x9f1f9532L, 0xe0d392dfL, 0xd3a0342bL,
                                0x8971f21eL,
                                0x1b0a7441L, 0x4ba3348cL, 0xc5be7120L,
                                0xc37632d8L,
                                0xdf359f8dL, 0x9b992f2eL, 0xe60b6f47L,
                                0x0fe3f11dL,
                                0xe54cda54L, 0x1edad891L, 0xce6279cfL,
                                0xcd3e7e6fL,
                                0x1618b166L, 0xfd2c1d05L, 0x848fd2c5L,
                                0xf6fb2299L,
                                0xf523f357L, 0xa6327623L, 0x93a83531L,
                                0x56cccd02L,
                                0xacf08162L, 0x5a75ebb5L, 0x6e163697L,
                                0x88d273ccL,
                                0xde966292L, 0x81b949d0L, 0x4c50901bL,
                                0x71c65614L,
                                0xe6c6c7bdL, 0x327a140aL, 0x45e1d006L,
                                0xc3f27b9aL,
                                0xc9aa53fdL, 0x62a80f00L, 0xbb25bfe2L,
                                0x35bdd2f6L,
                                0x71126905L, 0xb2040222L, 0xb6cbcf7cL,
                                0xcd769c2bL,
                                0x53113ec0L, 0x1640e3d3L, 0x38abbd60L,
                                0x2547adf0L,
                                0xba38209cL, 0xf746ce76L, 0x77afa1c5L,
                                0x20756060L,
                                0x85cbfe4eL, 0x8ae88dd8L, 0x7aaaf9b0L,
                                0x4cf9aa7eL,
                                0x1948c25cL, 0x02fb8a8cL, 0x01c36ae4L,
                                0xd6ebe1f9L,
                                0x90d4f869L, 0xa65cdea0L, 0x3f09252dL,
                                0xc208e69fL,
                                0xb74e6132L, 0xce77e25bL, 0x578fdfe3L,
                                0x3ac372e6L,
                                }
};
# 15 "../deps/openssl/openssl/crypto/bf/bf_skey.c" 2

void BF_set_key(BF_KEY *key, int len, const unsigned char *data)
{
    int i;
    unsigned int *p, ri, in[2];
    const unsigned char *d, *end;

    memcpy(key, &bf_init, sizeof(BF_KEY));
    p = key->P;

    if (len > ((16 + 2) * 4))
        len = (16 + 2) * 4;

    d = data;
    end = &(data[len]);
    for (i = 0; i < (16 + 2); i++) {
        ri = *(d++);
        if (d >= end)
            d = data;

        ri <<= 8;
        ri |= *(d++);
        if (d >= end)
            d = data;

        ri <<= 8;
        ri |= *(d++);
        if (d >= end)
            d = data;

        ri <<= 8;
        ri |= *(d++);
        if (d >= end)
            d = data;

        p[i] ^= ri;
    }

    in[0] = 0L;
    in[1] = 0L;
    for (i = 0; i < (16 + 2); i += 2) {
        BF_encrypt(in, key);
        p[i] = in[0];
        p[i + 1] = in[1];
    }

    p = key->S;
    for (i = 0; i < 4 * 256; i += 2) {
        BF_encrypt(in, key);
        p[i] = in[0];
        p[i + 1] = in[1];
    }
}
