# 1 "../deps/zlib/compress.c"
# 1 "<built-in>"
# 1 "<command-line>"
# 1 "/usr/include/stdc-predef.h" 1 3 4
# 1 "<command-line>" 2
# 1 "../deps/zlib/compress.c"
# 9 "../deps/zlib/compress.c"
# 1 "../deps/zlib/zlib.h" 1
# 34 "../deps/zlib/zlib.h"
# 1 "../deps/zlib/zconf.h" 1
# 259 "../deps/zlib/zconf.h"
# 1 "/usr/lib/gcc/x86_64-linux-gnu/9/include/stddef.h" 1 3 4
# 143 "/usr/lib/gcc/x86_64-linux-gnu/9/include/stddef.h" 3 4

# 143 "/usr/lib/gcc/x86_64-linux-gnu/9/include/stddef.h" 3 4
typedef long int ptrdiff_t;
# 209 "/usr/lib/gcc/x86_64-linux-gnu/9/include/stddef.h" 3 4
typedef long unsigned int size_t;
# 321 "/usr/lib/gcc/x86_64-linux-gnu/9/include/stddef.h" 3 4
typedef int wchar_t;
# 415 "/usr/lib/gcc/x86_64-linux-gnu/9/include/stddef.h" 3 4
typedef struct {
  long long __max_align_ll __attribute__((__aligned__(__alignof__(long long))));
  long double __max_align_ld __attribute__((__aligned__(__alignof__(long double))));
# 426 "/usr/lib/gcc/x86_64-linux-gnu/9/include/stddef.h" 3 4
} max_align_t;
# 260 "../deps/zlib/zconf.h" 2
     
# 260 "../deps/zlib/zconf.h"
    typedef size_t z_size_t;
# 406 "../deps/zlib/zconf.h"
typedef unsigned char Byte;

typedef unsigned int uInt;
typedef unsigned long uLong;





   typedef Byte Bytef;

typedef char charf;
typedef int intf;
typedef uInt uIntf;
typedef uLong uLongf;


   typedef void const *voidpc;
   typedef void *voidpf;
   typedef void *voidp;







# 1 "/usr/lib/gcc/x86_64-linux-gnu/9/include/limits.h" 1 3 4
# 34 "/usr/lib/gcc/x86_64-linux-gnu/9/include/limits.h" 3 4
# 1 "/usr/lib/gcc/x86_64-linux-gnu/9/include/syslimits.h" 1 3 4






# 1 "/usr/lib/gcc/x86_64-linux-gnu/9/include/limits.h" 1 3 4
# 194 "/usr/lib/gcc/x86_64-linux-gnu/9/include/limits.h" 3 4
# 1 "/usr/include/limits.h" 1 3 4
# 26 "/usr/include/limits.h" 3 4
# 1 "/usr/include/x86_64-linux-gnu/bits/libc-header-start.h" 1 3 4
# 33 "/usr/include/x86_64-linux-gnu/bits/libc-header-start.h" 3 4
# 1 "/usr/include/features.h" 1 3 4
# 461 "/usr/include/features.h" 3 4
# 1 "/usr/include/x86_64-linux-gnu/sys/cdefs.h" 1 3 4
# 452 "/usr/include/x86_64-linux-gnu/sys/cdefs.h" 3 4
# 1 "/usr/include/x86_64-linux-gnu/bits/wordsize.h" 1 3 4
# 453 "/usr/include/x86_64-linux-gnu/sys/cdefs.h" 2 3 4
# 1 "/usr/include/x86_64-linux-gnu/bits/long-double.h" 1 3 4
# 454 "/usr/include/x86_64-linux-gnu/sys/cdefs.h" 2 3 4
# 462 "/usr/include/features.h" 2 3 4
# 485 "/usr/include/features.h" 3 4
# 1 "/usr/include/x86_64-linux-gnu/gnu/stubs.h" 1 3 4
# 10 "/usr/include/x86_64-linux-gnu/gnu/stubs.h" 3 4
# 1 "/usr/include/x86_64-linux-gnu/gnu/stubs-64.h" 1 3 4
# 11 "/usr/include/x86_64-linux-gnu/gnu/stubs.h" 2 3 4
# 486 "/usr/include/features.h" 2 3 4
# 34 "/usr/include/x86_64-linux-gnu/bits/libc-header-start.h" 2 3 4
# 27 "/usr/include/limits.h" 2 3 4
# 183 "/usr/include/limits.h" 3 4
# 1 "/usr/include/x86_64-linux-gnu/bits/posix1_lim.h" 1 3 4
# 27 "/usr/include/x86_64-linux-gnu/bits/posix1_lim.h" 3 4
# 1 "/usr/include/x86_64-linux-gnu/bits/wordsize.h" 1 3 4
# 28 "/usr/include/x86_64-linux-gnu/bits/posix1_lim.h" 2 3 4
# 161 "/usr/include/x86_64-linux-gnu/bits/posix1_lim.h" 3 4
# 1 "/usr/include/x86_64-linux-gnu/bits/local_lim.h" 1 3 4
# 38 "/usr/include/x86_64-linux-gnu/bits/local_lim.h" 3 4
# 1 "/usr/include/linux/limits.h" 1 3 4
# 39 "/usr/include/x86_64-linux-gnu/bits/local_lim.h" 2 3 4
# 162 "/usr/include/x86_64-linux-gnu/bits/posix1_lim.h" 2 3 4
# 184 "/usr/include/limits.h" 2 3 4



# 1 "/usr/include/x86_64-linux-gnu/bits/posix2_lim.h" 1 3 4
# 188 "/usr/include/limits.h" 2 3 4
# 195 "/usr/lib/gcc/x86_64-linux-gnu/9/include/limits.h" 2 3 4
# 8 "/usr/lib/gcc/x86_64-linux-gnu/9/include/syslimits.h" 2 3 4
# 35 "/usr/lib/gcc/x86_64-linux-gnu/9/include/limits.h" 2 3 4
# 434 "../deps/zlib/zconf.h" 2
# 444 "../deps/zlib/zconf.h"
   typedef unsigned z_crc_t;
# 459 "../deps/zlib/zconf.h"
# 1 "/usr/include/x86_64-linux-gnu/sys/types.h" 1 3 4
# 27 "/usr/include/x86_64-linux-gnu/sys/types.h" 3 4


# 1 "/usr/include/x86_64-linux-gnu/bits/types.h" 1 3 4
# 27 "/usr/include/x86_64-linux-gnu/bits/types.h" 3 4
# 1 "/usr/include/x86_64-linux-gnu/bits/wordsize.h" 1 3 4
# 28 "/usr/include/x86_64-linux-gnu/bits/types.h" 2 3 4
# 1 "/usr/include/x86_64-linux-gnu/bits/timesize.h" 1 3 4
# 29 "/usr/include/x86_64-linux-gnu/bits/types.h" 2 3 4



# 31 "/usr/include/x86_64-linux-gnu/bits/types.h" 3 4
typedef unsigned char __u_char;
typedef unsigned short int __u_short;
typedef unsigned int __u_int;
typedef unsigned long int __u_long;


typedef signed char __int8_t;
typedef unsigned char __uint8_t;
typedef signed short int __int16_t;
typedef unsigned short int __uint16_t;
typedef signed int __int32_t;
typedef unsigned int __uint32_t;

typedef signed long int __int64_t;
typedef unsigned long int __uint64_t;






typedef __int8_t __int_least8_t;
typedef __uint8_t __uint_least8_t;
typedef __int16_t __int_least16_t;
typedef __uint16_t __uint_least16_t;
typedef __int32_t __int_least32_t;
typedef __uint32_t __uint_least32_t;
typedef __int64_t __int_least64_t;
typedef __uint64_t __uint_least64_t;



typedef long int __quad_t;
typedef unsigned long int __u_quad_t;







typedef long int __intmax_t;
typedef unsigned long int __uintmax_t;
# 141 "/usr/include/x86_64-linux-gnu/bits/types.h" 3 4
# 1 "/usr/include/x86_64-linux-gnu/bits/typesizes.h" 1 3 4
# 142 "/usr/include/x86_64-linux-gnu/bits/types.h" 2 3 4
# 1 "/usr/include/x86_64-linux-gnu/bits/time64.h" 1 3 4
# 143 "/usr/include/x86_64-linux-gnu/bits/types.h" 2 3 4


typedef unsigned long int __dev_t;
typedef unsigned int __uid_t;
typedef unsigned int __gid_t;
typedef unsigned long int __ino_t;
typedef unsigned long int __ino64_t;
typedef unsigned int __mode_t;
typedef unsigned long int __nlink_t;
typedef long int __off_t;
typedef long int __off64_t;
typedef int __pid_t;
typedef struct { int __val[2]; } __fsid_t;
typedef long int __clock_t;
typedef unsigned long int __rlim_t;
typedef unsigned long int __rlim64_t;
typedef unsigned int __id_t;
typedef long int __time_t;
typedef unsigned int __useconds_t;
typedef long int __suseconds_t;

typedef int __daddr_t;
typedef int __key_t;


typedef int __clockid_t;


typedef void * __timer_t;


typedef long int __blksize_t;




typedef long int __blkcnt_t;
typedef long int __blkcnt64_t;


typedef unsigned long int __fsblkcnt_t;
typedef unsigned long int __fsblkcnt64_t;


typedef unsigned long int __fsfilcnt_t;
typedef unsigned long int __fsfilcnt64_t;


typedef long int __fsword_t;

typedef long int __ssize_t;


typedef long int __syscall_slong_t;

typedef unsigned long int __syscall_ulong_t;



typedef __off64_t __loff_t;
typedef char *__caddr_t;


typedef long int __intptr_t;


typedef unsigned int __socklen_t;




typedef int __sig_atomic_t;
# 30 "/usr/include/x86_64-linux-gnu/sys/types.h" 2 3 4



typedef __u_char u_char;
typedef __u_short u_short;
typedef __u_int u_int;
typedef __u_long u_long;
typedef __quad_t quad_t;
typedef __u_quad_t u_quad_t;
typedef __fsid_t fsid_t;


typedef __loff_t loff_t;




typedef __ino_t ino_t;
# 59 "/usr/include/x86_64-linux-gnu/sys/types.h" 3 4
typedef __dev_t dev_t;




typedef __gid_t gid_t;




typedef __mode_t mode_t;




typedef __nlink_t nlink_t;




typedef __uid_t uid_t;





typedef __off_t off_t;
# 97 "/usr/include/x86_64-linux-gnu/sys/types.h" 3 4
typedef __pid_t pid_t;





typedef __id_t id_t;




typedef __ssize_t ssize_t;





typedef __daddr_t daddr_t;
typedef __caddr_t caddr_t;





typedef __key_t key_t;




# 1 "/usr/include/x86_64-linux-gnu/bits/types/clock_t.h" 1 3 4






typedef __clock_t clock_t;
# 127 "/usr/include/x86_64-linux-gnu/sys/types.h" 2 3 4

# 1 "/usr/include/x86_64-linux-gnu/bits/types/clockid_t.h" 1 3 4






typedef __clockid_t clockid_t;
# 129 "/usr/include/x86_64-linux-gnu/sys/types.h" 2 3 4
# 1 "/usr/include/x86_64-linux-gnu/bits/types/time_t.h" 1 3 4






typedef __time_t time_t;
# 130 "/usr/include/x86_64-linux-gnu/sys/types.h" 2 3 4
# 1 "/usr/include/x86_64-linux-gnu/bits/types/timer_t.h" 1 3 4






typedef __timer_t timer_t;
# 131 "/usr/include/x86_64-linux-gnu/sys/types.h" 2 3 4
# 144 "/usr/include/x86_64-linux-gnu/sys/types.h" 3 4
# 1 "/usr/lib/gcc/x86_64-linux-gnu/9/include/stddef.h" 1 3 4
# 145 "/usr/include/x86_64-linux-gnu/sys/types.h" 2 3 4



typedef unsigned long int ulong;
typedef unsigned short int ushort;
typedef unsigned int uint;




# 1 "/usr/include/x86_64-linux-gnu/bits/stdint-intn.h" 1 3 4
# 24 "/usr/include/x86_64-linux-gnu/bits/stdint-intn.h" 3 4
typedef __int8_t int8_t;
typedef __int16_t int16_t;
typedef __int32_t int32_t;
typedef __int64_t int64_t;
# 156 "/usr/include/x86_64-linux-gnu/sys/types.h" 2 3 4


typedef __uint8_t u_int8_t;
typedef __uint16_t u_int16_t;
typedef __uint32_t u_int32_t;
typedef __uint64_t u_int64_t;


typedef int register_t __attribute__ ((__mode__ (__word__)));
# 176 "/usr/include/x86_64-linux-gnu/sys/types.h" 3 4
# 1 "/usr/include/endian.h" 1 3 4
# 24 "/usr/include/endian.h" 3 4
# 1 "/usr/include/x86_64-linux-gnu/bits/endian.h" 1 3 4
# 35 "/usr/include/x86_64-linux-gnu/bits/endian.h" 3 4
# 1 "/usr/include/x86_64-linux-gnu/bits/endianness.h" 1 3 4
# 36 "/usr/include/x86_64-linux-gnu/bits/endian.h" 2 3 4
# 25 "/usr/include/endian.h" 2 3 4
# 35 "/usr/include/endian.h" 3 4
# 1 "/usr/include/x86_64-linux-gnu/bits/byteswap.h" 1 3 4
# 33 "/usr/include/x86_64-linux-gnu/bits/byteswap.h" 3 4
static __inline __uint16_t
__bswap_16 (__uint16_t __bsx)
{

  return __builtin_bswap16 (__bsx);



}






static __inline __uint32_t
__bswap_32 (__uint32_t __bsx)
{

  return __builtin_bswap32 (__bsx);



}
# 69 "/usr/include/x86_64-linux-gnu/bits/byteswap.h" 3 4
__extension__ static __inline __uint64_t
__bswap_64 (__uint64_t __bsx)
{

  return __builtin_bswap64 (__bsx);



}
# 36 "/usr/include/endian.h" 2 3 4
# 1 "/usr/include/x86_64-linux-gnu/bits/uintn-identity.h" 1 3 4
# 32 "/usr/include/x86_64-linux-gnu/bits/uintn-identity.h" 3 4
static __inline __uint16_t
__uint16_identity (__uint16_t __x)
{
  return __x;
}

static __inline __uint32_t
__uint32_identity (__uint32_t __x)
{
  return __x;
}

static __inline __uint64_t
__uint64_identity (__uint64_t __x)
{
  return __x;
}
# 37 "/usr/include/endian.h" 2 3 4
# 177 "/usr/include/x86_64-linux-gnu/sys/types.h" 2 3 4


# 1 "/usr/include/x86_64-linux-gnu/sys/select.h" 1 3 4
# 30 "/usr/include/x86_64-linux-gnu/sys/select.h" 3 4
# 1 "/usr/include/x86_64-linux-gnu/bits/select.h" 1 3 4
# 22 "/usr/include/x86_64-linux-gnu/bits/select.h" 3 4
# 1 "/usr/include/x86_64-linux-gnu/bits/wordsize.h" 1 3 4
# 23 "/usr/include/x86_64-linux-gnu/bits/select.h" 2 3 4
# 31 "/usr/include/x86_64-linux-gnu/sys/select.h" 2 3 4


# 1 "/usr/include/x86_64-linux-gnu/bits/types/sigset_t.h" 1 3 4



# 1 "/usr/include/x86_64-linux-gnu/bits/types/__sigset_t.h" 1 3 4




typedef struct
{
  unsigned long int __val[(1024 / (8 * sizeof (unsigned long int)))];
} __sigset_t;
# 5 "/usr/include/x86_64-linux-gnu/bits/types/sigset_t.h" 2 3 4


typedef __sigset_t sigset_t;
# 34 "/usr/include/x86_64-linux-gnu/sys/select.h" 2 3 4



# 1 "/usr/include/x86_64-linux-gnu/bits/types/struct_timeval.h" 1 3 4







struct timeval
{
  __time_t tv_sec;
  __suseconds_t tv_usec;
};
# 38 "/usr/include/x86_64-linux-gnu/sys/select.h" 2 3 4

# 1 "/usr/include/x86_64-linux-gnu/bits/types/struct_timespec.h" 1 3 4
# 10 "/usr/include/x86_64-linux-gnu/bits/types/struct_timespec.h" 3 4
struct timespec
{
  __time_t tv_sec;



  __syscall_slong_t tv_nsec;
# 26 "/usr/include/x86_64-linux-gnu/bits/types/struct_timespec.h" 3 4
};
# 40 "/usr/include/x86_64-linux-gnu/sys/select.h" 2 3 4



typedef __suseconds_t suseconds_t;





typedef long int __fd_mask;
# 59 "/usr/include/x86_64-linux-gnu/sys/select.h" 3 4
typedef struct
  {






    __fd_mask __fds_bits[1024 / (8 * (int) sizeof (__fd_mask))];


  } fd_set;






typedef __fd_mask fd_mask;
# 91 "/usr/include/x86_64-linux-gnu/sys/select.h" 3 4

# 101 "/usr/include/x86_64-linux-gnu/sys/select.h" 3 4
extern int select (int __nfds, fd_set *__restrict __readfds,
     fd_set *__restrict __writefds,
     fd_set *__restrict __exceptfds,
     struct timeval *__restrict __timeout);
# 113 "/usr/include/x86_64-linux-gnu/sys/select.h" 3 4
extern int pselect (int __nfds, fd_set *__restrict __readfds,
      fd_set *__restrict __writefds,
      fd_set *__restrict __exceptfds,
      const struct timespec *__restrict __timeout,
      const __sigset_t *__restrict __sigmask);





# 1 "/usr/include/x86_64-linux-gnu/bits/select2.h" 1 3 4
# 24 "/usr/include/x86_64-linux-gnu/bits/select2.h" 3 4
extern long int __fdelt_chk (long int __d);
extern long int __fdelt_warn (long int __d)
  __attribute__((__warning__ ("bit outside of fd_set selected")));
# 124 "/usr/include/x86_64-linux-gnu/sys/select.h" 2 3 4



# 180 "/usr/include/x86_64-linux-gnu/sys/types.h" 2 3 4





typedef __blksize_t blksize_t;






typedef __blkcnt_t blkcnt_t;



typedef __fsblkcnt_t fsblkcnt_t;



typedef __fsfilcnt_t fsfilcnt_t;
# 227 "/usr/include/x86_64-linux-gnu/sys/types.h" 3 4
# 1 "/usr/include/x86_64-linux-gnu/bits/pthreadtypes.h" 1 3 4
# 23 "/usr/include/x86_64-linux-gnu/bits/pthreadtypes.h" 3 4
# 1 "/usr/include/x86_64-linux-gnu/bits/thread-shared-types.h" 1 3 4
# 44 "/usr/include/x86_64-linux-gnu/bits/thread-shared-types.h" 3 4
# 1 "/usr/include/x86_64-linux-gnu/bits/pthreadtypes-arch.h" 1 3 4
# 21 "/usr/include/x86_64-linux-gnu/bits/pthreadtypes-arch.h" 3 4
# 1 "/usr/include/x86_64-linux-gnu/bits/wordsize.h" 1 3 4
# 22 "/usr/include/x86_64-linux-gnu/bits/pthreadtypes-arch.h" 2 3 4
# 45 "/usr/include/x86_64-linux-gnu/bits/thread-shared-types.h" 2 3 4




typedef struct __pthread_internal_list
{
  struct __pthread_internal_list *__prev;
  struct __pthread_internal_list *__next;
} __pthread_list_t;

typedef struct __pthread_internal_slist
{
  struct __pthread_internal_slist *__next;
} __pthread_slist_t;
# 74 "/usr/include/x86_64-linux-gnu/bits/thread-shared-types.h" 3 4
# 1 "/usr/include/x86_64-linux-gnu/bits/struct_mutex.h" 1 3 4
# 22 "/usr/include/x86_64-linux-gnu/bits/struct_mutex.h" 3 4
struct __pthread_mutex_s
{
  int __lock;
  unsigned int __count;
  int __owner;

  unsigned int __nusers;



  int __kind;

  short __spins;
  short __elision;
  __pthread_list_t __list;
# 53 "/usr/include/x86_64-linux-gnu/bits/struct_mutex.h" 3 4
};
# 75 "/usr/include/x86_64-linux-gnu/bits/thread-shared-types.h" 2 3 4
# 87 "/usr/include/x86_64-linux-gnu/bits/thread-shared-types.h" 3 4
# 1 "/usr/include/x86_64-linux-gnu/bits/struct_rwlock.h" 1 3 4
# 23 "/usr/include/x86_64-linux-gnu/bits/struct_rwlock.h" 3 4
struct __pthread_rwlock_arch_t
{
  unsigned int __readers;
  unsigned int __writers;
  unsigned int __wrphase_futex;
  unsigned int __writers_futex;
  unsigned int __pad3;
  unsigned int __pad4;

  int __cur_writer;
  int __shared;
  signed char __rwelision;




  unsigned char __pad1[7];


  unsigned long int __pad2;


  unsigned int __flags;
# 55 "/usr/include/x86_64-linux-gnu/bits/struct_rwlock.h" 3 4
};
# 88 "/usr/include/x86_64-linux-gnu/bits/thread-shared-types.h" 2 3 4




struct __pthread_cond_s
{
  __extension__ union
  {
    __extension__ unsigned long long int __wseq;
    struct
    {
      unsigned int __low;
      unsigned int __high;
    } __wseq32;
  };
  __extension__ union
  {
    __extension__ unsigned long long int __g1_start;
    struct
    {
      unsigned int __low;
      unsigned int __high;
    } __g1_start32;
  };
  unsigned int __g_refs[2] ;
  unsigned int __g_size[2];
  unsigned int __g1_orig_size;
  unsigned int __wrefs;
  unsigned int __g_signals[2];
};
# 24 "/usr/include/x86_64-linux-gnu/bits/pthreadtypes.h" 2 3 4



typedef unsigned long int pthread_t;




typedef union
{
  char __size[4];
  int __align;
} pthread_mutexattr_t;




typedef union
{
  char __size[4];
  int __align;
} pthread_condattr_t;



typedef unsigned int pthread_key_t;



typedef int pthread_once_t;


union pthread_attr_t
{
  char __size[56];
  long int __align;
};

typedef union pthread_attr_t pthread_attr_t;




typedef union
{
  struct __pthread_mutex_s __data;
  char __size[40];
  long int __align;
} pthread_mutex_t;


typedef union
{
  struct __pthread_cond_s __data;
  char __size[48];
  __extension__ long long int __align;
} pthread_cond_t;





typedef union
{
  struct __pthread_rwlock_arch_t __data;
  char __size[56];
  long int __align;
} pthread_rwlock_t;

typedef union
{
  char __size[8];
  long int __align;
} pthread_rwlockattr_t;





typedef volatile int pthread_spinlock_t;




typedef union
{
  char __size[32];
  long int __align;
} pthread_barrier_t;

typedef union
{
  char __size[4];
  int __align;
} pthread_barrierattr_t;
# 228 "/usr/include/x86_64-linux-gnu/sys/types.h" 2 3 4



# 460 "../deps/zlib/zconf.h" 2





# 1 "/usr/lib/gcc/x86_64-linux-gnu/9/include/stdarg.h" 1 3 4
# 40 "/usr/lib/gcc/x86_64-linux-gnu/9/include/stdarg.h" 3 4
typedef __builtin_va_list __gnuc_va_list;
# 99 "/usr/lib/gcc/x86_64-linux-gnu/9/include/stdarg.h" 3 4
typedef __gnuc_va_list va_list;
# 466 "../deps/zlib/zconf.h" 2
# 490 "../deps/zlib/zconf.h"
# 1 "/usr/include/unistd.h" 1 3 4
# 27 "/usr/include/unistd.h" 3 4

# 202 "/usr/include/unistd.h" 3 4
# 1 "/usr/include/x86_64-linux-gnu/bits/posix_opt.h" 1 3 4
# 203 "/usr/include/unistd.h" 2 3 4



# 1 "/usr/include/x86_64-linux-gnu/bits/environments.h" 1 3 4
# 22 "/usr/include/x86_64-linux-gnu/bits/environments.h" 3 4
# 1 "/usr/include/x86_64-linux-gnu/bits/wordsize.h" 1 3 4
# 23 "/usr/include/x86_64-linux-gnu/bits/environments.h" 2 3 4
# 207 "/usr/include/unistd.h" 2 3 4
# 226 "/usr/include/unistd.h" 3 4
# 1 "/usr/lib/gcc/x86_64-linux-gnu/9/include/stddef.h" 1 3 4
# 227 "/usr/include/unistd.h" 2 3 4
# 255 "/usr/include/unistd.h" 3 4
typedef __useconds_t useconds_t;
# 267 "/usr/include/unistd.h" 3 4
typedef __intptr_t intptr_t;






typedef __socklen_t socklen_t;
# 287 "/usr/include/unistd.h" 3 4
extern int access (const char *__name, int __type) __attribute__ ((__nothrow__ , __leaf__)) __attribute__ ((__nonnull__ (1)));
# 304 "/usr/include/unistd.h" 3 4
extern int faccessat (int __fd, const char *__file, int __type, int __flag)
     __attribute__ ((__nothrow__ , __leaf__)) __attribute__ ((__nonnull__ (2))) __attribute__ ((__warn_unused_result__));
# 334 "/usr/include/unistd.h" 3 4
extern __off_t lseek (int __fd, __off_t __offset, int __whence) __attribute__ ((__nothrow__ , __leaf__));
# 353 "/usr/include/unistd.h" 3 4
extern int close (int __fd);






extern ssize_t read (int __fd, void *__buf, size_t __nbytes) __attribute__ ((__warn_unused_result__));





extern ssize_t write (int __fd, const void *__buf, size_t __n) __attribute__ ((__warn_unused_result__));
# 376 "/usr/include/unistd.h" 3 4
extern ssize_t pread (int __fd, void *__buf, size_t __nbytes,
        __off_t __offset) __attribute__ ((__warn_unused_result__));






extern ssize_t pwrite (int __fd, const void *__buf, size_t __n,
         __off_t __offset) __attribute__ ((__warn_unused_result__));
# 417 "/usr/include/unistd.h" 3 4
extern int pipe (int __pipedes[2]) __attribute__ ((__nothrow__ , __leaf__)) __attribute__ ((__warn_unused_result__));
# 432 "/usr/include/unistd.h" 3 4
extern unsigned int alarm (unsigned int __seconds) __attribute__ ((__nothrow__ , __leaf__));
# 444 "/usr/include/unistd.h" 3 4
extern unsigned int sleep (unsigned int __seconds);







extern __useconds_t ualarm (__useconds_t __value, __useconds_t __interval)
     __attribute__ ((__nothrow__ , __leaf__));






extern int usleep (__useconds_t __useconds);
# 469 "/usr/include/unistd.h" 3 4
extern int pause (void);



extern int chown (const char *__file, __uid_t __owner, __gid_t __group)
     __attribute__ ((__nothrow__ , __leaf__)) __attribute__ ((__nonnull__ (1))) __attribute__ ((__warn_unused_result__));



extern int fchown (int __fd, __uid_t __owner, __gid_t __group) __attribute__ ((__nothrow__ , __leaf__)) __attribute__ ((__warn_unused_result__));




extern int lchown (const char *__file, __uid_t __owner, __gid_t __group)
     __attribute__ ((__nothrow__ , __leaf__)) __attribute__ ((__nonnull__ (1))) __attribute__ ((__warn_unused_result__));






extern int fchownat (int __fd, const char *__file, __uid_t __owner,
       __gid_t __group, int __flag)
     __attribute__ ((__nothrow__ , __leaf__)) __attribute__ ((__nonnull__ (2))) __attribute__ ((__warn_unused_result__));



extern int chdir (const char *__path) __attribute__ ((__nothrow__ , __leaf__)) __attribute__ ((__nonnull__ (1))) __attribute__ ((__warn_unused_result__));



extern int fchdir (int __fd) __attribute__ ((__nothrow__ , __leaf__)) __attribute__ ((__warn_unused_result__));
# 511 "/usr/include/unistd.h" 3 4
extern char *getcwd (char *__buf, size_t __size) __attribute__ ((__nothrow__ , __leaf__)) __attribute__ ((__warn_unused_result__));
# 525 "/usr/include/unistd.h" 3 4
extern char *getwd (char *__buf)
     __attribute__ ((__nothrow__ , __leaf__)) __attribute__ ((__nonnull__ (1))) __attribute__ ((__deprecated__)) __attribute__ ((__warn_unused_result__));




extern int dup (int __fd) __attribute__ ((__nothrow__ , __leaf__)) __attribute__ ((__warn_unused_result__));


extern int dup2 (int __fd, int __fd2) __attribute__ ((__nothrow__ , __leaf__));
# 543 "/usr/include/unistd.h" 3 4
extern char **__environ;







extern int execve (const char *__path, char *const __argv[],
     char *const __envp[]) __attribute__ ((__nothrow__ , __leaf__)) __attribute__ ((__nonnull__ (1, 2)));




extern int fexecve (int __fd, char *const __argv[], char *const __envp[])
     __attribute__ ((__nothrow__ , __leaf__)) __attribute__ ((__nonnull__ (2)));




extern int execv (const char *__path, char *const __argv[])
     __attribute__ ((__nothrow__ , __leaf__)) __attribute__ ((__nonnull__ (1, 2)));



extern int execle (const char *__path, const char *__arg, ...)
     __attribute__ ((__nothrow__ , __leaf__)) __attribute__ ((__nonnull__ (1, 2)));



extern int execl (const char *__path, const char *__arg, ...)
     __attribute__ ((__nothrow__ , __leaf__)) __attribute__ ((__nonnull__ (1, 2)));



extern int execvp (const char *__file, char *const __argv[])
     __attribute__ ((__nothrow__ , __leaf__)) __attribute__ ((__nonnull__ (1, 2)));




extern int execlp (const char *__file, const char *__arg, ...)
     __attribute__ ((__nothrow__ , __leaf__)) __attribute__ ((__nonnull__ (1, 2)));
# 598 "/usr/include/unistd.h" 3 4
extern int nice (int __inc) __attribute__ ((__nothrow__ , __leaf__)) __attribute__ ((__warn_unused_result__));




extern void _exit (int __status) __attribute__ ((__noreturn__));





# 1 "/usr/include/x86_64-linux-gnu/bits/confname.h" 1 3 4
# 24 "/usr/include/x86_64-linux-gnu/bits/confname.h" 3 4
enum
  {
    _PC_LINK_MAX,

    _PC_MAX_CANON,

    _PC_MAX_INPUT,

    _PC_NAME_MAX,

    _PC_PATH_MAX,

    _PC_PIPE_BUF,

    _PC_CHOWN_RESTRICTED,

    _PC_NO_TRUNC,

    _PC_VDISABLE,

    _PC_SYNC_IO,

    _PC_ASYNC_IO,

    _PC_PRIO_IO,

    _PC_SOCK_MAXBUF,

    _PC_FILESIZEBITS,

    _PC_REC_INCR_XFER_SIZE,

    _PC_REC_MAX_XFER_SIZE,

    _PC_REC_MIN_XFER_SIZE,

    _PC_REC_XFER_ALIGN,

    _PC_ALLOC_SIZE_MIN,

    _PC_SYMLINK_MAX,

    _PC_2_SYMLINKS

  };


enum
  {
    _SC_ARG_MAX,

    _SC_CHILD_MAX,

    _SC_CLK_TCK,

    _SC_NGROUPS_MAX,

    _SC_OPEN_MAX,

    _SC_STREAM_MAX,

    _SC_TZNAME_MAX,

    _SC_JOB_CONTROL,

    _SC_SAVED_IDS,

    _SC_REALTIME_SIGNALS,

    _SC_PRIORITY_SCHEDULING,

    _SC_TIMERS,

    _SC_ASYNCHRONOUS_IO,

    _SC_PRIORITIZED_IO,

    _SC_SYNCHRONIZED_IO,

    _SC_FSYNC,

    _SC_MAPPED_FILES,

    _SC_MEMLOCK,

    _SC_MEMLOCK_RANGE,

    _SC_MEMORY_PROTECTION,

    _SC_MESSAGE_PASSING,

    _SC_SEMAPHORES,

    _SC_SHARED_MEMORY_OBJECTS,

    _SC_AIO_LISTIO_MAX,

    _SC_AIO_MAX,

    _SC_AIO_PRIO_DELTA_MAX,

    _SC_DELAYTIMER_MAX,

    _SC_MQ_OPEN_MAX,

    _SC_MQ_PRIO_MAX,

    _SC_VERSION,

    _SC_PAGESIZE,


    _SC_RTSIG_MAX,

    _SC_SEM_NSEMS_MAX,

    _SC_SEM_VALUE_MAX,

    _SC_SIGQUEUE_MAX,

    _SC_TIMER_MAX,




    _SC_BC_BASE_MAX,

    _SC_BC_DIM_MAX,

    _SC_BC_SCALE_MAX,

    _SC_BC_STRING_MAX,

    _SC_COLL_WEIGHTS_MAX,

    _SC_EQUIV_CLASS_MAX,

    _SC_EXPR_NEST_MAX,

    _SC_LINE_MAX,

    _SC_RE_DUP_MAX,

    _SC_CHARCLASS_NAME_MAX,


    _SC_2_VERSION,

    _SC_2_C_BIND,

    _SC_2_C_DEV,

    _SC_2_FORT_DEV,

    _SC_2_FORT_RUN,

    _SC_2_SW_DEV,

    _SC_2_LOCALEDEF,


    _SC_PII,

    _SC_PII_XTI,

    _SC_PII_SOCKET,

    _SC_PII_INTERNET,

    _SC_PII_OSI,

    _SC_POLL,

    _SC_SELECT,

    _SC_UIO_MAXIOV,

    _SC_IOV_MAX = _SC_UIO_MAXIOV,

    _SC_PII_INTERNET_STREAM,

    _SC_PII_INTERNET_DGRAM,

    _SC_PII_OSI_COTS,

    _SC_PII_OSI_CLTS,

    _SC_PII_OSI_M,

    _SC_T_IOV_MAX,



    _SC_THREADS,

    _SC_THREAD_SAFE_FUNCTIONS,

    _SC_GETGR_R_SIZE_MAX,

    _SC_GETPW_R_SIZE_MAX,

    _SC_LOGIN_NAME_MAX,

    _SC_TTY_NAME_MAX,

    _SC_THREAD_DESTRUCTOR_ITERATIONS,

    _SC_THREAD_KEYS_MAX,

    _SC_THREAD_STACK_MIN,

    _SC_THREAD_THREADS_MAX,

    _SC_THREAD_ATTR_STACKADDR,

    _SC_THREAD_ATTR_STACKSIZE,

    _SC_THREAD_PRIORITY_SCHEDULING,

    _SC_THREAD_PRIO_INHERIT,

    _SC_THREAD_PRIO_PROTECT,

    _SC_THREAD_PROCESS_SHARED,


    _SC_NPROCESSORS_CONF,

    _SC_NPROCESSORS_ONLN,

    _SC_PHYS_PAGES,

    _SC_AVPHYS_PAGES,

    _SC_ATEXIT_MAX,

    _SC_PASS_MAX,


    _SC_XOPEN_VERSION,

    _SC_XOPEN_XCU_VERSION,

    _SC_XOPEN_UNIX,

    _SC_XOPEN_CRYPT,

    _SC_XOPEN_ENH_I18N,

    _SC_XOPEN_SHM,


    _SC_2_CHAR_TERM,

    _SC_2_C_VERSION,

    _SC_2_UPE,


    _SC_XOPEN_XPG2,

    _SC_XOPEN_XPG3,

    _SC_XOPEN_XPG4,


    _SC_CHAR_BIT,

    _SC_CHAR_MAX,

    _SC_CHAR_MIN,

    _SC_INT_MAX,

    _SC_INT_MIN,

    _SC_LONG_BIT,

    _SC_WORD_BIT,

    _SC_MB_LEN_MAX,

    _SC_NZERO,

    _SC_SSIZE_MAX,

    _SC_SCHAR_MAX,

    _SC_SCHAR_MIN,

    _SC_SHRT_MAX,

    _SC_SHRT_MIN,

    _SC_UCHAR_MAX,

    _SC_UINT_MAX,

    _SC_ULONG_MAX,

    _SC_USHRT_MAX,


    _SC_NL_ARGMAX,

    _SC_NL_LANGMAX,

    _SC_NL_MSGMAX,

    _SC_NL_NMAX,

    _SC_NL_SETMAX,

    _SC_NL_TEXTMAX,


    _SC_XBS5_ILP32_OFF32,

    _SC_XBS5_ILP32_OFFBIG,

    _SC_XBS5_LP64_OFF64,

    _SC_XBS5_LPBIG_OFFBIG,


    _SC_XOPEN_LEGACY,

    _SC_XOPEN_REALTIME,

    _SC_XOPEN_REALTIME_THREADS,


    _SC_ADVISORY_INFO,

    _SC_BARRIERS,

    _SC_BASE,

    _SC_C_LANG_SUPPORT,

    _SC_C_LANG_SUPPORT_R,

    _SC_CLOCK_SELECTION,

    _SC_CPUTIME,

    _SC_THREAD_CPUTIME,

    _SC_DEVICE_IO,

    _SC_DEVICE_SPECIFIC,

    _SC_DEVICE_SPECIFIC_R,

    _SC_FD_MGMT,

    _SC_FIFO,

    _SC_PIPE,

    _SC_FILE_ATTRIBUTES,

    _SC_FILE_LOCKING,

    _SC_FILE_SYSTEM,

    _SC_MONOTONIC_CLOCK,

    _SC_MULTI_PROCESS,

    _SC_SINGLE_PROCESS,

    _SC_NETWORKING,

    _SC_READER_WRITER_LOCKS,

    _SC_SPIN_LOCKS,

    _SC_REGEXP,

    _SC_REGEX_VERSION,

    _SC_SHELL,

    _SC_SIGNALS,

    _SC_SPAWN,

    _SC_SPORADIC_SERVER,

    _SC_THREAD_SPORADIC_SERVER,

    _SC_SYSTEM_DATABASE,

    _SC_SYSTEM_DATABASE_R,

    _SC_TIMEOUTS,

    _SC_TYPED_MEMORY_OBJECTS,

    _SC_USER_GROUPS,

    _SC_USER_GROUPS_R,

    _SC_2_PBS,

    _SC_2_PBS_ACCOUNTING,

    _SC_2_PBS_LOCATE,

    _SC_2_PBS_MESSAGE,

    _SC_2_PBS_TRACK,

    _SC_SYMLOOP_MAX,

    _SC_STREAMS,

    _SC_2_PBS_CHECKPOINT,


    _SC_V6_ILP32_OFF32,

    _SC_V6_ILP32_OFFBIG,

    _SC_V6_LP64_OFF64,

    _SC_V6_LPBIG_OFFBIG,


    _SC_HOST_NAME_MAX,

    _SC_TRACE,

    _SC_TRACE_EVENT_FILTER,

    _SC_TRACE_INHERIT,

    _SC_TRACE_LOG,


    _SC_LEVEL1_ICACHE_SIZE,

    _SC_LEVEL1_ICACHE_ASSOC,

    _SC_LEVEL1_ICACHE_LINESIZE,

    _SC_LEVEL1_DCACHE_SIZE,

    _SC_LEVEL1_DCACHE_ASSOC,

    _SC_LEVEL1_DCACHE_LINESIZE,

    _SC_LEVEL2_CACHE_SIZE,

    _SC_LEVEL2_CACHE_ASSOC,

    _SC_LEVEL2_CACHE_LINESIZE,

    _SC_LEVEL3_CACHE_SIZE,

    _SC_LEVEL3_CACHE_ASSOC,

    _SC_LEVEL3_CACHE_LINESIZE,

    _SC_LEVEL4_CACHE_SIZE,

    _SC_LEVEL4_CACHE_ASSOC,

    _SC_LEVEL4_CACHE_LINESIZE,



    _SC_IPV6 = _SC_LEVEL1_ICACHE_SIZE + 50,

    _SC_RAW_SOCKETS,


    _SC_V7_ILP32_OFF32,

    _SC_V7_ILP32_OFFBIG,

    _SC_V7_LP64_OFF64,

    _SC_V7_LPBIG_OFFBIG,


    _SC_SS_REPL_MAX,


    _SC_TRACE_EVENT_NAME_MAX,

    _SC_TRACE_NAME_MAX,

    _SC_TRACE_SYS_MAX,

    _SC_TRACE_USER_EVENT_MAX,


    _SC_XOPEN_STREAMS,


    _SC_THREAD_ROBUST_PRIO_INHERIT,

    _SC_THREAD_ROBUST_PRIO_PROTECT

  };


enum
  {
    _CS_PATH,


    _CS_V6_WIDTH_RESTRICTED_ENVS,



    _CS_GNU_LIBC_VERSION,

    _CS_GNU_LIBPTHREAD_VERSION,


    _CS_V5_WIDTH_RESTRICTED_ENVS,



    _CS_V7_WIDTH_RESTRICTED_ENVS,



    _CS_LFS_CFLAGS = 1000,

    _CS_LFS_LDFLAGS,

    _CS_LFS_LIBS,

    _CS_LFS_LINTFLAGS,

    _CS_LFS64_CFLAGS,

    _CS_LFS64_LDFLAGS,

    _CS_LFS64_LIBS,

    _CS_LFS64_LINTFLAGS,


    _CS_XBS5_ILP32_OFF32_CFLAGS = 1100,

    _CS_XBS5_ILP32_OFF32_LDFLAGS,

    _CS_XBS5_ILP32_OFF32_LIBS,

    _CS_XBS5_ILP32_OFF32_LINTFLAGS,

    _CS_XBS5_ILP32_OFFBIG_CFLAGS,

    _CS_XBS5_ILP32_OFFBIG_LDFLAGS,

    _CS_XBS5_ILP32_OFFBIG_LIBS,

    _CS_XBS5_ILP32_OFFBIG_LINTFLAGS,

    _CS_XBS5_LP64_OFF64_CFLAGS,

    _CS_XBS5_LP64_OFF64_LDFLAGS,

    _CS_XBS5_LP64_OFF64_LIBS,

    _CS_XBS5_LP64_OFF64_LINTFLAGS,

    _CS_XBS5_LPBIG_OFFBIG_CFLAGS,

    _CS_XBS5_LPBIG_OFFBIG_LDFLAGS,

    _CS_XBS5_LPBIG_OFFBIG_LIBS,

    _CS_XBS5_LPBIG_OFFBIG_LINTFLAGS,


    _CS_POSIX_V6_ILP32_OFF32_CFLAGS,

    _CS_POSIX_V6_ILP32_OFF32_LDFLAGS,

    _CS_POSIX_V6_ILP32_OFF32_LIBS,

    _CS_POSIX_V6_ILP32_OFF32_LINTFLAGS,

    _CS_POSIX_V6_ILP32_OFFBIG_CFLAGS,

    _CS_POSIX_V6_ILP32_OFFBIG_LDFLAGS,

    _CS_POSIX_V6_ILP32_OFFBIG_LIBS,

    _CS_POSIX_V6_ILP32_OFFBIG_LINTFLAGS,

    _CS_POSIX_V6_LP64_OFF64_CFLAGS,

    _CS_POSIX_V6_LP64_OFF64_LDFLAGS,

    _CS_POSIX_V6_LP64_OFF64_LIBS,

    _CS_POSIX_V6_LP64_OFF64_LINTFLAGS,

    _CS_POSIX_V6_LPBIG_OFFBIG_CFLAGS,

    _CS_POSIX_V6_LPBIG_OFFBIG_LDFLAGS,

    _CS_POSIX_V6_LPBIG_OFFBIG_LIBS,

    _CS_POSIX_V6_LPBIG_OFFBIG_LINTFLAGS,


    _CS_POSIX_V7_ILP32_OFF32_CFLAGS,

    _CS_POSIX_V7_ILP32_OFF32_LDFLAGS,

    _CS_POSIX_V7_ILP32_OFF32_LIBS,

    _CS_POSIX_V7_ILP32_OFF32_LINTFLAGS,

    _CS_POSIX_V7_ILP32_OFFBIG_CFLAGS,

    _CS_POSIX_V7_ILP32_OFFBIG_LDFLAGS,

    _CS_POSIX_V7_ILP32_OFFBIG_LIBS,

    _CS_POSIX_V7_ILP32_OFFBIG_LINTFLAGS,

    _CS_POSIX_V7_LP64_OFF64_CFLAGS,

    _CS_POSIX_V7_LP64_OFF64_LDFLAGS,

    _CS_POSIX_V7_LP64_OFF64_LIBS,

    _CS_POSIX_V7_LP64_OFF64_LINTFLAGS,

    _CS_POSIX_V7_LPBIG_OFFBIG_CFLAGS,

    _CS_POSIX_V7_LPBIG_OFFBIG_LDFLAGS,

    _CS_POSIX_V7_LPBIG_OFFBIG_LIBS,

    _CS_POSIX_V7_LPBIG_OFFBIG_LINTFLAGS,


    _CS_V6_ENV,

    _CS_V7_ENV

  };
# 610 "/usr/include/unistd.h" 2 3 4


extern long int pathconf (const char *__path, int __name)
     __attribute__ ((__nothrow__ , __leaf__)) __attribute__ ((__nonnull__ (1)));


extern long int fpathconf (int __fd, int __name) __attribute__ ((__nothrow__ , __leaf__));


extern long int sysconf (int __name) __attribute__ ((__nothrow__ , __leaf__));



extern size_t confstr (int __name, char *__buf, size_t __len) __attribute__ ((__nothrow__ , __leaf__));




extern __pid_t getpid (void) __attribute__ ((__nothrow__ , __leaf__));


extern __pid_t getppid (void) __attribute__ ((__nothrow__ , __leaf__));


extern __pid_t getpgrp (void) __attribute__ ((__nothrow__ , __leaf__));


extern __pid_t __getpgid (__pid_t __pid) __attribute__ ((__nothrow__ , __leaf__));

extern __pid_t getpgid (__pid_t __pid) __attribute__ ((__nothrow__ , __leaf__));






extern int setpgid (__pid_t __pid, __pid_t __pgid) __attribute__ ((__nothrow__ , __leaf__));
# 660 "/usr/include/unistd.h" 3 4
extern int setpgrp (void) __attribute__ ((__nothrow__ , __leaf__));






extern __pid_t setsid (void) __attribute__ ((__nothrow__ , __leaf__));



extern __pid_t getsid (__pid_t __pid) __attribute__ ((__nothrow__ , __leaf__));



extern __uid_t getuid (void) __attribute__ ((__nothrow__ , __leaf__));


extern __uid_t geteuid (void) __attribute__ ((__nothrow__ , __leaf__));


extern __gid_t getgid (void) __attribute__ ((__nothrow__ , __leaf__));


extern __gid_t getegid (void) __attribute__ ((__nothrow__ , __leaf__));




extern int getgroups (int __size, __gid_t __list[]) __attribute__ ((__nothrow__ , __leaf__)) __attribute__ ((__warn_unused_result__));
# 700 "/usr/include/unistd.h" 3 4
extern int setuid (__uid_t __uid) __attribute__ ((__nothrow__ , __leaf__)) __attribute__ ((__warn_unused_result__));




extern int setreuid (__uid_t __ruid, __uid_t __euid) __attribute__ ((__nothrow__ , __leaf__)) __attribute__ ((__warn_unused_result__));




extern int seteuid (__uid_t __uid) __attribute__ ((__nothrow__ , __leaf__)) __attribute__ ((__warn_unused_result__));






extern int setgid (__gid_t __gid) __attribute__ ((__nothrow__ , __leaf__)) __attribute__ ((__warn_unused_result__));




extern int setregid (__gid_t __rgid, __gid_t __egid) __attribute__ ((__nothrow__ , __leaf__)) __attribute__ ((__warn_unused_result__));




extern int setegid (__gid_t __gid) __attribute__ ((__nothrow__ , __leaf__)) __attribute__ ((__warn_unused_result__));
# 756 "/usr/include/unistd.h" 3 4
extern __pid_t fork (void) __attribute__ ((__nothrow__));







extern __pid_t vfork (void) __attribute__ ((__nothrow__ , __leaf__));





extern char *ttyname (int __fd) __attribute__ ((__nothrow__ , __leaf__));



extern int ttyname_r (int __fd, char *__buf, size_t __buflen)
     __attribute__ ((__nothrow__ , __leaf__)) __attribute__ ((__nonnull__ (2))) __attribute__ ((__warn_unused_result__));



extern int isatty (int __fd) __attribute__ ((__nothrow__ , __leaf__));




extern int ttyslot (void) __attribute__ ((__nothrow__ , __leaf__));




extern int link (const char *__from, const char *__to)
     __attribute__ ((__nothrow__ , __leaf__)) __attribute__ ((__nonnull__ (1, 2))) __attribute__ ((__warn_unused_result__));




extern int linkat (int __fromfd, const char *__from, int __tofd,
     const char *__to, int __flags)
     __attribute__ ((__nothrow__ , __leaf__)) __attribute__ ((__nonnull__ (2, 4))) __attribute__ ((__warn_unused_result__));




extern int symlink (const char *__from, const char *__to)
     __attribute__ ((__nothrow__ , __leaf__)) __attribute__ ((__nonnull__ (1, 2))) __attribute__ ((__warn_unused_result__));




extern ssize_t readlink (const char *__restrict __path,
    char *__restrict __buf, size_t __len)
     __attribute__ ((__nothrow__ , __leaf__)) __attribute__ ((__nonnull__ (1, 2))) __attribute__ ((__warn_unused_result__));




extern int symlinkat (const char *__from, int __tofd,
        const char *__to) __attribute__ ((__nothrow__ , __leaf__)) __attribute__ ((__nonnull__ (1, 3))) __attribute__ ((__warn_unused_result__));


extern ssize_t readlinkat (int __fd, const char *__restrict __path,
      char *__restrict __buf, size_t __len)
     __attribute__ ((__nothrow__ , __leaf__)) __attribute__ ((__nonnull__ (2, 3))) __attribute__ ((__warn_unused_result__));



extern int unlink (const char *__name) __attribute__ ((__nothrow__ , __leaf__)) __attribute__ ((__nonnull__ (1)));



extern int unlinkat (int __fd, const char *__name, int __flag)
     __attribute__ ((__nothrow__ , __leaf__)) __attribute__ ((__nonnull__ (2)));



extern int rmdir (const char *__path) __attribute__ ((__nothrow__ , __leaf__)) __attribute__ ((__nonnull__ (1)));



extern __pid_t tcgetpgrp (int __fd) __attribute__ ((__nothrow__ , __leaf__));


extern int tcsetpgrp (int __fd, __pid_t __pgrp_id) __attribute__ ((__nothrow__ , __leaf__));






extern char *getlogin (void);







extern int getlogin_r (char *__name, size_t __name_len) __attribute__ ((__nonnull__ (1)));




extern int setlogin (const char *__name) __attribute__ ((__nothrow__ , __leaf__)) __attribute__ ((__nonnull__ (1)));







# 1 "/usr/include/x86_64-linux-gnu/bits/getopt_posix.h" 1 3 4
# 27 "/usr/include/x86_64-linux-gnu/bits/getopt_posix.h" 3 4
# 1 "/usr/include/x86_64-linux-gnu/bits/getopt_core.h" 1 3 4
# 28 "/usr/include/x86_64-linux-gnu/bits/getopt_core.h" 3 4








extern char *optarg;
# 50 "/usr/include/x86_64-linux-gnu/bits/getopt_core.h" 3 4
extern int optind;




extern int opterr;



extern int optopt;
# 91 "/usr/include/x86_64-linux-gnu/bits/getopt_core.h" 3 4
extern int getopt (int ___argc, char *const *___argv, const char *__shortopts)
       __attribute__ ((__nothrow__ , __leaf__)) __attribute__ ((__nonnull__ (2, 3)));


# 28 "/usr/include/x86_64-linux-gnu/bits/getopt_posix.h" 2 3 4


# 49 "/usr/include/x86_64-linux-gnu/bits/getopt_posix.h" 3 4

# 870 "/usr/include/unistd.h" 2 3 4







extern int gethostname (char *__name, size_t __len) __attribute__ ((__nothrow__ , __leaf__)) __attribute__ ((__nonnull__ (1)));






extern int sethostname (const char *__name, size_t __len)
     __attribute__ ((__nothrow__ , __leaf__)) __attribute__ ((__nonnull__ (1))) __attribute__ ((__warn_unused_result__));



extern int sethostid (long int __id) __attribute__ ((__nothrow__ , __leaf__)) __attribute__ ((__warn_unused_result__));





extern int getdomainname (char *__name, size_t __len)
     __attribute__ ((__nothrow__ , __leaf__)) __attribute__ ((__nonnull__ (1))) __attribute__ ((__warn_unused_result__));
extern int setdomainname (const char *__name, size_t __len)
     __attribute__ ((__nothrow__ , __leaf__)) __attribute__ ((__nonnull__ (1))) __attribute__ ((__warn_unused_result__));





extern int vhangup (void) __attribute__ ((__nothrow__ , __leaf__));


extern int revoke (const char *__file) __attribute__ ((__nothrow__ , __leaf__)) __attribute__ ((__nonnull__ (1))) __attribute__ ((__warn_unused_result__));







extern int profil (unsigned short int *__sample_buffer, size_t __size,
     size_t __offset, unsigned int __scale)
     __attribute__ ((__nothrow__ , __leaf__)) __attribute__ ((__nonnull__ (1)));





extern int acct (const char *__name) __attribute__ ((__nothrow__ , __leaf__));



extern char *getusershell (void) __attribute__ ((__nothrow__ , __leaf__));
extern void endusershell (void) __attribute__ ((__nothrow__ , __leaf__));
extern void setusershell (void) __attribute__ ((__nothrow__ , __leaf__));





extern int daemon (int __nochdir, int __noclose) __attribute__ ((__nothrow__ , __leaf__)) __attribute__ ((__warn_unused_result__));






extern int chroot (const char *__path) __attribute__ ((__nothrow__ , __leaf__)) __attribute__ ((__nonnull__ (1))) __attribute__ ((__warn_unused_result__));



extern char *getpass (const char *__prompt) __attribute__ ((__nonnull__ (1)));







extern int fsync (int __fd);
# 967 "/usr/include/unistd.h" 3 4
extern long int gethostid (void);


extern void sync (void) __attribute__ ((__nothrow__ , __leaf__));





extern int getpagesize (void) __attribute__ ((__nothrow__ , __leaf__)) __attribute__ ((__const__));




extern int getdtablesize (void) __attribute__ ((__nothrow__ , __leaf__));
# 991 "/usr/include/unistd.h" 3 4
extern int truncate (const char *__file, __off_t __length)
     __attribute__ ((__nothrow__ , __leaf__)) __attribute__ ((__nonnull__ (1))) __attribute__ ((__warn_unused_result__));
# 1014 "/usr/include/unistd.h" 3 4
extern int ftruncate (int __fd, __off_t __length) __attribute__ ((__nothrow__ , __leaf__)) __attribute__ ((__warn_unused_result__));
# 1035 "/usr/include/unistd.h" 3 4
extern int brk (void *__addr) __attribute__ ((__nothrow__ , __leaf__)) __attribute__ ((__warn_unused_result__));





extern void *sbrk (intptr_t __delta) __attribute__ ((__nothrow__ , __leaf__));
# 1056 "/usr/include/unistd.h" 3 4
extern long int syscall (long int __sysno, ...) __attribute__ ((__nothrow__ , __leaf__));
# 1079 "/usr/include/unistd.h" 3 4
extern int lockf (int __fd, int __cmd, __off_t __len) __attribute__ ((__warn_unused_result__));
# 1115 "/usr/include/unistd.h" 3 4
extern int fdatasync (int __fildes);
# 1124 "/usr/include/unistd.h" 3 4
extern char *crypt (const char *__key, const char *__salt)
     __attribute__ ((__nothrow__ , __leaf__)) __attribute__ ((__nonnull__ (1, 2)));
# 1161 "/usr/include/unistd.h" 3 4
int getentropy (void *__buffer, size_t __length) __attribute__ ((__warn_unused_result__));




# 1 "/usr/include/x86_64-linux-gnu/bits/unistd.h" 1 3 4
# 23 "/usr/include/x86_64-linux-gnu/bits/unistd.h" 3 4
extern ssize_t __read_chk (int __fd, void *__buf, size_t __nbytes,
      size_t __buflen) __attribute__ ((__warn_unused_result__));
extern ssize_t __read_alias (int __fd, void *__buf, size_t __nbytes) __asm__ ("" "read")
                               __attribute__ ((__warn_unused_result__));
extern ssize_t __read_chk_warn (int __fd, void *__buf, size_t __nbytes, size_t __buflen) __asm__ ("" "__read_chk")


     __attribute__ ((__warn_unused_result__)) __attribute__((__warning__ ("read called with bigger length than size of " "the destination buffer")))
                                  ;

extern __inline __attribute__ ((__always_inline__)) __attribute__ ((__gnu_inline__)) __attribute__ ((__artificial__)) __attribute__ ((__warn_unused_result__)) ssize_t
read (int __fd, void *__buf, size_t __nbytes)
{
  if (__builtin_object_size (__buf, 0) != (size_t) -1)
    {
      if (!__builtin_constant_p (__nbytes))
 return __read_chk (__fd, __buf, __nbytes, __builtin_object_size (__buf, 0));

      if (__nbytes > __builtin_object_size (__buf, 0))
 return __read_chk_warn (__fd, __buf, __nbytes, __builtin_object_size (__buf, 0));
    }
  return __read_alias (__fd, __buf, __nbytes);
}
# 123 "/usr/include/x86_64-linux-gnu/bits/unistd.h" 3 4
extern ssize_t __readlink_chk (const char *__restrict __path,
          char *__restrict __buf, size_t __len,
          size_t __buflen)
     __attribute__ ((__nothrow__ , __leaf__)) __attribute__ ((__nonnull__ (1, 2))) __attribute__ ((__warn_unused_result__));
extern ssize_t __readlink_alias (const char *__restrict __path, char *__restrict __buf, size_t __len) __asm__ ("" "readlink") __attribute__ ((__nothrow__ , __leaf__))


     __attribute__ ((__nonnull__ (1, 2))) __attribute__ ((__warn_unused_result__));
extern ssize_t __readlink_chk_warn (const char *__restrict __path, char *__restrict __buf, size_t __len, size_t __buflen) __asm__ ("" "__readlink_chk") __attribute__ ((__nothrow__ , __leaf__))



     __attribute__ ((__nonnull__ (1, 2))) __attribute__ ((__warn_unused_result__)) __attribute__((__warning__ ("readlink called with bigger length " "than size of destination buffer")))
                                         ;

extern __inline __attribute__ ((__always_inline__)) __attribute__ ((__gnu_inline__)) __attribute__ ((__artificial__)) __attribute__ ((__nonnull__ (1, 2))) __attribute__ ((__warn_unused_result__)) ssize_t
__attribute__ ((__nothrow__ , __leaf__)) readlink (const char *__restrict __path, char *__restrict __buf, size_t __len)

{
  if (__builtin_object_size (__buf, 2 > 1) != (size_t) -1)
    {
      if (!__builtin_constant_p (__len))
 return __readlink_chk (__path, __buf, __len, __builtin_object_size (__buf, 2 > 1));

      if ( __len > __builtin_object_size (__buf, 2 > 1))
 return __readlink_chk_warn (__path, __buf, __len, __builtin_object_size (__buf, 2 > 1));
    }
  return __readlink_alias (__path, __buf, __len);
}



extern ssize_t __readlinkat_chk (int __fd, const char *__restrict __path,
     char *__restrict __buf, size_t __len,
     size_t __buflen)
     __attribute__ ((__nothrow__ , __leaf__)) __attribute__ ((__nonnull__ (2, 3))) __attribute__ ((__warn_unused_result__));
extern ssize_t __readlinkat_alias (int __fd, const char *__restrict __path, char *__restrict __buf, size_t __len) __asm__ ("" "readlinkat") __attribute__ ((__nothrow__ , __leaf__))



     __attribute__ ((__nonnull__ (2, 3))) __attribute__ ((__warn_unused_result__));
extern ssize_t __readlinkat_chk_warn (int __fd, const char *__restrict __path, char *__restrict __buf, size_t __len, size_t __buflen) __asm__ ("" "__readlinkat_chk") __attribute__ ((__nothrow__ , __leaf__))



     __attribute__ ((__nonnull__ (2, 3))) __attribute__ ((__warn_unused_result__)) __attribute__((__warning__ ("readlinkat called with bigger " "length than size of destination " "buffer")))

                ;

extern __inline __attribute__ ((__always_inline__)) __attribute__ ((__gnu_inline__)) __attribute__ ((__artificial__)) __attribute__ ((__nonnull__ (2, 3))) __attribute__ ((__warn_unused_result__)) ssize_t
__attribute__ ((__nothrow__ , __leaf__)) readlinkat (int __fd, const char *__restrict __path, char *__restrict __buf, size_t __len)

{
  if (__builtin_object_size (__buf, 2 > 1) != (size_t) -1)
    {
      if (!__builtin_constant_p (__len))
 return __readlinkat_chk (__fd, __path, __buf, __len, __builtin_object_size (__buf, 2 > 1));

      if (__len > __builtin_object_size (__buf, 2 > 1))
 return __readlinkat_chk_warn (__fd, __path, __buf, __len,
          __builtin_object_size (__buf, 2 > 1));
    }
  return __readlinkat_alias (__fd, __path, __buf, __len);
}


extern char *__getcwd_chk (char *__buf, size_t __size, size_t __buflen)
     __attribute__ ((__nothrow__ , __leaf__)) __attribute__ ((__warn_unused_result__));
extern char *__getcwd_alias (char *__buf, size_t __size) __asm__ ("" "getcwd") __attribute__ ((__nothrow__ , __leaf__))
                                              __attribute__ ((__warn_unused_result__));
extern char *__getcwd_chk_warn (char *__buf, size_t __size, size_t __buflen) __asm__ ("" "__getcwd_chk") __attribute__ ((__nothrow__ , __leaf__))


     __attribute__ ((__warn_unused_result__)) __attribute__((__warning__ ("getcwd caller with bigger length than size of " "destination buffer")))
                              ;

extern __inline __attribute__ ((__always_inline__)) __attribute__ ((__gnu_inline__)) __attribute__ ((__artificial__)) __attribute__ ((__warn_unused_result__)) char *
__attribute__ ((__nothrow__ , __leaf__)) getcwd (char *__buf, size_t __size)
{
  if (__builtin_object_size (__buf, 2 > 1) != (size_t) -1)
    {
      if (!__builtin_constant_p (__size))
 return __getcwd_chk (__buf, __size, __builtin_object_size (__buf, 2 > 1));

      if (__size > __builtin_object_size (__buf, 2 > 1))
 return __getcwd_chk_warn (__buf, __size, __builtin_object_size (__buf, 2 > 1));
    }
  return __getcwd_alias (__buf, __size);
}


extern char *__getwd_chk (char *__buf, size_t buflen)
     __attribute__ ((__nothrow__ , __leaf__)) __attribute__ ((__nonnull__ (1))) __attribute__ ((__warn_unused_result__));
extern char *__getwd_warn (char *__buf) __asm__ ("" "getwd") __attribute__ ((__nothrow__ , __leaf__))
     __attribute__ ((__nonnull__ (1))) __attribute__ ((__warn_unused_result__)) __attribute__((__warning__ ("please use getcwd instead, as getwd " "doesn't specify buffer size")))
                                         ;

extern __inline __attribute__ ((__always_inline__)) __attribute__ ((__gnu_inline__)) __attribute__ ((__artificial__)) __attribute__ ((__nonnull__ (1))) __attribute__ ((__deprecated__)) __attribute__ ((__warn_unused_result__)) char *
__attribute__ ((__nothrow__ , __leaf__)) getwd (char *__buf)
{
  if (__builtin_object_size (__buf, 2 > 1) != (size_t) -1)
    return __getwd_chk (__buf, __builtin_object_size (__buf, 2 > 1));
  return __getwd_warn (__buf);
}


extern size_t __confstr_chk (int __name, char *__buf, size_t __len,
        size_t __buflen) __attribute__ ((__nothrow__ , __leaf__));
extern size_t __confstr_alias (int __name, char *__buf, size_t __len) __asm__ ("" "confstr") __attribute__ ((__nothrow__ , __leaf__))
                             ;
extern size_t __confstr_chk_warn (int __name, char *__buf, size_t __len, size_t __buflen) __asm__ ("" "__confstr_chk") __attribute__ ((__nothrow__ , __leaf__))


     __attribute__((__warning__ ("confstr called with bigger length than size of destination " "buffer")))
            ;

extern __inline __attribute__ ((__always_inline__)) __attribute__ ((__gnu_inline__)) __attribute__ ((__artificial__)) size_t
__attribute__ ((__nothrow__ , __leaf__)) confstr (int __name, char *__buf, size_t __len)
{
  if (__builtin_object_size (__buf, 2 > 1) != (size_t) -1)
    {
      if (!__builtin_constant_p (__len))
 return __confstr_chk (__name, __buf, __len, __builtin_object_size (__buf, 2 > 1));

      if (__builtin_object_size (__buf, 2 > 1) < __len)
 return __confstr_chk_warn (__name, __buf, __len, __builtin_object_size (__buf, 2 > 1));
    }
  return __confstr_alias (__name, __buf, __len);
}


extern int __getgroups_chk (int __size, __gid_t __list[], size_t __listlen)
     __attribute__ ((__nothrow__ , __leaf__)) __attribute__ ((__warn_unused_result__));
extern int __getgroups_alias (int __size, __gid_t __list[]) __asm__ ("" "getgroups") __attribute__ ((__nothrow__ , __leaf__))
                 __attribute__ ((__warn_unused_result__));
extern int __getgroups_chk_warn (int __size, __gid_t __list[], size_t __listlen) __asm__ ("" "__getgroups_chk") __attribute__ ((__nothrow__ , __leaf__))


     __attribute__ ((__warn_unused_result__)) __attribute__((__warning__ ("getgroups called with bigger group count than what " "can fit into destination buffer")))
                                           ;

extern __inline __attribute__ ((__always_inline__)) __attribute__ ((__gnu_inline__)) __attribute__ ((__artificial__)) int
__attribute__ ((__nothrow__ , __leaf__)) getgroups (int __size, __gid_t __list[])
{
  if (__builtin_object_size (__list, 2 > 1) != (size_t) -1)
    {
      if (!__builtin_constant_p (__size) || __size < 0)
 return __getgroups_chk (__size, __list, __builtin_object_size (__list, 2 > 1));

      if (__size * sizeof (__gid_t) > __builtin_object_size (__list, 2 > 1))
 return __getgroups_chk_warn (__size, __list, __builtin_object_size (__list, 2 > 1));
    }
  return __getgroups_alias (__size, __list);
}


extern int __ttyname_r_chk (int __fd, char *__buf, size_t __buflen,
       size_t __nreal) __attribute__ ((__nothrow__ , __leaf__)) __attribute__ ((__nonnull__ (2)));
extern int __ttyname_r_alias (int __fd, char *__buf, size_t __buflen) __asm__ ("" "ttyname_r") __attribute__ ((__nothrow__ , __leaf__))

     __attribute__ ((__nonnull__ (2)));
extern int __ttyname_r_chk_warn (int __fd, char *__buf, size_t __buflen, size_t __nreal) __asm__ ("" "__ttyname_r_chk") __attribute__ ((__nothrow__ , __leaf__))


     __attribute__ ((__nonnull__ (2))) __attribute__((__warning__ ("ttyname_r called with bigger buflen than " "size of destination buffer")))
                                  ;

extern __inline __attribute__ ((__always_inline__)) __attribute__ ((__gnu_inline__)) __attribute__ ((__artificial__)) int
__attribute__ ((__nothrow__ , __leaf__)) ttyname_r (int __fd, char *__buf, size_t __buflen)
{
  if (__builtin_object_size (__buf, 2 > 1) != (size_t) -1)
    {
      if (!__builtin_constant_p (__buflen))
 return __ttyname_r_chk (__fd, __buf, __buflen, __builtin_object_size (__buf, 2 > 1));

      if (__buflen > __builtin_object_size (__buf, 2 > 1))
 return __ttyname_r_chk_warn (__fd, __buf, __buflen, __builtin_object_size (__buf, 2 > 1));
    }
  return __ttyname_r_alias (__fd, __buf, __buflen);
}



extern int __getlogin_r_chk (char *__buf, size_t __buflen, size_t __nreal)
     __attribute__ ((__nonnull__ (1)));
extern int __getlogin_r_alias (char *__buf, size_t __buflen) __asm__ ("" "getlogin_r")
                     __attribute__ ((__nonnull__ (1)));
extern int __getlogin_r_chk_warn (char *__buf, size_t __buflen, size_t __nreal) __asm__ ("" "__getlogin_r_chk")


     __attribute__ ((__nonnull__ (1))) __attribute__((__warning__ ("getlogin_r called with bigger buflen than " "size of destination buffer")))
                                  ;

extern __inline __attribute__ ((__always_inline__)) __attribute__ ((__gnu_inline__)) __attribute__ ((__artificial__)) int
getlogin_r (char *__buf, size_t __buflen)
{
  if (__builtin_object_size (__buf, 2 > 1) != (size_t) -1)
    {
      if (!__builtin_constant_p (__buflen))
 return __getlogin_r_chk (__buf, __buflen, __builtin_object_size (__buf, 2 > 1));

      if (__buflen > __builtin_object_size (__buf, 2 > 1))
 return __getlogin_r_chk_warn (__buf, __buflen, __builtin_object_size (__buf, 2 > 1));
    }
  return __getlogin_r_alias (__buf, __buflen);
}




extern int __gethostname_chk (char *__buf, size_t __buflen, size_t __nreal)
     __attribute__ ((__nothrow__ , __leaf__)) __attribute__ ((__nonnull__ (1)));
extern int __gethostname_alias (char *__buf, size_t __buflen) __asm__ ("" "gethostname") __attribute__ ((__nothrow__ , __leaf__))
                   __attribute__ ((__nonnull__ (1)));
extern int __gethostname_chk_warn (char *__buf, size_t __buflen, size_t __nreal) __asm__ ("" "__gethostname_chk") __attribute__ ((__nothrow__ , __leaf__))


     __attribute__ ((__nonnull__ (1))) __attribute__((__warning__ ("gethostname called with bigger buflen than " "size of destination buffer")))
                                  ;

extern __inline __attribute__ ((__always_inline__)) __attribute__ ((__gnu_inline__)) __attribute__ ((__artificial__)) int
__attribute__ ((__nothrow__ , __leaf__)) gethostname (char *__buf, size_t __buflen)
{
  if (__builtin_object_size (__buf, 2 > 1) != (size_t) -1)
    {
      if (!__builtin_constant_p (__buflen))
 return __gethostname_chk (__buf, __buflen, __builtin_object_size (__buf, 2 > 1));

      if (__buflen > __builtin_object_size (__buf, 2 > 1))
 return __gethostname_chk_warn (__buf, __buflen, __builtin_object_size (__buf, 2 > 1));
    }
  return __gethostname_alias (__buf, __buflen);
}




extern int __getdomainname_chk (char *__buf, size_t __buflen, size_t __nreal)
     __attribute__ ((__nothrow__ , __leaf__)) __attribute__ ((__nonnull__ (1))) __attribute__ ((__warn_unused_result__));
extern int __getdomainname_alias (char *__buf, size_t __buflen) __asm__ ("" "getdomainname") __attribute__ ((__nothrow__ , __leaf__))

                     __attribute__ ((__nonnull__ (1))) __attribute__ ((__warn_unused_result__));
extern int __getdomainname_chk_warn (char *__buf, size_t __buflen, size_t __nreal) __asm__ ("" "__getdomainname_chk") __attribute__ ((__nothrow__ , __leaf__))


     __attribute__ ((__nonnull__ (1))) __attribute__ ((__warn_unused_result__)) __attribute__((__warning__ ("getdomainname called with bigger " "buflen than size of destination " "buffer")))

                    ;

extern __inline __attribute__ ((__always_inline__)) __attribute__ ((__gnu_inline__)) __attribute__ ((__artificial__)) int
__attribute__ ((__nothrow__ , __leaf__)) getdomainname (char *__buf, size_t __buflen)
{
  if (__builtin_object_size (__buf, 2 > 1) != (size_t) -1)
    {
      if (!__builtin_constant_p (__buflen))
 return __getdomainname_chk (__buf, __buflen, __builtin_object_size (__buf, 2 > 1));

      if (__buflen > __builtin_object_size (__buf, 2 > 1))
 return __getdomainname_chk_warn (__buf, __buflen, __builtin_object_size (__buf, 2 > 1));
    }
  return __getdomainname_alias (__buf, __buflen);
}
# 1167 "/usr/include/unistd.h" 2 3 4



# 1 "/usr/include/x86_64-linux-gnu/bits/unistd_ext.h" 1 3 4
# 1171 "/usr/include/unistd.h" 2 3 4


# 491 "../deps/zlib/zconf.h" 2
# 35 "../deps/zlib/zlib.h" 2
# 81 "../deps/zlib/zlib.h"

# 81 "../deps/zlib/zlib.h"
typedef voidpf (*alloc_func) (voidpf opaque, uInt items, uInt size);
typedef void (*free_func) (voidpf opaque, voidpf address);

struct internal_state;

typedef struct z_stream_s {
    Bytef *next_in;
    uInt avail_in;
    uLong total_in;

    Bytef *next_out;
    uInt avail_out;
    uLong total_out;

    char *msg;
    struct internal_state *state;

    alloc_func zalloc;
    free_func zfree;
    voidpf opaque;

    int data_type;

    uLong adler;
    uLong reserved;
} z_stream;

typedef z_stream *z_streamp;





typedef struct gz_header_s {
    int text;
    uLong time;
    int xflags;
    int os;
    Bytef *extra;
    uInt extra_len;
    uInt extra_max;
    Bytef *name;
    uInt name_max;
    Bytef *comment;
    uInt comm_max;
    int hcrc;
    int done;

} gz_header;

typedef gz_header *gz_headerp;
# 220 "../deps/zlib/zlib.h"
extern const char * zlibVersion (void);
# 250 "../deps/zlib/zlib.h"
extern int deflate (z_streamp strm, int flush);
# 363 "../deps/zlib/zlib.h"
extern int deflateEnd (z_streamp strm);
# 400 "../deps/zlib/zlib.h"
extern int inflate (z_streamp strm, int flush);
# 520 "../deps/zlib/zlib.h"
extern int inflateEnd (z_streamp strm);
# 611 "../deps/zlib/zlib.h"
extern int deflateSetDictionary (z_streamp strm, const Bytef *dictionary, uInt dictLength)

                                                               ;
# 655 "../deps/zlib/zlib.h"
extern int deflateGetDictionary (z_streamp strm, Bytef *dictionary, uInt *dictLength)

                                                                ;
# 677 "../deps/zlib/zlib.h"
extern int deflateCopy (z_streamp dest, z_streamp source)
                                                      ;
# 695 "../deps/zlib/zlib.h"
extern int deflateReset (z_streamp strm);
# 706 "../deps/zlib/zlib.h"
extern int deflateParams (z_streamp strm, int level, int strategy)

                                                    ;
# 743 "../deps/zlib/zlib.h"
extern int deflateTune (z_streamp strm, int good_length, int max_lazy, int nice_length, int max_chain)



                                                   ;
# 760 "../deps/zlib/zlib.h"
extern uLong deflateBound (z_streamp strm, uLong sourceLen)
                                                        ;
# 775 "../deps/zlib/zlib.h"
extern int deflatePending (z_streamp strm, unsigned *pending, int *bits)

                                                  ;
# 790 "../deps/zlib/zlib.h"
extern int deflatePrime (z_streamp strm, int bits, int value)

                                                ;
# 807 "../deps/zlib/zlib.h"
extern int deflateSetHeader (z_streamp strm, gz_headerp head)
                                                          ;
# 884 "../deps/zlib/zlib.h"
extern int inflateSetDictionary (z_streamp strm, const Bytef *dictionary, uInt dictLength)

                                                               ;
# 907 "../deps/zlib/zlib.h"
extern int inflateGetDictionary (z_streamp strm, Bytef *dictionary, uInt *dictLength)

                                                                ;
# 922 "../deps/zlib/zlib.h"
extern int inflateSync (z_streamp strm);
# 941 "../deps/zlib/zlib.h"
extern int inflateCopy (z_streamp dest, z_streamp source)
                                                      ;
# 957 "../deps/zlib/zlib.h"
extern int inflateReset (z_streamp strm);
# 967 "../deps/zlib/zlib.h"
extern int inflateReset2 (z_streamp strm, int windowBits)
                                                      ;
# 981 "../deps/zlib/zlib.h"
extern int inflatePrime (z_streamp strm, int bits, int value)

                                                ;
# 1002 "../deps/zlib/zlib.h"
extern long inflateMark (z_streamp strm);
# 1030 "../deps/zlib/zlib.h"
extern int inflateGetHeader (z_streamp strm, gz_headerp head)
                                                          ;
# 1092 "../deps/zlib/zlib.h"
typedef unsigned (*in_func) (void *, unsigned char * *)
                                                                   ;
typedef int (*out_func) (void *, unsigned char *, unsigned);

extern int inflateBack (z_streamp strm, in_func in, void *in_desc, out_func out, void *out_desc)

                                                                      ;
# 1166 "../deps/zlib/zlib.h"
extern int inflateBackEnd (z_streamp strm);







extern uLong zlibCompileFlags (void);
# 1227 "../deps/zlib/zlib.h"
extern int compress (Bytef *dest, uLongf *destLen, const Bytef *source, uLong sourceLen)
                                                                       ;
# 1242 "../deps/zlib/zlib.h"
extern int compress2 (Bytef *dest, uLongf *destLen, const Bytef *source, uLong sourceLen, int level)

                                             ;
# 1258 "../deps/zlib/zlib.h"
extern uLong compressBound (uLong sourceLen);






extern int uncompress (Bytef *dest, uLongf *destLen, const Bytef *source, uLong sourceLen)
                                                                         ;
# 1283 "../deps/zlib/zlib.h"
extern int uncompress2 (Bytef *dest, uLongf *destLen, const Bytef *source, uLong *sourceLen)
                                                                           ;
# 1300 "../deps/zlib/zlib.h"
typedef struct gzFile_s *gzFile;
# 1340 "../deps/zlib/zlib.h"
extern gzFile gzdopen (int fd, const char *mode);
# 1363 "../deps/zlib/zlib.h"
extern int gzbuffer (gzFile file, unsigned size);
# 1379 "../deps/zlib/zlib.h"
extern int gzsetparams (gzFile file, int level, int strategy);
# 1390 "../deps/zlib/zlib.h"
extern int gzread (gzFile file, voidp buf, unsigned len);
# 1420 "../deps/zlib/zlib.h"
extern z_size_t gzfread (voidp buf, z_size_t size, z_size_t nitems, gzFile file)
                                                  ;
# 1446 "../deps/zlib/zlib.h"
extern int gzwrite (gzFile file, voidpc buf, unsigned len)
                                                          ;






extern z_size_t gzfwrite (voidpc buf, z_size_t size, z_size_t nitems, gzFile file)
                                                                    ;
# 1468 "../deps/zlib/zlib.h"
extern int gzprintf (gzFile file, const char *format, ...);
# 1483 "../deps/zlib/zlib.h"
extern int gzputs (gzFile file, const char *s);







extern char * gzgets (gzFile file, char *buf, int len);
# 1504 "../deps/zlib/zlib.h"
extern int gzputc (gzFile file, int c);





extern int gzgetc (gzFile file);
# 1519 "../deps/zlib/zlib.h"
extern int gzungetc (int c, gzFile file);
# 1531 "../deps/zlib/zlib.h"
extern int gzflush (gzFile file, int flush);
# 1566 "../deps/zlib/zlib.h"
extern int gzrewind (gzFile file);
# 1594 "../deps/zlib/zlib.h"
extern int gzeof (gzFile file);
# 1609 "../deps/zlib/zlib.h"
extern int gzdirect (gzFile file);
# 1630 "../deps/zlib/zlib.h"
extern int gzclose (gzFile file);
# 1643 "../deps/zlib/zlib.h"
extern int gzclose_r (gzFile file);
extern int gzclose_w (gzFile file);
# 1655 "../deps/zlib/zlib.h"
extern const char * gzerror (gzFile file, int *errnum);
# 1671 "../deps/zlib/zlib.h"
extern void gzclearerr (gzFile file);
# 1688 "../deps/zlib/zlib.h"
extern uLong adler32 (uLong adler, const Bytef *buf, uInt len);
# 1707 "../deps/zlib/zlib.h"
extern uLong adler32_z (uLong adler, const Bytef *buf, z_size_t len)
                                                  ;
# 1725 "../deps/zlib/zlib.h"
extern uLong crc32 (uLong crc, const Bytef *buf, uInt len);
# 1742 "../deps/zlib/zlib.h"
extern uLong crc32_z (uLong adler, const Bytef *buf, z_size_t len)
                                                ;
# 1764 "../deps/zlib/zlib.h"
extern int deflateInit_ (z_streamp strm, int level, const char *version, int stream_size)
                                                                           ;
extern int inflateInit_ (z_streamp strm, const char *version, int stream_size)
                                                                           ;
extern int deflateInit2_ (z_streamp strm, int level, int method, int windowBits, int memLevel, int strategy, const char *version, int stream_size)


                                                       ;
extern int inflateInit2_ (z_streamp strm, int windowBits, const char *version, int stream_size)
                                                                            ;
extern int inflateBackInit_ (z_streamp strm, int windowBits, unsigned char *window, const char *version, int stream_size)


                                                          ;
# 1817 "../deps/zlib/zlib.h"
struct gzFile_s {
    unsigned have;
    unsigned char *next;
    off_t pos;
};
extern int gzgetc_ (gzFile file);
# 1895 "../deps/zlib/zlib.h"
   extern gzFile gzopen (const char *, const char *);
   extern off_t gzseek (gzFile, off_t, int);
   extern off_t gztell (gzFile);
   extern off_t gzoffset (gzFile);
   extern uLong adler32_combine (uLong, uLong, off_t);
   extern uLong crc32_combine (uLong, uLong, off_t);
# 1911 "../deps/zlib/zlib.h"
extern const char * zError (int);
extern int inflateSyncPoint (z_streamp);
extern const z_crc_t * get_crc_table (void);
extern int inflateUndermine (z_streamp, int);
extern int inflateValidate (z_streamp, int);
extern unsigned long inflateCodesUsed (z_streamp);
extern int inflateResetKeep (z_streamp);
extern int deflateResetKeep (z_streamp);






extern int gzvprintf (gzFile file, const char *format, va_list va)

                                                              ;
# 10 "../deps/zlib/compress.c" 2
# 22 "../deps/zlib/compress.c"
int compress2 (dest, destLen, source, sourceLen, level)
    Bytef *dest;
    uLongf *destLen;
    const Bytef *source;
    uLong sourceLen;
    int level;
{
    z_stream stream;
    int err;
    const uInt max = (uInt)-1;
    uLong left;

    left = *destLen;
    *destLen = 0;

    stream.zalloc = (alloc_func)0;
    stream.zfree = (free_func)0;
    stream.opaque = (voidpf)0;

    err = deflateInit_((&stream), (level), "1.2.11", (int)sizeof(z_stream));
    if (err != 0) return err;

    stream.next_out = dest;
    stream.avail_out = 0;
    stream.next_in = ( Bytef *)source;
    stream.avail_in = 0;

    do {
        if (stream.avail_out == 0) {
            stream.avail_out = left > (uLong)max ? max : (uInt)left;
            left -= stream.avail_out;
        }
        if (stream.avail_in == 0) {
            stream.avail_in = sourceLen > (uLong)max ? max : (uInt)sourceLen;
            sourceLen -= stream.avail_in;
        }
        err = deflate(&stream, sourceLen ? 0 : 4);
    } while (err == 0);

    *destLen = stream.total_out;
    deflateEnd(&stream);
    return err == 1 ? 0 : err;
}



int compress (dest, destLen, source, sourceLen)
    Bytef *dest;
    uLongf *destLen;
    const Bytef *source;
    uLong sourceLen;
{
    return compress2(dest, destLen, source, sourceLen, (-1));
}





uLong compressBound (sourceLen)
    uLong sourceLen;
{
    sourceLen = sourceLen + (sourceLen >> 12) + (sourceLen >> 14) +
                (sourceLen >> 25) + 13;
# 94 "../deps/zlib/compress.c"
    sourceLen += sourceLen >> 7;
    return sourceLen;
}
