# 1 "../deps/icu-small/source/common/utf_impl.cpp"
# 1 "<built-in>"
# 1 "<command-line>"
# 1 "/usr/include/stdc-predef.h" 1 3 4
# 1 "<command-line>" 2
# 1 "../deps/icu-small/source/common/utf_impl.cpp"
# 27 "../deps/icu-small/source/common/utf_impl.cpp"
# 1 "../deps/icu-small/source/common/unicode/utypes.h" 1
# 38 "../deps/icu-small/source/common/unicode/utypes.h"
# 1 "../deps/icu-small/source/common/unicode/umachine.h" 1
# 46 "../deps/icu-small/source/common/unicode/umachine.h"
# 1 "../deps/icu-small/source/common/unicode/ptypes.h" 1
# 43 "../deps/icu-small/source/common/unicode/ptypes.h"
# 1 "/usr/lib/gcc/x86_64-linux-gnu/9/include/stddef.h" 1 3 4
# 143 "/usr/lib/gcc/x86_64-linux-gnu/9/include/stddef.h" 3 4

# 143 "/usr/lib/gcc/x86_64-linux-gnu/9/include/stddef.h" 3 4
typedef long int ptrdiff_t;
# 209 "/usr/lib/gcc/x86_64-linux-gnu/9/include/stddef.h" 3 4
typedef long unsigned int size_t;
# 415 "/usr/lib/gcc/x86_64-linux-gnu/9/include/stddef.h" 3 4
typedef struct {
  long long __max_align_ll __attribute__((__aligned__(__alignof__(long long))));
  long double __max_align_ld __attribute__((__aligned__(__alignof__(long double))));
# 426 "/usr/lib/gcc/x86_64-linux-gnu/9/include/stddef.h" 3 4
} max_align_t;






  typedef decltype(nullptr) nullptr_t;
# 44 "../deps/icu-small/source/common/unicode/ptypes.h" 2
# 52 "../deps/icu-small/source/common/unicode/ptypes.h"
# 1 "../deps/icu-small/source/common/unicode/platform.h" 1
# 24 "../deps/icu-small/source/common/unicode/platform.h"
# 1 "../deps/icu-small/source/common/unicode/uconfig.h" 1
# 25 "../deps/icu-small/source/common/unicode/platform.h" 2
# 1 "../deps/icu-small/source/common/unicode/uvernum.h" 1
# 26 "../deps/icu-small/source/common/unicode/platform.h" 2
# 53 "../deps/icu-small/source/common/unicode/ptypes.h" 2
# 68 "../deps/icu-small/source/common/unicode/ptypes.h"
# 1 "/usr/lib/gcc/x86_64-linux-gnu/9/include/stdint.h" 1 3 4
# 9 "/usr/lib/gcc/x86_64-linux-gnu/9/include/stdint.h" 3 4
# 1 "/usr/include/stdint.h" 1 3 4
# 26 "/usr/include/stdint.h" 3 4
# 1 "/usr/include/x86_64-linux-gnu/bits/libc-header-start.h" 1 3 4
# 33 "/usr/include/x86_64-linux-gnu/bits/libc-header-start.h" 3 4
# 1 "/usr/include/features.h" 1 3 4
# 461 "/usr/include/features.h" 3 4
# 1 "/usr/include/x86_64-linux-gnu/sys/cdefs.h" 1 3 4
# 452 "/usr/include/x86_64-linux-gnu/sys/cdefs.h" 3 4
# 1 "/usr/include/x86_64-linux-gnu/bits/wordsize.h" 1 3 4
# 453 "/usr/include/x86_64-linux-gnu/sys/cdefs.h" 2 3 4
# 1 "/usr/include/x86_64-linux-gnu/bits/long-double.h" 1 3 4
# 454 "/usr/include/x86_64-linux-gnu/sys/cdefs.h" 2 3 4
# 462 "/usr/include/features.h" 2 3 4
# 485 "/usr/include/features.h" 3 4
# 1 "/usr/include/x86_64-linux-gnu/gnu/stubs.h" 1 3 4
# 10 "/usr/include/x86_64-linux-gnu/gnu/stubs.h" 3 4
# 1 "/usr/include/x86_64-linux-gnu/gnu/stubs-64.h" 1 3 4
# 11 "/usr/include/x86_64-linux-gnu/gnu/stubs.h" 2 3 4
# 486 "/usr/include/features.h" 2 3 4
# 34 "/usr/include/x86_64-linux-gnu/bits/libc-header-start.h" 2 3 4
# 27 "/usr/include/stdint.h" 2 3 4
# 1 "/usr/include/x86_64-linux-gnu/bits/types.h" 1 3 4
# 27 "/usr/include/x86_64-linux-gnu/bits/types.h" 3 4
# 1 "/usr/include/x86_64-linux-gnu/bits/wordsize.h" 1 3 4
# 28 "/usr/include/x86_64-linux-gnu/bits/types.h" 2 3 4
# 1 "/usr/include/x86_64-linux-gnu/bits/timesize.h" 1 3 4
# 29 "/usr/include/x86_64-linux-gnu/bits/types.h" 2 3 4


typedef unsigned char __u_char;
typedef unsigned short int __u_short;
typedef unsigned int __u_int;
typedef unsigned long int __u_long;


typedef signed char __int8_t;
typedef unsigned char __uint8_t;
typedef signed short int __int16_t;
typedef unsigned short int __uint16_t;
typedef signed int __int32_t;
typedef unsigned int __uint32_t;

typedef signed long int __int64_t;
typedef unsigned long int __uint64_t;






typedef __int8_t __int_least8_t;
typedef __uint8_t __uint_least8_t;
typedef __int16_t __int_least16_t;
typedef __uint16_t __uint_least16_t;
typedef __int32_t __int_least32_t;
typedef __uint32_t __uint_least32_t;
typedef __int64_t __int_least64_t;
typedef __uint64_t __uint_least64_t;



typedef long int __quad_t;
typedef unsigned long int __u_quad_t;







typedef long int __intmax_t;
typedef unsigned long int __uintmax_t;
# 141 "/usr/include/x86_64-linux-gnu/bits/types.h" 3 4
# 1 "/usr/include/x86_64-linux-gnu/bits/typesizes.h" 1 3 4
# 142 "/usr/include/x86_64-linux-gnu/bits/types.h" 2 3 4
# 1 "/usr/include/x86_64-linux-gnu/bits/time64.h" 1 3 4
# 143 "/usr/include/x86_64-linux-gnu/bits/types.h" 2 3 4


typedef unsigned long int __dev_t;
typedef unsigned int __uid_t;
typedef unsigned int __gid_t;
typedef unsigned long int __ino_t;
typedef unsigned long int __ino64_t;
typedef unsigned int __mode_t;
typedef unsigned long int __nlink_t;
typedef long int __off_t;
typedef long int __off64_t;
typedef int __pid_t;
typedef struct { int __val[2]; } __fsid_t;
typedef long int __clock_t;
typedef unsigned long int __rlim_t;
typedef unsigned long int __rlim64_t;
typedef unsigned int __id_t;
typedef long int __time_t;
typedef unsigned int __useconds_t;
typedef long int __suseconds_t;

typedef int __daddr_t;
typedef int __key_t;


typedef int __clockid_t;


typedef void * __timer_t;


typedef long int __blksize_t;




typedef long int __blkcnt_t;
typedef long int __blkcnt64_t;


typedef unsigned long int __fsblkcnt_t;
typedef unsigned long int __fsblkcnt64_t;


typedef unsigned long int __fsfilcnt_t;
typedef unsigned long int __fsfilcnt64_t;


typedef long int __fsword_t;

typedef long int __ssize_t;


typedef long int __syscall_slong_t;

typedef unsigned long int __syscall_ulong_t;



typedef __off64_t __loff_t;
typedef char *__caddr_t;


typedef long int __intptr_t;


typedef unsigned int __socklen_t;




typedef int __sig_atomic_t;
# 28 "/usr/include/stdint.h" 2 3 4
# 1 "/usr/include/x86_64-linux-gnu/bits/wchar.h" 1 3 4
# 29 "/usr/include/stdint.h" 2 3 4
# 1 "/usr/include/x86_64-linux-gnu/bits/wordsize.h" 1 3 4
# 30 "/usr/include/stdint.h" 2 3 4




# 1 "/usr/include/x86_64-linux-gnu/bits/stdint-intn.h" 1 3 4
# 24 "/usr/include/x86_64-linux-gnu/bits/stdint-intn.h" 3 4
typedef __int8_t int8_t;
typedef __int16_t int16_t;
typedef __int32_t int32_t;
typedef __int64_t int64_t;
# 35 "/usr/include/stdint.h" 2 3 4


# 1 "/usr/include/x86_64-linux-gnu/bits/stdint-uintn.h" 1 3 4
# 24 "/usr/include/x86_64-linux-gnu/bits/stdint-uintn.h" 3 4
typedef __uint8_t uint8_t;
typedef __uint16_t uint16_t;
typedef __uint32_t uint32_t;
typedef __uint64_t uint64_t;
# 38 "/usr/include/stdint.h" 2 3 4





typedef __int_least8_t int_least8_t;
typedef __int_least16_t int_least16_t;
typedef __int_least32_t int_least32_t;
typedef __int_least64_t int_least64_t;


typedef __uint_least8_t uint_least8_t;
typedef __uint_least16_t uint_least16_t;
typedef __uint_least32_t uint_least32_t;
typedef __uint_least64_t uint_least64_t;





typedef signed char int_fast8_t;

typedef long int int_fast16_t;
typedef long int int_fast32_t;
typedef long int int_fast64_t;
# 71 "/usr/include/stdint.h" 3 4
typedef unsigned char uint_fast8_t;

typedef unsigned long int uint_fast16_t;
typedef unsigned long int uint_fast32_t;
typedef unsigned long int uint_fast64_t;
# 87 "/usr/include/stdint.h" 3 4
typedef long int intptr_t;


typedef unsigned long int uintptr_t;
# 101 "/usr/include/stdint.h" 3 4
typedef __intmax_t intmax_t;
typedef __uintmax_t uintmax_t;
# 10 "/usr/lib/gcc/x86_64-linux-gnu/9/include/stdint.h" 2 3 4
# 69 "../deps/icu-small/source/common/unicode/ptypes.h" 2
# 47 "../deps/icu-small/source/common/unicode/umachine.h" 2





# 1 "/usr/lib/gcc/x86_64-linux-gnu/9/include/stddef.h" 1 3 4
# 53 "../deps/icu-small/source/common/unicode/umachine.h" 2
# 261 "../deps/icu-small/source/common/unicode/umachine.h"

# 261 "../deps/icu-small/source/common/unicode/umachine.h"
typedef int8_t UBool;
# 372 "../deps/icu-small/source/common/unicode/umachine.h"
    typedef char16_t UChar;
# 403 "../deps/icu-small/source/common/unicode/umachine.h"
    typedef short unsigned int OldUChar;
# 425 "../deps/icu-small/source/common/unicode/umachine.h"
typedef int32_t UChar32;
# 447 "../deps/icu-small/source/common/unicode/umachine.h"
# 1 "../deps/icu-small/source/common/unicode/urename.h" 1
# 448 "../deps/icu-small/source/common/unicode/umachine.h" 2
# 39 "../deps/icu-small/source/common/unicode/utypes.h" 2
# 1 "../deps/icu-small/source/common/unicode/uversion.h" 1
# 59 "../deps/icu-small/source/common/unicode/uversion.h"
typedef uint8_t UVersionInfo[4];
# 106 "../deps/icu-small/source/common/unicode/uversion.h"
        namespace icu_67 { }
        namespace icu = icu_67;
# 144 "../deps/icu-small/source/common/unicode/uversion.h"
extern "C" void
u_versionFromString_67(UVersionInfo versionArray, const char *versionString);
# 158 "../deps/icu-small/source/common/unicode/uversion.h"
extern "C" void
u_versionFromUString_67(UVersionInfo versionArray, const UChar *versionString);
# 174 "../deps/icu-small/source/common/unicode/uversion.h"
extern "C" void
u_versionToString_67(const UVersionInfo versionArray, char *versionString);
# 185 "../deps/icu-small/source/common/unicode/uversion.h"
extern "C" void
u_getVersion_67(UVersionInfo versionArray);
# 40 "../deps/icu-small/source/common/unicode/utypes.h" 2

# 1 "/usr/lib/gcc/x86_64-linux-gnu/9/include/float.h" 1 3 4
# 42 "../deps/icu-small/source/common/unicode/utypes.h" 2
# 203 "../deps/icu-small/source/common/unicode/utypes.h"
typedef double UDate;
# 415 "../deps/icu-small/source/common/unicode/utypes.h"
typedef enum UErrorCode {





    U_USING_FALLBACK_WARNING = -128,

    U_ERROR_WARNING_START = -128,

    U_USING_DEFAULT_WARNING = -127,

    U_SAFECLONE_ALLOCATED_WARNING = -126,

    U_STATE_OLD_WARNING = -125,

    U_STRING_NOT_TERMINATED_WARNING = -124,

    U_SORT_KEY_TOO_SHORT_WARNING = -123,

    U_AMBIGUOUS_ALIAS_WARNING = -122,

    U_DIFFERENT_UCA_VERSION = -121,

    U_PLUGIN_CHANGED_LEVEL_WARNING = -120,






    U_ERROR_WARNING_LIMIT,


    U_ZERO_ERROR = 0,

    U_ILLEGAL_ARGUMENT_ERROR = 1,
    U_MISSING_RESOURCE_ERROR = 2,
    U_INVALID_FORMAT_ERROR = 3,
    U_FILE_ACCESS_ERROR = 4,
    U_INTERNAL_PROGRAM_ERROR = 5,
    U_MESSAGE_PARSE_ERROR = 6,
    U_MEMORY_ALLOCATION_ERROR = 7,
    U_INDEX_OUTOFBOUNDS_ERROR = 8,
    U_PARSE_ERROR = 9,
    U_INVALID_CHAR_FOUND = 10,
    U_TRUNCATED_CHAR_FOUND = 11,
    U_ILLEGAL_CHAR_FOUND = 12,
    U_INVALID_TABLE_FORMAT = 13,
    U_INVALID_TABLE_FILE = 14,
    U_BUFFER_OVERFLOW_ERROR = 15,
    U_UNSUPPORTED_ERROR = 16,
    U_RESOURCE_TYPE_MISMATCH = 17,
    U_ILLEGAL_ESCAPE_SEQUENCE = 18,
    U_UNSUPPORTED_ESCAPE_SEQUENCE = 19,
    U_NO_SPACE_AVAILABLE = 20,
    U_CE_NOT_FOUND_ERROR = 21,
    U_PRIMARY_TOO_LONG_ERROR = 22,
    U_STATE_TOO_OLD_ERROR = 23,
    U_TOO_MANY_ALIASES_ERROR = 24,

    U_ENUM_OUT_OF_SYNC_ERROR = 25,
    U_INVARIANT_CONVERSION_ERROR = 26,
    U_INVALID_STATE_ERROR = 27,
    U_COLLATOR_VERSION_MISMATCH = 28,
    U_USELESS_COLLATOR_ERROR = 29,
    U_NO_WRITE_PERMISSION = 30,






    U_STANDARD_ERROR_LIMIT,





    U_BAD_VARIABLE_DEFINITION=0x10000,
    U_PARSE_ERROR_START = 0x10000,
    U_MALFORMED_RULE,
    U_MALFORMED_SET,
    U_MALFORMED_SYMBOL_REFERENCE,
    U_MALFORMED_UNICODE_ESCAPE,
    U_MALFORMED_VARIABLE_DEFINITION,
    U_MALFORMED_VARIABLE_REFERENCE,
    U_MISMATCHED_SEGMENT_DELIMITERS,
    U_MISPLACED_ANCHOR_START,
    U_MISPLACED_CURSOR_OFFSET,
    U_MISPLACED_QUANTIFIER,
    U_MISSING_OPERATOR,
    U_MISSING_SEGMENT_CLOSE,
    U_MULTIPLE_ANTE_CONTEXTS,
    U_MULTIPLE_CURSORS,
    U_MULTIPLE_POST_CONTEXTS,
    U_TRAILING_BACKSLASH,
    U_UNDEFINED_SEGMENT_REFERENCE,
    U_UNDEFINED_VARIABLE,
    U_UNQUOTED_SPECIAL,
    U_UNTERMINATED_QUOTE,
    U_RULE_MASK_ERROR,
    U_MISPLACED_COMPOUND_FILTER,
    U_MULTIPLE_COMPOUND_FILTERS,
    U_INVALID_RBT_SYNTAX,
    U_INVALID_PROPERTY_PATTERN,
    U_MALFORMED_PRAGMA,
    U_UNCLOSED_SEGMENT,
    U_ILLEGAL_CHAR_IN_SEGMENT,
    U_VARIABLE_RANGE_EXHAUSTED,
    U_VARIABLE_RANGE_OVERLAP,
    U_ILLEGAL_CHARACTER,
    U_INTERNAL_TRANSLITERATOR_ERROR,
    U_INVALID_ID,
    U_INVALID_FUNCTION,





    U_PARSE_ERROR_LIMIT,





    U_UNEXPECTED_TOKEN=0x10100,
    U_FMT_PARSE_ERROR_START=0x10100,
    U_MULTIPLE_DECIMAL_SEPARATORS,
    U_MULTIPLE_DECIMAL_SEPERATORS = U_MULTIPLE_DECIMAL_SEPARATORS,
    U_MULTIPLE_EXPONENTIAL_SYMBOLS,
    U_MALFORMED_EXPONENTIAL_PATTERN,
    U_MULTIPLE_PERCENT_SYMBOLS,
    U_MULTIPLE_PERMILL_SYMBOLS,
    U_MULTIPLE_PAD_SPECIFIERS,
    U_PATTERN_SYNTAX_ERROR,
    U_ILLEGAL_PAD_POSITION,
    U_UNMATCHED_BRACES,
    U_UNSUPPORTED_PROPERTY,
    U_UNSUPPORTED_ATTRIBUTE,
    U_ARGUMENT_TYPE_MISMATCH,
    U_DUPLICATE_KEYWORD,
    U_UNDEFINED_KEYWORD,
    U_DEFAULT_KEYWORD_MISSING,
    U_DECIMAL_NUMBER_SYNTAX_ERROR,
    U_FORMAT_INEXACT_ERROR,
    U_NUMBER_ARG_OUTOFBOUNDS_ERROR,
    U_NUMBER_SKELETON_SYNTAX_ERROR,





    U_FMT_PARSE_ERROR_LIMIT = 0x10114,





    U_BRK_INTERNAL_ERROR=0x10200,
    U_BRK_ERROR_START=0x10200,
    U_BRK_HEX_DIGITS_EXPECTED,
    U_BRK_SEMICOLON_EXPECTED,
    U_BRK_RULE_SYNTAX,
    U_BRK_UNCLOSED_SET,
    U_BRK_ASSIGN_ERROR,
    U_BRK_VARIABLE_REDFINITION,
    U_BRK_MISMATCHED_PAREN,
    U_BRK_NEW_LINE_IN_QUOTED_STRING,
    U_BRK_UNDEFINED_VARIABLE,
    U_BRK_INIT_ERROR,
    U_BRK_RULE_EMPTY_SET,
    U_BRK_UNRECOGNIZED_OPTION,
    U_BRK_MALFORMED_RULE_TAG,





    U_BRK_ERROR_LIMIT,





    U_REGEX_INTERNAL_ERROR=0x10300,
    U_REGEX_ERROR_START=0x10300,
    U_REGEX_RULE_SYNTAX,
    U_REGEX_INVALID_STATE,
    U_REGEX_BAD_ESCAPE_SEQUENCE,
    U_REGEX_PROPERTY_SYNTAX,
    U_REGEX_UNIMPLEMENTED,
    U_REGEX_MISMATCHED_PAREN,
    U_REGEX_NUMBER_TOO_BIG,
    U_REGEX_BAD_INTERVAL,
    U_REGEX_MAX_LT_MIN,
    U_REGEX_INVALID_BACK_REF,
    U_REGEX_INVALID_FLAG,
    U_REGEX_LOOK_BEHIND_LIMIT,
    U_REGEX_SET_CONTAINS_STRING,

    U_REGEX_OCTAL_TOO_BIG,

    U_REGEX_MISSING_CLOSE_BRACKET=U_REGEX_SET_CONTAINS_STRING+2,
    U_REGEX_INVALID_RANGE,
    U_REGEX_STACK_OVERFLOW,
    U_REGEX_TIME_OUT,
    U_REGEX_STOPPED_BY_CALLER,
    U_REGEX_PATTERN_TOO_BIG,
    U_REGEX_INVALID_CAPTURE_GROUP_NAME,





    U_REGEX_ERROR_LIMIT=U_REGEX_STOPPED_BY_CALLER+3,





    U_IDNA_PROHIBITED_ERROR=0x10400,
    U_IDNA_ERROR_START=0x10400,
    U_IDNA_UNASSIGNED_ERROR,
    U_IDNA_CHECK_BIDI_ERROR,
    U_IDNA_STD3_ASCII_RULES_ERROR,
    U_IDNA_ACE_PREFIX_ERROR,
    U_IDNA_VERIFICATION_ERROR,
    U_IDNA_LABEL_TOO_LONG_ERROR,
    U_IDNA_ZERO_LENGTH_LABEL_ERROR,
    U_IDNA_DOMAIN_NAME_TOO_LONG_ERROR,





    U_IDNA_ERROR_LIMIT,




    U_STRINGPREP_PROHIBITED_ERROR = U_IDNA_PROHIBITED_ERROR,
    U_STRINGPREP_UNASSIGNED_ERROR = U_IDNA_UNASSIGNED_ERROR,
    U_STRINGPREP_CHECK_BIDI_ERROR = U_IDNA_CHECK_BIDI_ERROR,




    U_PLUGIN_ERROR_START=0x10500,
    U_PLUGIN_TOO_HIGH=0x10500,
    U_PLUGIN_DIDNT_SET_LEVEL,





    U_PLUGIN_ERROR_LIMIT,







    U_ERROR_LIMIT=U_PLUGIN_ERROR_LIMIT

} UErrorCode;
# 691 "../deps/icu-small/source/common/unicode/utypes.h"
    static
    inline UBool U_SUCCESS(UErrorCode code) { return (UBool)(code<=U_ZERO_ERROR); }




    static
    inline UBool U_FAILURE(UErrorCode code) { return (UBool)(code>U_ZERO_ERROR); }
# 718 "../deps/icu-small/source/common/unicode/utypes.h"
extern "C" const char *
u_errorName_67(UErrorCode code);
# 28 "../deps/icu-small/source/common/utf_impl.cpp" 2
# 1 "../deps/icu-small/source/common/unicode/utf.h" 1
# 29 "../deps/icu-small/source/common/utf_impl.cpp" 2
# 1 "../deps/icu-small/source/common/unicode/utf8.h" 1
# 125 "../deps/icu-small/source/common/unicode/utf8.h"
extern "C" UChar32
utf8_nextCharSafeBody_67(const uint8_t *s, int32_t *pi, int32_t length, UChar32 c, UBool strict);
# 137 "../deps/icu-small/source/common/unicode/utf8.h"
extern "C" int32_t
utf8_appendCharSafeBody_67(uint8_t *s, int32_t i, int32_t length, UChar32 c, UBool *pIsError);
# 149 "../deps/icu-small/source/common/unicode/utf8.h"
extern "C" UChar32
utf8_prevCharSafeBody_67(const uint8_t *s, int32_t start, int32_t *pi, UChar32 c, UBool strict);
# 161 "../deps/icu-small/source/common/unicode/utf8.h"
extern "C" int32_t
utf8_back1SafeBody_67(const uint8_t *s, int32_t start, int32_t i);
# 30 "../deps/icu-small/source/common/utf_impl.cpp" 2
# 1 "../deps/icu-small/source/common/uassert.h" 1
# 23 "../deps/icu-small/source/common/uassert.h"
# 1 "/usr/include/c++/9/stdlib.h" 1 3
# 36 "/usr/include/c++/9/stdlib.h" 3
# 1 "/usr/include/c++/9/cstdlib" 1 3
# 39 "/usr/include/c++/9/cstdlib" 3
       
# 40 "/usr/include/c++/9/cstdlib" 3

# 1 "/usr/include/x86_64-linux-gnu/c++/9/bits/c++config.h" 1 3
# 252 "/usr/include/x86_64-linux-gnu/c++/9/bits/c++config.h" 3

# 252 "/usr/include/x86_64-linux-gnu/c++/9/bits/c++config.h" 3
namespace std
{
  typedef long unsigned int size_t;
  typedef long int ptrdiff_t;


  typedef decltype(nullptr) nullptr_t;

}
# 274 "/usr/include/x86_64-linux-gnu/c++/9/bits/c++config.h" 3
namespace std
{
  inline namespace __cxx11 __attribute__((__abi_tag__ ("cxx11"))) { }
}
namespace __gnu_cxx
{
  inline namespace __cxx11 __attribute__((__abi_tag__ ("cxx11"))) { }
}
# 524 "/usr/include/x86_64-linux-gnu/c++/9/bits/c++config.h" 3
# 1 "/usr/include/x86_64-linux-gnu/c++/9/bits/os_defines.h" 1 3
# 525 "/usr/include/x86_64-linux-gnu/c++/9/bits/c++config.h" 2 3


# 1 "/usr/include/x86_64-linux-gnu/c++/9/bits/cpu_defines.h" 1 3
# 528 "/usr/include/x86_64-linux-gnu/c++/9/bits/c++config.h" 2 3
# 42 "/usr/include/c++/9/cstdlib" 2 3
# 75 "/usr/include/c++/9/cstdlib" 3
# 1 "/usr/include/stdlib.h" 1 3 4
# 25 "/usr/include/stdlib.h" 3 4
# 1 "/usr/include/x86_64-linux-gnu/bits/libc-header-start.h" 1 3 4
# 26 "/usr/include/stdlib.h" 2 3 4





# 1 "/usr/lib/gcc/x86_64-linux-gnu/9/include/stddef.h" 1 3 4
# 32 "/usr/include/stdlib.h" 2 3 4

extern "C" {





# 1 "/usr/include/x86_64-linux-gnu/bits/waitflags.h" 1 3 4
# 52 "/usr/include/x86_64-linux-gnu/bits/waitflags.h" 3 4
typedef enum
{
  P_ALL,
  P_PID,
  P_PGID
} idtype_t;
# 40 "/usr/include/stdlib.h" 2 3 4
# 1 "/usr/include/x86_64-linux-gnu/bits/waitstatus.h" 1 3 4
# 41 "/usr/include/stdlib.h" 2 3 4
# 55 "/usr/include/stdlib.h" 3 4
# 1 "/usr/include/x86_64-linux-gnu/bits/floatn.h" 1 3 4
# 75 "/usr/include/x86_64-linux-gnu/bits/floatn.h" 3 4
typedef _Complex float __cfloat128 __attribute__ ((__mode__ (__TC__)));
# 87 "/usr/include/x86_64-linux-gnu/bits/floatn.h" 3 4
typedef __float128 _Float128;
# 120 "/usr/include/x86_64-linux-gnu/bits/floatn.h" 3 4
# 1 "/usr/include/x86_64-linux-gnu/bits/floatn-common.h" 1 3 4
# 24 "/usr/include/x86_64-linux-gnu/bits/floatn-common.h" 3 4
# 1 "/usr/include/x86_64-linux-gnu/bits/long-double.h" 1 3 4
# 25 "/usr/include/x86_64-linux-gnu/bits/floatn-common.h" 2 3 4
# 214 "/usr/include/x86_64-linux-gnu/bits/floatn-common.h" 3 4
typedef float _Float32;
# 251 "/usr/include/x86_64-linux-gnu/bits/floatn-common.h" 3 4
typedef double _Float64;
# 268 "/usr/include/x86_64-linux-gnu/bits/floatn-common.h" 3 4
typedef double _Float32x;
# 285 "/usr/include/x86_64-linux-gnu/bits/floatn-common.h" 3 4
typedef long double _Float64x;
# 121 "/usr/include/x86_64-linux-gnu/bits/floatn.h" 2 3 4
# 56 "/usr/include/stdlib.h" 2 3 4


typedef struct
  {
    int quot;
    int rem;
  } div_t;



typedef struct
  {
    long int quot;
    long int rem;
  } ldiv_t;





__extension__ typedef struct
  {
    long long int quot;
    long long int rem;
  } lldiv_t;
# 97 "/usr/include/stdlib.h" 3 4
extern size_t __ctype_get_mb_cur_max (void) throw () __attribute__ ((__warn_unused_result__));



extern double atof (const char *__nptr)
     throw () __attribute__ ((__pure__)) __attribute__ ((__nonnull__ (1))) __attribute__ ((__warn_unused_result__));

extern int atoi (const char *__nptr)
     throw () __attribute__ ((__pure__)) __attribute__ ((__nonnull__ (1))) __attribute__ ((__warn_unused_result__));

extern long int atol (const char *__nptr)
     throw () __attribute__ ((__pure__)) __attribute__ ((__nonnull__ (1))) __attribute__ ((__warn_unused_result__));



__extension__ extern long long int atoll (const char *__nptr)
     throw () __attribute__ ((__pure__)) __attribute__ ((__nonnull__ (1))) __attribute__ ((__warn_unused_result__));



extern double strtod (const char *__restrict __nptr,
        char **__restrict __endptr)
     throw () __attribute__ ((__nonnull__ (1)));



extern float strtof (const char *__restrict __nptr,
       char **__restrict __endptr) throw () __attribute__ ((__nonnull__ (1)));

extern long double strtold (const char *__restrict __nptr,
       char **__restrict __endptr)
     throw () __attribute__ ((__nonnull__ (1)));
# 140 "/usr/include/stdlib.h" 3 4
extern _Float32 strtof32 (const char *__restrict __nptr,
     char **__restrict __endptr)
     throw () __attribute__ ((__nonnull__ (1)));



extern _Float64 strtof64 (const char *__restrict __nptr,
     char **__restrict __endptr)
     throw () __attribute__ ((__nonnull__ (1)));



extern _Float128 strtof128 (const char *__restrict __nptr,
       char **__restrict __endptr)
     throw () __attribute__ ((__nonnull__ (1)));



extern _Float32x strtof32x (const char *__restrict __nptr,
       char **__restrict __endptr)
     throw () __attribute__ ((__nonnull__ (1)));



extern _Float64x strtof64x (const char *__restrict __nptr,
       char **__restrict __endptr)
     throw () __attribute__ ((__nonnull__ (1)));
# 176 "/usr/include/stdlib.h" 3 4
extern long int strtol (const char *__restrict __nptr,
   char **__restrict __endptr, int __base)
     throw () __attribute__ ((__nonnull__ (1)));

extern unsigned long int strtoul (const char *__restrict __nptr,
      char **__restrict __endptr, int __base)
     throw () __attribute__ ((__nonnull__ (1)));



__extension__
extern long long int strtoq (const char *__restrict __nptr,
        char **__restrict __endptr, int __base)
     throw () __attribute__ ((__nonnull__ (1)));

__extension__
extern unsigned long long int strtouq (const char *__restrict __nptr,
           char **__restrict __endptr, int __base)
     throw () __attribute__ ((__nonnull__ (1)));




__extension__
extern long long int strtoll (const char *__restrict __nptr,
         char **__restrict __endptr, int __base)
     throw () __attribute__ ((__nonnull__ (1)));

__extension__
extern unsigned long long int strtoull (const char *__restrict __nptr,
     char **__restrict __endptr, int __base)
     throw () __attribute__ ((__nonnull__ (1)));




extern int strfromd (char *__dest, size_t __size, const char *__format,
       double __f)
     throw () __attribute__ ((__nonnull__ (3)));

extern int strfromf (char *__dest, size_t __size, const char *__format,
       float __f)
     throw () __attribute__ ((__nonnull__ (3)));

extern int strfroml (char *__dest, size_t __size, const char *__format,
       long double __f)
     throw () __attribute__ ((__nonnull__ (3)));
# 232 "/usr/include/stdlib.h" 3 4
extern int strfromf32 (char *__dest, size_t __size, const char * __format,
         _Float32 __f)
     throw () __attribute__ ((__nonnull__ (3)));



extern int strfromf64 (char *__dest, size_t __size, const char * __format,
         _Float64 __f)
     throw () __attribute__ ((__nonnull__ (3)));



extern int strfromf128 (char *__dest, size_t __size, const char * __format,
   _Float128 __f)
     throw () __attribute__ ((__nonnull__ (3)));



extern int strfromf32x (char *__dest, size_t __size, const char * __format,
   _Float32x __f)
     throw () __attribute__ ((__nonnull__ (3)));



extern int strfromf64x (char *__dest, size_t __size, const char * __format,
   _Float64x __f)
     throw () __attribute__ ((__nonnull__ (3)));
# 272 "/usr/include/stdlib.h" 3 4
# 1 "/usr/include/x86_64-linux-gnu/bits/types/locale_t.h" 1 3 4
# 22 "/usr/include/x86_64-linux-gnu/bits/types/locale_t.h" 3 4
# 1 "/usr/include/x86_64-linux-gnu/bits/types/__locale_t.h" 1 3 4
# 28 "/usr/include/x86_64-linux-gnu/bits/types/__locale_t.h" 3 4
struct __locale_struct
{

  struct __locale_data *__locales[13];


  const unsigned short int *__ctype_b;
  const int *__ctype_tolower;
  const int *__ctype_toupper;


  const char *__names[13];
};

typedef struct __locale_struct *__locale_t;
# 23 "/usr/include/x86_64-linux-gnu/bits/types/locale_t.h" 2 3 4

typedef __locale_t locale_t;
# 273 "/usr/include/stdlib.h" 2 3 4

extern long int strtol_l (const char *__restrict __nptr,
     char **__restrict __endptr, int __base,
     locale_t __loc) throw () __attribute__ ((__nonnull__ (1, 4)));

extern unsigned long int strtoul_l (const char *__restrict __nptr,
        char **__restrict __endptr,
        int __base, locale_t __loc)
     throw () __attribute__ ((__nonnull__ (1, 4)));

__extension__
extern long long int strtoll_l (const char *__restrict __nptr,
    char **__restrict __endptr, int __base,
    locale_t __loc)
     throw () __attribute__ ((__nonnull__ (1, 4)));

__extension__
extern unsigned long long int strtoull_l (const char *__restrict __nptr,
       char **__restrict __endptr,
       int __base, locale_t __loc)
     throw () __attribute__ ((__nonnull__ (1, 4)));

extern double strtod_l (const char *__restrict __nptr,
   char **__restrict __endptr, locale_t __loc)
     throw () __attribute__ ((__nonnull__ (1, 3)));

extern float strtof_l (const char *__restrict __nptr,
         char **__restrict __endptr, locale_t __loc)
     throw () __attribute__ ((__nonnull__ (1, 3)));

extern long double strtold_l (const char *__restrict __nptr,
         char **__restrict __endptr,
         locale_t __loc)
     throw () __attribute__ ((__nonnull__ (1, 3)));
# 316 "/usr/include/stdlib.h" 3 4
extern _Float32 strtof32_l (const char *__restrict __nptr,
       char **__restrict __endptr,
       locale_t __loc)
     throw () __attribute__ ((__nonnull__ (1, 3)));



extern _Float64 strtof64_l (const char *__restrict __nptr,
       char **__restrict __endptr,
       locale_t __loc)
     throw () __attribute__ ((__nonnull__ (1, 3)));



extern _Float128 strtof128_l (const char *__restrict __nptr,
         char **__restrict __endptr,
         locale_t __loc)
     throw () __attribute__ ((__nonnull__ (1, 3)));



extern _Float32x strtof32x_l (const char *__restrict __nptr,
         char **__restrict __endptr,
         locale_t __loc)
     throw () __attribute__ ((__nonnull__ (1, 3)));



extern _Float64x strtof64x_l (const char *__restrict __nptr,
         char **__restrict __endptr,
         locale_t __loc)
     throw () __attribute__ ((__nonnull__ (1, 3)));
# 360 "/usr/include/stdlib.h" 3 4
extern __inline __attribute__ ((__gnu_inline__)) int
__attribute__ ((__leaf__)) atoi (const char *__nptr) throw ()
{
  return (int) strtol (__nptr, (char **) __null, 10);
}
extern __inline __attribute__ ((__gnu_inline__)) long int
__attribute__ ((__leaf__)) atol (const char *__nptr) throw ()
{
  return strtol (__nptr, (char **) __null, 10);
}


__extension__ extern __inline __attribute__ ((__gnu_inline__)) long long int
__attribute__ ((__leaf__)) atoll (const char *__nptr) throw ()
{
  return strtoll (__nptr, (char **) __null, 10);
}
# 385 "/usr/include/stdlib.h" 3 4
extern char *l64a (long int __n) throw () __attribute__ ((__warn_unused_result__));


extern long int a64l (const char *__s)
     throw () __attribute__ ((__pure__)) __attribute__ ((__nonnull__ (1))) __attribute__ ((__warn_unused_result__));




# 1 "/usr/include/x86_64-linux-gnu/sys/types.h" 1 3 4
# 27 "/usr/include/x86_64-linux-gnu/sys/types.h" 3 4
extern "C" {





typedef __u_char u_char;
typedef __u_short u_short;
typedef __u_int u_int;
typedef __u_long u_long;
typedef __quad_t quad_t;
typedef __u_quad_t u_quad_t;
typedef __fsid_t fsid_t;


typedef __loff_t loff_t;




typedef __ino_t ino_t;






typedef __ino64_t ino64_t;




typedef __dev_t dev_t;




typedef __gid_t gid_t;




typedef __mode_t mode_t;




typedef __nlink_t nlink_t;




typedef __uid_t uid_t;





typedef __off_t off_t;






typedef __off64_t off64_t;




typedef __pid_t pid_t;





typedef __id_t id_t;




typedef __ssize_t ssize_t;





typedef __daddr_t daddr_t;
typedef __caddr_t caddr_t;





typedef __key_t key_t;




# 1 "/usr/include/x86_64-linux-gnu/bits/types/clock_t.h" 1 3 4






typedef __clock_t clock_t;
# 127 "/usr/include/x86_64-linux-gnu/sys/types.h" 2 3 4

# 1 "/usr/include/x86_64-linux-gnu/bits/types/clockid_t.h" 1 3 4






typedef __clockid_t clockid_t;
# 129 "/usr/include/x86_64-linux-gnu/sys/types.h" 2 3 4
# 1 "/usr/include/x86_64-linux-gnu/bits/types/time_t.h" 1 3 4






typedef __time_t time_t;
# 130 "/usr/include/x86_64-linux-gnu/sys/types.h" 2 3 4
# 1 "/usr/include/x86_64-linux-gnu/bits/types/timer_t.h" 1 3 4






typedef __timer_t timer_t;
# 131 "/usr/include/x86_64-linux-gnu/sys/types.h" 2 3 4



typedef __useconds_t useconds_t;



typedef __suseconds_t suseconds_t;





# 1 "/usr/lib/gcc/x86_64-linux-gnu/9/include/stddef.h" 1 3 4
# 145 "/usr/include/x86_64-linux-gnu/sys/types.h" 2 3 4



typedef unsigned long int ulong;
typedef unsigned short int ushort;
typedef unsigned int uint;







typedef __uint8_t u_int8_t;
typedef __uint16_t u_int16_t;
typedef __uint32_t u_int32_t;
typedef __uint64_t u_int64_t;


typedef int register_t __attribute__ ((__mode__ (__word__)));
# 176 "/usr/include/x86_64-linux-gnu/sys/types.h" 3 4
# 1 "/usr/include/endian.h" 1 3 4
# 24 "/usr/include/endian.h" 3 4
# 1 "/usr/include/x86_64-linux-gnu/bits/endian.h" 1 3 4
# 35 "/usr/include/x86_64-linux-gnu/bits/endian.h" 3 4
# 1 "/usr/include/x86_64-linux-gnu/bits/endianness.h" 1 3 4
# 36 "/usr/include/x86_64-linux-gnu/bits/endian.h" 2 3 4
# 25 "/usr/include/endian.h" 2 3 4
# 35 "/usr/include/endian.h" 3 4
# 1 "/usr/include/x86_64-linux-gnu/bits/byteswap.h" 1 3 4
# 33 "/usr/include/x86_64-linux-gnu/bits/byteswap.h" 3 4
static __inline __uint16_t
__bswap_16 (__uint16_t __bsx)
{

  return __builtin_bswap16 (__bsx);



}






static __inline __uint32_t
__bswap_32 (__uint32_t __bsx)
{

  return __builtin_bswap32 (__bsx);



}
# 69 "/usr/include/x86_64-linux-gnu/bits/byteswap.h" 3 4
__extension__ static __inline __uint64_t
__bswap_64 (__uint64_t __bsx)
{

  return __builtin_bswap64 (__bsx);



}
# 36 "/usr/include/endian.h" 2 3 4
# 1 "/usr/include/x86_64-linux-gnu/bits/uintn-identity.h" 1 3 4
# 32 "/usr/include/x86_64-linux-gnu/bits/uintn-identity.h" 3 4
static __inline __uint16_t
__uint16_identity (__uint16_t __x)
{
  return __x;
}

static __inline __uint32_t
__uint32_identity (__uint32_t __x)
{
  return __x;
}

static __inline __uint64_t
__uint64_identity (__uint64_t __x)
{
  return __x;
}
# 37 "/usr/include/endian.h" 2 3 4
# 177 "/usr/include/x86_64-linux-gnu/sys/types.h" 2 3 4


# 1 "/usr/include/x86_64-linux-gnu/sys/select.h" 1 3 4
# 30 "/usr/include/x86_64-linux-gnu/sys/select.h" 3 4
# 1 "/usr/include/x86_64-linux-gnu/bits/select.h" 1 3 4
# 22 "/usr/include/x86_64-linux-gnu/bits/select.h" 3 4
# 1 "/usr/include/x86_64-linux-gnu/bits/wordsize.h" 1 3 4
# 23 "/usr/include/x86_64-linux-gnu/bits/select.h" 2 3 4
# 31 "/usr/include/x86_64-linux-gnu/sys/select.h" 2 3 4


# 1 "/usr/include/x86_64-linux-gnu/bits/types/sigset_t.h" 1 3 4



# 1 "/usr/include/x86_64-linux-gnu/bits/types/__sigset_t.h" 1 3 4




typedef struct
{
  unsigned long int __val[(1024 / (8 * sizeof (unsigned long int)))];
} __sigset_t;
# 5 "/usr/include/x86_64-linux-gnu/bits/types/sigset_t.h" 2 3 4


typedef __sigset_t sigset_t;
# 34 "/usr/include/x86_64-linux-gnu/sys/select.h" 2 3 4



# 1 "/usr/include/x86_64-linux-gnu/bits/types/struct_timeval.h" 1 3 4







struct timeval
{
  __time_t tv_sec;
  __suseconds_t tv_usec;
};
# 38 "/usr/include/x86_64-linux-gnu/sys/select.h" 2 3 4

# 1 "/usr/include/x86_64-linux-gnu/bits/types/struct_timespec.h" 1 3 4
# 10 "/usr/include/x86_64-linux-gnu/bits/types/struct_timespec.h" 3 4
struct timespec
{
  __time_t tv_sec;



  __syscall_slong_t tv_nsec;
# 26 "/usr/include/x86_64-linux-gnu/bits/types/struct_timespec.h" 3 4
};
# 40 "/usr/include/x86_64-linux-gnu/sys/select.h" 2 3 4
# 49 "/usr/include/x86_64-linux-gnu/sys/select.h" 3 4
typedef long int __fd_mask;
# 59 "/usr/include/x86_64-linux-gnu/sys/select.h" 3 4
typedef struct
  {



    __fd_mask fds_bits[1024 / (8 * (int) sizeof (__fd_mask))];





  } fd_set;






typedef __fd_mask fd_mask;
# 91 "/usr/include/x86_64-linux-gnu/sys/select.h" 3 4
extern "C" {
# 101 "/usr/include/x86_64-linux-gnu/sys/select.h" 3 4
extern int select (int __nfds, fd_set *__restrict __readfds,
     fd_set *__restrict __writefds,
     fd_set *__restrict __exceptfds,
     struct timeval *__restrict __timeout);
# 113 "/usr/include/x86_64-linux-gnu/sys/select.h" 3 4
extern int pselect (int __nfds, fd_set *__restrict __readfds,
      fd_set *__restrict __writefds,
      fd_set *__restrict __exceptfds,
      const struct timespec *__restrict __timeout,
      const __sigset_t *__restrict __sigmask);





# 1 "/usr/include/x86_64-linux-gnu/bits/select2.h" 1 3 4
# 24 "/usr/include/x86_64-linux-gnu/bits/select2.h" 3 4
extern long int __fdelt_chk (long int __d);
extern long int __fdelt_warn (long int __d)
  __attribute__((__warning__ ("bit outside of fd_set selected")));
# 124 "/usr/include/x86_64-linux-gnu/sys/select.h" 2 3 4


}
# 180 "/usr/include/x86_64-linux-gnu/sys/types.h" 2 3 4





typedef __blksize_t blksize_t;






typedef __blkcnt_t blkcnt_t;



typedef __fsblkcnt_t fsblkcnt_t;



typedef __fsfilcnt_t fsfilcnt_t;
# 219 "/usr/include/x86_64-linux-gnu/sys/types.h" 3 4
typedef __blkcnt64_t blkcnt64_t;
typedef __fsblkcnt64_t fsblkcnt64_t;
typedef __fsfilcnt64_t fsfilcnt64_t;





# 1 "/usr/include/x86_64-linux-gnu/bits/pthreadtypes.h" 1 3 4
# 23 "/usr/include/x86_64-linux-gnu/bits/pthreadtypes.h" 3 4
# 1 "/usr/include/x86_64-linux-gnu/bits/thread-shared-types.h" 1 3 4
# 44 "/usr/include/x86_64-linux-gnu/bits/thread-shared-types.h" 3 4
# 1 "/usr/include/x86_64-linux-gnu/bits/pthreadtypes-arch.h" 1 3 4
# 21 "/usr/include/x86_64-linux-gnu/bits/pthreadtypes-arch.h" 3 4
# 1 "/usr/include/x86_64-linux-gnu/bits/wordsize.h" 1 3 4
# 22 "/usr/include/x86_64-linux-gnu/bits/pthreadtypes-arch.h" 2 3 4
# 45 "/usr/include/x86_64-linux-gnu/bits/thread-shared-types.h" 2 3 4




typedef struct __pthread_internal_list
{
  struct __pthread_internal_list *__prev;
  struct __pthread_internal_list *__next;
} __pthread_list_t;

typedef struct __pthread_internal_slist
{
  struct __pthread_internal_slist *__next;
} __pthread_slist_t;
# 74 "/usr/include/x86_64-linux-gnu/bits/thread-shared-types.h" 3 4
# 1 "/usr/include/x86_64-linux-gnu/bits/struct_mutex.h" 1 3 4
# 22 "/usr/include/x86_64-linux-gnu/bits/struct_mutex.h" 3 4
struct __pthread_mutex_s
{
  int __lock;
  unsigned int __count;
  int __owner;

  unsigned int __nusers;



  int __kind;

  short __spins;
  short __elision;
  __pthread_list_t __list;
# 53 "/usr/include/x86_64-linux-gnu/bits/struct_mutex.h" 3 4
};
# 75 "/usr/include/x86_64-linux-gnu/bits/thread-shared-types.h" 2 3 4
# 87 "/usr/include/x86_64-linux-gnu/bits/thread-shared-types.h" 3 4
# 1 "/usr/include/x86_64-linux-gnu/bits/struct_rwlock.h" 1 3 4
# 23 "/usr/include/x86_64-linux-gnu/bits/struct_rwlock.h" 3 4
struct __pthread_rwlock_arch_t
{
  unsigned int __readers;
  unsigned int __writers;
  unsigned int __wrphase_futex;
  unsigned int __writers_futex;
  unsigned int __pad3;
  unsigned int __pad4;

  int __cur_writer;
  int __shared;
  signed char __rwelision;




  unsigned char __pad1[7];


  unsigned long int __pad2;


  unsigned int __flags;
# 55 "/usr/include/x86_64-linux-gnu/bits/struct_rwlock.h" 3 4
};
# 88 "/usr/include/x86_64-linux-gnu/bits/thread-shared-types.h" 2 3 4




struct __pthread_cond_s
{
  __extension__ union
  {
    __extension__ unsigned long long int __wseq;
    struct
    {
      unsigned int __low;
      unsigned int __high;
    } __wseq32;
  };
  __extension__ union
  {
    __extension__ unsigned long long int __g1_start;
    struct
    {
      unsigned int __low;
      unsigned int __high;
    } __g1_start32;
  };
  unsigned int __g_refs[2] ;
  unsigned int __g_size[2];
  unsigned int __g1_orig_size;
  unsigned int __wrefs;
  unsigned int __g_signals[2];
};
# 24 "/usr/include/x86_64-linux-gnu/bits/pthreadtypes.h" 2 3 4



typedef unsigned long int pthread_t;




typedef union
{
  char __size[4];
  int __align;
} pthread_mutexattr_t;




typedef union
{
  char __size[4];
  int __align;
} pthread_condattr_t;



typedef unsigned int pthread_key_t;



typedef int pthread_once_t;


union pthread_attr_t
{
  char __size[56];
  long int __align;
};

typedef union pthread_attr_t pthread_attr_t;




typedef union
{
  struct __pthread_mutex_s __data;
  char __size[40];
  long int __align;
} pthread_mutex_t;


typedef union
{
  struct __pthread_cond_s __data;
  char __size[48];
  __extension__ long long int __align;
} pthread_cond_t;





typedef union
{
  struct __pthread_rwlock_arch_t __data;
  char __size[56];
  long int __align;
} pthread_rwlock_t;

typedef union
{
  char __size[8];
  long int __align;
} pthread_rwlockattr_t;





typedef volatile int pthread_spinlock_t;




typedef union
{
  char __size[32];
  long int __align;
} pthread_barrier_t;

typedef union
{
  char __size[4];
  int __align;
} pthread_barrierattr_t;
# 228 "/usr/include/x86_64-linux-gnu/sys/types.h" 2 3 4


}
# 395 "/usr/include/stdlib.h" 2 3 4






extern long int random (void) throw ();


extern void srandom (unsigned int __seed) throw ();





extern char *initstate (unsigned int __seed, char *__statebuf,
   size_t __statelen) throw () __attribute__ ((__nonnull__ (2)));



extern char *setstate (char *__statebuf) throw () __attribute__ ((__nonnull__ (1)));







struct random_data
  {
    int32_t *fptr;
    int32_t *rptr;
    int32_t *state;
    int rand_type;
    int rand_deg;
    int rand_sep;
    int32_t *end_ptr;
  };

extern int random_r (struct random_data *__restrict __buf,
       int32_t *__restrict __result) throw () __attribute__ ((__nonnull__ (1, 2)));

extern int srandom_r (unsigned int __seed, struct random_data *__buf)
     throw () __attribute__ ((__nonnull__ (2)));

extern int initstate_r (unsigned int __seed, char *__restrict __statebuf,
   size_t __statelen,
   struct random_data *__restrict __buf)
     throw () __attribute__ ((__nonnull__ (2, 4)));

extern int setstate_r (char *__restrict __statebuf,
         struct random_data *__restrict __buf)
     throw () __attribute__ ((__nonnull__ (1, 2)));





extern int rand (void) throw ();

extern void srand (unsigned int __seed) throw ();



extern int rand_r (unsigned int *__seed) throw ();







extern double drand48 (void) throw ();
extern double erand48 (unsigned short int __xsubi[3]) throw () __attribute__ ((__nonnull__ (1)));


extern long int lrand48 (void) throw ();
extern long int nrand48 (unsigned short int __xsubi[3])
     throw () __attribute__ ((__nonnull__ (1)));


extern long int mrand48 (void) throw ();
extern long int jrand48 (unsigned short int __xsubi[3])
     throw () __attribute__ ((__nonnull__ (1)));


extern void srand48 (long int __seedval) throw ();
extern unsigned short int *seed48 (unsigned short int __seed16v[3])
     throw () __attribute__ ((__nonnull__ (1)));
extern void lcong48 (unsigned short int __param[7]) throw () __attribute__ ((__nonnull__ (1)));





struct drand48_data
  {
    unsigned short int __x[3];
    unsigned short int __old_x[3];
    unsigned short int __c;
    unsigned short int __init;
    __extension__ unsigned long long int __a;

  };


extern int drand48_r (struct drand48_data *__restrict __buffer,
        double *__restrict __result) throw () __attribute__ ((__nonnull__ (1, 2)));
extern int erand48_r (unsigned short int __xsubi[3],
        struct drand48_data *__restrict __buffer,
        double *__restrict __result) throw () __attribute__ ((__nonnull__ (1, 2)));


extern int lrand48_r (struct drand48_data *__restrict __buffer,
        long int *__restrict __result)
     throw () __attribute__ ((__nonnull__ (1, 2)));
extern int nrand48_r (unsigned short int __xsubi[3],
        struct drand48_data *__restrict __buffer,
        long int *__restrict __result)
     throw () __attribute__ ((__nonnull__ (1, 2)));


extern int mrand48_r (struct drand48_data *__restrict __buffer,
        long int *__restrict __result)
     throw () __attribute__ ((__nonnull__ (1, 2)));
extern int jrand48_r (unsigned short int __xsubi[3],
        struct drand48_data *__restrict __buffer,
        long int *__restrict __result)
     throw () __attribute__ ((__nonnull__ (1, 2)));


extern int srand48_r (long int __seedval, struct drand48_data *__buffer)
     throw () __attribute__ ((__nonnull__ (2)));

extern int seed48_r (unsigned short int __seed16v[3],
       struct drand48_data *__buffer) throw () __attribute__ ((__nonnull__ (1, 2)));

extern int lcong48_r (unsigned short int __param[7],
        struct drand48_data *__buffer)
     throw () __attribute__ ((__nonnull__ (1, 2)));




extern void *malloc (size_t __size) throw () __attribute__ ((__malloc__))
     __attribute__ ((__alloc_size__ (1))) __attribute__ ((__warn_unused_result__));

extern void *calloc (size_t __nmemb, size_t __size)
     throw () __attribute__ ((__malloc__)) __attribute__ ((__alloc_size__ (1, 2))) __attribute__ ((__warn_unused_result__));






extern void *realloc (void *__ptr, size_t __size)
     throw () __attribute__ ((__warn_unused_result__)) __attribute__ ((__alloc_size__ (2)));







extern void *reallocarray (void *__ptr, size_t __nmemb, size_t __size)
     throw () __attribute__ ((__warn_unused_result__))
     __attribute__ ((__alloc_size__ (2, 3)));



extern void free (void *__ptr) throw ();


# 1 "/usr/include/alloca.h" 1 3 4
# 24 "/usr/include/alloca.h" 3 4
# 1 "/usr/lib/gcc/x86_64-linux-gnu/9/include/stddef.h" 1 3 4
# 25 "/usr/include/alloca.h" 2 3 4

extern "C" {





extern void *alloca (size_t __size) throw ();





}
# 569 "/usr/include/stdlib.h" 2 3 4





extern void *valloc (size_t __size) throw () __attribute__ ((__malloc__))
     __attribute__ ((__alloc_size__ (1))) __attribute__ ((__warn_unused_result__));




extern int posix_memalign (void **__memptr, size_t __alignment, size_t __size)
     throw () __attribute__ ((__nonnull__ (1))) __attribute__ ((__warn_unused_result__));




extern void *aligned_alloc (size_t __alignment, size_t __size)
     throw () __attribute__ ((__malloc__)) __attribute__ ((__alloc_size__ (2))) __attribute__ ((__warn_unused_result__));



extern void abort (void) throw () __attribute__ ((__noreturn__));



extern int atexit (void (*__func) (void)) throw () __attribute__ ((__nonnull__ (1)));




extern "C++" int at_quick_exit (void (*__func) (void))
     throw () __asm ("at_quick_exit") __attribute__ ((__nonnull__ (1)));
# 610 "/usr/include/stdlib.h" 3 4
extern int on_exit (void (*__func) (int __status, void *__arg), void *__arg)
     throw () __attribute__ ((__nonnull__ (1)));





extern void exit (int __status) throw () __attribute__ ((__noreturn__));





extern void quick_exit (int __status) throw () __attribute__ ((__noreturn__));





extern void _Exit (int __status) throw () __attribute__ ((__noreturn__));




extern char *getenv (const char *__name) throw () __attribute__ ((__nonnull__ (1))) __attribute__ ((__warn_unused_result__));




extern char *secure_getenv (const char *__name)
     throw () __attribute__ ((__nonnull__ (1))) __attribute__ ((__warn_unused_result__));






extern int putenv (char *__string) throw () __attribute__ ((__nonnull__ (1)));





extern int setenv (const char *__name, const char *__value, int __replace)
     throw () __attribute__ ((__nonnull__ (2)));


extern int unsetenv (const char *__name) throw () __attribute__ ((__nonnull__ (1)));






extern int clearenv (void) throw ();
# 675 "/usr/include/stdlib.h" 3 4
extern char *mktemp (char *__template) throw () __attribute__ ((__nonnull__ (1)));
# 688 "/usr/include/stdlib.h" 3 4
extern int mkstemp (char *__template) __attribute__ ((__nonnull__ (1))) __attribute__ ((__warn_unused_result__));
# 698 "/usr/include/stdlib.h" 3 4
extern int mkstemp64 (char *__template) __attribute__ ((__nonnull__ (1))) __attribute__ ((__warn_unused_result__));
# 710 "/usr/include/stdlib.h" 3 4
extern int mkstemps (char *__template, int __suffixlen) __attribute__ ((__nonnull__ (1))) __attribute__ ((__warn_unused_result__));
# 720 "/usr/include/stdlib.h" 3 4
extern int mkstemps64 (char *__template, int __suffixlen)
     __attribute__ ((__nonnull__ (1))) __attribute__ ((__warn_unused_result__));
# 731 "/usr/include/stdlib.h" 3 4
extern char *mkdtemp (char *__template) throw () __attribute__ ((__nonnull__ (1))) __attribute__ ((__warn_unused_result__));
# 742 "/usr/include/stdlib.h" 3 4
extern int mkostemp (char *__template, int __flags) __attribute__ ((__nonnull__ (1))) __attribute__ ((__warn_unused_result__));
# 752 "/usr/include/stdlib.h" 3 4
extern int mkostemp64 (char *__template, int __flags) __attribute__ ((__nonnull__ (1))) __attribute__ ((__warn_unused_result__));
# 762 "/usr/include/stdlib.h" 3 4
extern int mkostemps (char *__template, int __suffixlen, int __flags)
     __attribute__ ((__nonnull__ (1))) __attribute__ ((__warn_unused_result__));
# 774 "/usr/include/stdlib.h" 3 4
extern int mkostemps64 (char *__template, int __suffixlen, int __flags)
     __attribute__ ((__nonnull__ (1))) __attribute__ ((__warn_unused_result__));
# 784 "/usr/include/stdlib.h" 3 4
extern int system (const char *__command) __attribute__ ((__warn_unused_result__));





extern char *canonicalize_file_name (const char *__name)
     throw () __attribute__ ((__nonnull__ (1))) __attribute__ ((__warn_unused_result__));
# 800 "/usr/include/stdlib.h" 3 4
extern char *realpath (const char *__restrict __name,
         char *__restrict __resolved) throw () __attribute__ ((__warn_unused_result__));






typedef int (*__compar_fn_t) (const void *, const void *);


typedef __compar_fn_t comparison_fn_t;



typedef int (*__compar_d_fn_t) (const void *, const void *, void *);




extern void *bsearch (const void *__key, const void *__base,
        size_t __nmemb, size_t __size, __compar_fn_t __compar)
     __attribute__ ((__nonnull__ (1, 2, 5))) __attribute__ ((__warn_unused_result__));


# 1 "/usr/include/x86_64-linux-gnu/bits/stdlib-bsearch.h" 1 3 4
# 19 "/usr/include/x86_64-linux-gnu/bits/stdlib-bsearch.h" 3 4
extern __inline __attribute__ ((__gnu_inline__)) void *
bsearch (const void *__key, const void *__base, size_t __nmemb, size_t __size,
  __compar_fn_t __compar)
{
  size_t __l, __u, __idx;
  const void *__p;
  int __comparison;

  __l = 0;
  __u = __nmemb;
  while (__l < __u)
    {
      __idx = (__l + __u) / 2;
      __p = (void *) (((const char *) __base) + (__idx * __size));
      __comparison = (*__compar) (__key, __p);
      if (__comparison < 0)
 __u = __idx;
      else if (__comparison > 0)
 __l = __idx + 1;
      else
 return (void *) __p;
    }

  return __null;
}
# 826 "/usr/include/stdlib.h" 2 3 4




extern void qsort (void *__base, size_t __nmemb, size_t __size,
     __compar_fn_t __compar) __attribute__ ((__nonnull__ (1, 4)));

extern void qsort_r (void *__base, size_t __nmemb, size_t __size,
       __compar_d_fn_t __compar, void *__arg)
  __attribute__ ((__nonnull__ (1, 4)));




extern int abs (int __x) throw () __attribute__ ((__const__)) __attribute__ ((__warn_unused_result__));
extern long int labs (long int __x) throw () __attribute__ ((__const__)) __attribute__ ((__warn_unused_result__));


__extension__ extern long long int llabs (long long int __x)
     throw () __attribute__ ((__const__)) __attribute__ ((__warn_unused_result__));






extern div_t div (int __numer, int __denom)
     throw () __attribute__ ((__const__)) __attribute__ ((__warn_unused_result__));
extern ldiv_t ldiv (long int __numer, long int __denom)
     throw () __attribute__ ((__const__)) __attribute__ ((__warn_unused_result__));


__extension__ extern lldiv_t lldiv (long long int __numer,
        long long int __denom)
     throw () __attribute__ ((__const__)) __attribute__ ((__warn_unused_result__));
# 872 "/usr/include/stdlib.h" 3 4
extern char *ecvt (double __value, int __ndigit, int *__restrict __decpt,
     int *__restrict __sign) throw () __attribute__ ((__nonnull__ (3, 4))) __attribute__ ((__warn_unused_result__));




extern char *fcvt (double __value, int __ndigit, int *__restrict __decpt,
     int *__restrict __sign) throw () __attribute__ ((__nonnull__ (3, 4))) __attribute__ ((__warn_unused_result__));




extern char *gcvt (double __value, int __ndigit, char *__buf)
     throw () __attribute__ ((__nonnull__ (3))) __attribute__ ((__warn_unused_result__));




extern char *qecvt (long double __value, int __ndigit,
      int *__restrict __decpt, int *__restrict __sign)
     throw () __attribute__ ((__nonnull__ (3, 4))) __attribute__ ((__warn_unused_result__));
extern char *qfcvt (long double __value, int __ndigit,
      int *__restrict __decpt, int *__restrict __sign)
     throw () __attribute__ ((__nonnull__ (3, 4))) __attribute__ ((__warn_unused_result__));
extern char *qgcvt (long double __value, int __ndigit, char *__buf)
     throw () __attribute__ ((__nonnull__ (3))) __attribute__ ((__warn_unused_result__));




extern int ecvt_r (double __value, int __ndigit, int *__restrict __decpt,
     int *__restrict __sign, char *__restrict __buf,
     size_t __len) throw () __attribute__ ((__nonnull__ (3, 4, 5)));
extern int fcvt_r (double __value, int __ndigit, int *__restrict __decpt,
     int *__restrict __sign, char *__restrict __buf,
     size_t __len) throw () __attribute__ ((__nonnull__ (3, 4, 5)));

extern int qecvt_r (long double __value, int __ndigit,
      int *__restrict __decpt, int *__restrict __sign,
      char *__restrict __buf, size_t __len)
     throw () __attribute__ ((__nonnull__ (3, 4, 5)));
extern int qfcvt_r (long double __value, int __ndigit,
      int *__restrict __decpt, int *__restrict __sign,
      char *__restrict __buf, size_t __len)
     throw () __attribute__ ((__nonnull__ (3, 4, 5)));





extern int mblen (const char *__s, size_t __n) throw ();


extern int mbtowc (wchar_t *__restrict __pwc,
     const char *__restrict __s, size_t __n) throw ();


extern int wctomb (char *__s, wchar_t __wchar) throw ();



extern size_t mbstowcs (wchar_t *__restrict __pwcs,
   const char *__restrict __s, size_t __n) throw ();

extern size_t wcstombs (char *__restrict __s,
   const wchar_t *__restrict __pwcs, size_t __n)
     throw ();







extern int rpmatch (const char *__response) throw () __attribute__ ((__nonnull__ (1))) __attribute__ ((__warn_unused_result__));
# 957 "/usr/include/stdlib.h" 3 4
extern int getsubopt (char **__restrict __optionp,
        char *const *__restrict __tokens,
        char **__restrict __valuep)
     throw () __attribute__ ((__nonnull__ (1, 2, 3))) __attribute__ ((__warn_unused_result__));







extern int posix_openpt (int __oflag) __attribute__ ((__warn_unused_result__));







extern int grantpt (int __fd) throw ();



extern int unlockpt (int __fd) throw ();




extern char *ptsname (int __fd) throw () __attribute__ ((__warn_unused_result__));






extern int ptsname_r (int __fd, char *__buf, size_t __buflen)
     throw () __attribute__ ((__nonnull__ (2)));


extern int getpt (void);






extern int getloadavg (double __loadavg[], int __nelem)
     throw () __attribute__ ((__nonnull__ (1)));
# 1013 "/usr/include/stdlib.h" 3 4
# 1 "/usr/include/x86_64-linux-gnu/bits/stdlib-float.h" 1 3 4
# 24 "/usr/include/x86_64-linux-gnu/bits/stdlib-float.h" 3 4
extern __inline __attribute__ ((__gnu_inline__)) double
__attribute__ ((__leaf__)) atof (const char *__nptr) throw ()
{
  return strtod (__nptr, (char **) __null);
}
# 1014 "/usr/include/stdlib.h" 2 3 4



# 1 "/usr/include/x86_64-linux-gnu/bits/stdlib.h" 1 3 4
# 23 "/usr/include/x86_64-linux-gnu/bits/stdlib.h" 3 4
extern char *__realpath_chk (const char *__restrict __name,
        char *__restrict __resolved,
        size_t __resolvedlen) throw () __attribute__ ((__warn_unused_result__));
extern char *__realpath_alias (const char *__restrict __name, char *__restrict __resolved) throw () __asm__ ("" "realpath")

                                                 __attribute__ ((__warn_unused_result__));
extern char *__realpath_chk_warn (const char *__restrict __name, char *__restrict __resolved, size_t __resolvedlen) throw () __asm__ ("" "__realpath_chk")


                                                __attribute__ ((__warn_unused_result__))
     __attribute__((__warning__ ("second argument of realpath must be either NULL or at " "least PATH_MAX bytes long buffer")))
                                      ;

extern __inline __attribute__ ((__always_inline__)) __attribute__ ((__gnu_inline__)) __attribute__ ((__artificial__)) __attribute__ ((__warn_unused_result__)) char *
__attribute__ ((__leaf__)) realpath (const char *__restrict __name, char *__restrict __resolved) throw ()
{
  if (__builtin_object_size (__resolved, 2 > 1) != (size_t) -1)
    {




      return __realpath_chk (__name, __resolved, __builtin_object_size (__resolved, 2 > 1));
    }

  return __realpath_alias (__name, __resolved);
}


extern int __ptsname_r_chk (int __fd, char *__buf, size_t __buflen,
       size_t __nreal) throw () __attribute__ ((__nonnull__ (2)));
extern int __ptsname_r_alias (int __fd, char *__buf, size_t __buflen) throw () __asm__ ("" "ptsname_r")

     __attribute__ ((__nonnull__ (2)));
extern int __ptsname_r_chk_warn (int __fd, char *__buf, size_t __buflen, size_t __nreal) throw () __asm__ ("" "__ptsname_r_chk")


     __attribute__ ((__nonnull__ (2))) __attribute__((__warning__ ("ptsname_r called with buflen bigger than " "size of buf")))
                   ;

extern __inline __attribute__ ((__always_inline__)) __attribute__ ((__gnu_inline__)) __attribute__ ((__artificial__)) int
__attribute__ ((__leaf__)) ptsname_r (int __fd, char *__buf, size_t __buflen) throw ()
{
  if (__builtin_object_size (__buf, 2 > 1) != (size_t) -1)
    {
      if (!__builtin_constant_p (__buflen))
 return __ptsname_r_chk (__fd, __buf, __buflen, __builtin_object_size (__buf, 2 > 1));
      if (__buflen > __builtin_object_size (__buf, 2 > 1))
 return __ptsname_r_chk_warn (__fd, __buf, __buflen, __builtin_object_size (__buf, 2 > 1));
    }
  return __ptsname_r_alias (__fd, __buf, __buflen);
}


extern int __wctomb_chk (char *__s, wchar_t __wchar, size_t __buflen)
  throw () __attribute__ ((__warn_unused_result__));
extern int __wctomb_alias (char *__s, wchar_t __wchar) throw () __asm__ ("" "wctomb")
              __attribute__ ((__warn_unused_result__));

extern __inline __attribute__ ((__always_inline__)) __attribute__ ((__gnu_inline__)) __attribute__ ((__artificial__)) __attribute__ ((__warn_unused_result__)) int
__attribute__ ((__leaf__)) wctomb (char *__s, wchar_t __wchar) throw ()
{







  if (__builtin_object_size (__s, 2 > 1) != (size_t) -1 && 16 > __builtin_object_size (__s, 2 > 1))
    return __wctomb_chk (__s, __wchar, __builtin_object_size (__s, 2 > 1));
  return __wctomb_alias (__s, __wchar);
}


extern size_t __mbstowcs_chk (wchar_t *__restrict __dst,
         const char *__restrict __src,
         size_t __len, size_t __dstlen) throw ();
extern size_t __mbstowcs_alias (wchar_t *__restrict __dst, const char *__restrict __src, size_t __len) throw () __asm__ ("" "mbstowcs")


                                  ;
extern size_t __mbstowcs_chk_warn (wchar_t *__restrict __dst, const char *__restrict __src, size_t __len, size_t __dstlen) throw () __asm__ ("" "__mbstowcs_chk")



     __attribute__((__warning__ ("mbstowcs called with dst buffer smaller than len " "* sizeof (wchar_t)")))
                        ;

extern __inline __attribute__ ((__always_inline__)) __attribute__ ((__gnu_inline__)) __attribute__ ((__artificial__)) size_t
__attribute__ ((__leaf__)) mbstowcs (wchar_t *__restrict __dst, const char *__restrict __src, size_t __len) throw ()

{
  if (__builtin_object_size (__dst, 2 > 1) != (size_t) -1)
    {
      if (!__builtin_constant_p (__len))
 return __mbstowcs_chk (__dst, __src, __len,
          __builtin_object_size (__dst, 2 > 1) / sizeof (wchar_t));

      if (__len > __builtin_object_size (__dst, 2 > 1) / sizeof (wchar_t))
 return __mbstowcs_chk_warn (__dst, __src, __len,
         __builtin_object_size (__dst, 2 > 1) / sizeof (wchar_t));
    }
  return __mbstowcs_alias (__dst, __src, __len);
}


extern size_t __wcstombs_chk (char *__restrict __dst,
         const wchar_t *__restrict __src,
         size_t __len, size_t __dstlen) throw ();
extern size_t __wcstombs_alias (char *__restrict __dst, const wchar_t *__restrict __src, size_t __len) throw () __asm__ ("" "wcstombs")


                                  ;
extern size_t __wcstombs_chk_warn (char *__restrict __dst, const wchar_t *__restrict __src, size_t __len, size_t __dstlen) throw () __asm__ ("" "__wcstombs_chk")



     __attribute__((__warning__ ("wcstombs called with dst buffer smaller than len")));

extern __inline __attribute__ ((__always_inline__)) __attribute__ ((__gnu_inline__)) __attribute__ ((__artificial__)) size_t
__attribute__ ((__leaf__)) wcstombs (char *__restrict __dst, const wchar_t *__restrict __src, size_t __len) throw ()

{
  if (__builtin_object_size (__dst, 2 > 1) != (size_t) -1)
    {
      if (!__builtin_constant_p (__len))
 return __wcstombs_chk (__dst, __src, __len, __builtin_object_size (__dst, 2 > 1));
      if (__len > __builtin_object_size (__dst, 2 > 1))
 return __wcstombs_chk_warn (__dst, __src, __len, __builtin_object_size (__dst, 2 > 1));
    }
  return __wcstombs_alias (__dst, __src, __len);
}
# 1018 "/usr/include/stdlib.h" 2 3 4





}
# 76 "/usr/include/c++/9/cstdlib" 2 3

# 1 "/usr/include/c++/9/bits/std_abs.h" 1 3
# 33 "/usr/include/c++/9/bits/std_abs.h" 3
       
# 34 "/usr/include/c++/9/bits/std_abs.h" 3
# 46 "/usr/include/c++/9/bits/std_abs.h" 3
extern "C++"
{
namespace std __attribute__ ((__visibility__ ("default")))
{


  using ::abs;


  inline long
  abs(long __i) { return __builtin_labs(__i); }



  inline long long
  abs(long long __x) { return __builtin_llabs (__x); }
# 70 "/usr/include/c++/9/bits/std_abs.h" 3
  inline constexpr double
  abs(double __x)
  { return __builtin_fabs(__x); }

  inline constexpr float
  abs(float __x)
  { return __builtin_fabsf(__x); }

  inline constexpr long double
  abs(long double __x)
  { return __builtin_fabsl(__x); }



  inline constexpr __int128
  abs(__int128 __x) { return __x >= 0 ? __x : -__x; }
# 101 "/usr/include/c++/9/bits/std_abs.h" 3
  inline constexpr
  __float128
  abs(__float128 __x)
  { return __x < 0 ? -__x : __x; }



}
}
# 78 "/usr/include/c++/9/cstdlib" 2 3
# 121 "/usr/include/c++/9/cstdlib" 3
extern "C++"
{
namespace std __attribute__ ((__visibility__ ("default")))
{


  using ::div_t;
  using ::ldiv_t;

  using ::abort;



  using ::atexit;


  using ::at_quick_exit;


  using ::atof;
  using ::atoi;
  using ::atol;
  using ::bsearch;
  using ::calloc;
  using ::div;
  using ::exit;
  using ::free;
  using ::getenv;
  using ::labs;
  using ::ldiv;
  using ::malloc;

  using ::mblen;
  using ::mbstowcs;
  using ::mbtowc;

  using ::qsort;


  using ::quick_exit;


  using ::rand;
  using ::realloc;
  using ::srand;
  using ::strtod;
  using ::strtol;
  using ::strtoul;
  using ::system;

  using ::wcstombs;
  using ::wctomb;



  inline ldiv_t
  div(long __i, long __j) { return ldiv(__i, __j); }




}
# 195 "/usr/include/c++/9/cstdlib" 3
namespace __gnu_cxx __attribute__ ((__visibility__ ("default")))
{



  using ::lldiv_t;





  using ::_Exit;



  using ::llabs;

  inline lldiv_t
  div(long long __n, long long __d)
  { lldiv_t __q; __q.quot = __n / __d; __q.rem = __n % __d; return __q; }

  using ::lldiv;
# 227 "/usr/include/c++/9/cstdlib" 3
  using ::atoll;
  using ::strtoll;
  using ::strtoull;

  using ::strtof;
  using ::strtold;


}

namespace std
{

  using ::__gnu_cxx::lldiv_t;

  using ::__gnu_cxx::_Exit;

  using ::__gnu_cxx::llabs;
  using ::__gnu_cxx::div;
  using ::__gnu_cxx::lldiv;

  using ::__gnu_cxx::atoll;
  using ::__gnu_cxx::strtof;
  using ::__gnu_cxx::strtoll;
  using ::__gnu_cxx::strtoull;
  using ::__gnu_cxx::strtold;
}



}
# 37 "/usr/include/c++/9/stdlib.h" 2 3

using std::abort;
using std::atexit;
using std::exit;


  using std::at_quick_exit;


  using std::quick_exit;




using std::div_t;
using std::ldiv_t;

using std::abs;
using std::atof;
using std::atoi;
using std::atol;
using std::bsearch;
using std::calloc;
using std::div;
using std::free;
using std::getenv;
using std::labs;
using std::ldiv;
using std::malloc;

using std::mblen;
using std::mbstowcs;
using std::mbtowc;

using std::qsort;
using std::rand;
using std::realloc;
using std::srand;
using std::strtod;
using std::strtol;
using std::strtoul;
using std::system;

using std::wcstombs;
using std::wctomb;
# 24 "../deps/icu-small/source/common/uassert.h" 2
# 31 "../deps/icu-small/source/common/utf_impl.cpp" 2
# 58 "../deps/icu-small/source/common/utf_impl.cpp"

# 58 "../deps/icu-small/source/common/utf_impl.cpp"
extern "C" const uint8_t
utf8_countTrailBytes_67[256]={
    0, 0, 0, 0, 0, 0, 0, 0, 0, 0, 0, 0, 0, 0, 0, 0,
    0, 0, 0, 0, 0, 0, 0, 0, 0, 0, 0, 0, 0, 0, 0, 0,
    0, 0, 0, 0, 0, 0, 0, 0, 0, 0, 0, 0, 0, 0, 0, 0,
    0, 0, 0, 0, 0, 0, 0, 0, 0, 0, 0, 0, 0, 0, 0, 0,

    0, 0, 0, 0, 0, 0, 0, 0, 0, 0, 0, 0, 0, 0, 0, 0,
    0, 0, 0, 0, 0, 0, 0, 0, 0, 0, 0, 0, 0, 0, 0, 0,
    0, 0, 0, 0, 0, 0, 0, 0, 0, 0, 0, 0, 0, 0, 0, 0,
    0, 0, 0, 0, 0, 0, 0, 0, 0, 0, 0, 0, 0, 0, 0, 0,

    0, 0, 0, 0, 0, 0, 0, 0, 0, 0, 0, 0, 0, 0, 0, 0,
    0, 0, 0, 0, 0, 0, 0, 0, 0, 0, 0, 0, 0, 0, 0, 0,
    0, 0, 0, 0, 0, 0, 0, 0, 0, 0, 0, 0, 0, 0, 0, 0,
    0, 0, 0, 0, 0, 0, 0, 0, 0, 0, 0, 0, 0, 0, 0, 0,



    0, 0, 1, 1, 1, 1, 1, 1, 1, 1, 1, 1, 1, 1, 1, 1,
    1, 1, 1, 1, 1, 1, 1, 1, 1, 1, 1, 1, 1, 1, 1, 1,


    2, 2, 2, 2, 2, 2, 2, 2, 2, 2, 2, 2, 2, 2, 2, 2,


    3, 3, 3, 3, 3, 0, 0, 0, 0, 0, 0, 0, 0, 0, 0, 0
};

static const UChar32
utf8_errorValue[6]={


    0x15, 0x9f, 0xffff,
    0x10ffff
};

static UChar32
errorValue(int32_t count, int8_t strict) {
    if(strict>=0) {
        return utf8_errorValue[count];
    } else if(strict==-3) {
        return 0xfffd;
    } else {
        return (-1);
    }
}
# 130 "../deps/icu-small/source/common/utf_impl.cpp"
extern "C" UChar32
utf8_nextCharSafeBody_67(const uint8_t *s, int32_t *pi, int32_t length, UChar32 c, UBool strict) {

    int32_t i=*pi;

    if(i==length || c>0xf4) {

    } else if(c>=0xf0) {


        uint8_t t1=s[i], t2, t3;
        c&=7;
        if(("\x00\x00\x00\x00\x00\x00\x00\x00\x1E\x0F\x0F\x0F\x00\x00\x00\x00"[(uint8_t)(t1)>>4]&(1<<((c)&7))) &&
                ++i!=length && (t2=s[i]-0x80)<=0x3f &&
                ++i!=length && (t3=s[i]-0x80)<=0x3f) {
            ++i;
            c=(c<<18)|((t1&0x3f)<<12)|(t2<<6)|t3;

            if(strict<=0 || !((c)>=0xfdd0 && ((c)<=0xfdef || ((c)&0xfffe)==0xfffe) && (c)<=0x10ffff)) {
                *pi=i;
                return c;
            }
        }
    } else if(c>=0xe0) {
        c&=0xf;
        if(strict!=-2) {
            uint8_t t1=s[i], t2;
            if(("\x20\x30\x30\x30\x30\x30\x30\x30\x30\x30\x30\x30\x30\x10\x30\x30"[(c)&0xf]&(1<<((uint8_t)(t1)>>5))) &&
                    ++i!=length && (t2=s[i]-0x80)<=0x3f) {
                ++i;
                c=(c<<12)|((t1&0x3f)<<6)|t2;

                if(strict<=0 || !((c)>=0xfdd0 && ((c)<=0xfdef || ((c)&0xfffe)==0xfffe) && (c)<=0x10ffff)) {
                    *pi=i;
                    return c;
                }
            }
        } else {

            uint8_t t1=s[i]-0x80, t2;
            if(t1<=0x3f && (c>0 || t1>=0x20) &&
                    ++i!=length && (t2=s[i]-0x80)<=0x3f) {
                *pi=i+1;
                return (c<<12)|(t1<<6)|t2;
            }
        }
    } else if(c>=0xc2) {
        uint8_t t1=s[i]-0x80;
        if(t1<=0x3f) {
            *pi=i+1;
            return ((c-0xc0)<<6)|t1;
        }
    }


    c=errorValue(i-*pi, strict);
    *pi=i;
    return c;
}

extern "C" int32_t
utf8_appendCharSafeBody_67(uint8_t *s, int32_t i, int32_t length, UChar32 c, UBool *pIsError) {
    if((uint32_t)(c)<=0x7ff) {
        if((i)+1<(length)) {
            (s)[(i)++]=(uint8_t)(((c)>>6)|0xc0);
            (s)[(i)++]=(uint8_t)(((c)&0x3f)|0x80);
            return i;
        }
    } else if((uint32_t)(c)<=0xffff) {

        if((i)+2<(length) && !(((c)&0xfffff800)==0xd800)) {
            (s)[(i)++]=(uint8_t)(((c)>>12)|0xe0);
            (s)[(i)++]=(uint8_t)((((c)>>6)&0x3f)|0x80);
            (s)[(i)++]=(uint8_t)(((c)&0x3f)|0x80);
            return i;
        }
    } else if((uint32_t)(c)<=0x10ffff) {
        if((i)+3<(length)) {
            (s)[(i)++]=(uint8_t)(((c)>>18)|0xf0);
            (s)[(i)++]=(uint8_t)((((c)>>12)&0x3f)|0x80);
            (s)[(i)++]=(uint8_t)((((c)>>6)&0x3f)|0x80);
            (s)[(i)++]=(uint8_t)(((c)&0x3f)|0x80);
            return i;
        }
    }

    if(pIsError!=
# 216 "../deps/icu-small/source/common/utf_impl.cpp" 3 4
                __null
# 216 "../deps/icu-small/source/common/utf_impl.cpp"
                    ) {
        *pIsError=1;
    } else {
        length-=i;
        if(length>0) {
            int32_t offset;
            if(length>3) {
                length=3;
            }
            s+=i;
            offset=0;
            c=utf8_errorValue[length-1];
            do { uint32_t __uc=(c); if(__uc<=0x7f) { (s)[(offset)++]=(uint8_t)__uc; } else { if(__uc<=0x7ff) { (s)[(offset)++]=(uint8_t)((__uc>>6)|0xc0); } else { if(__uc<=0xffff) { (s)[(offset)++]=(uint8_t)((__uc>>12)|0xe0); } else { (s)[(offset)++]=(uint8_t)((__uc>>18)|0xf0); (s)[(offset)++]=(uint8_t)(((__uc>>12)&0x3f)|0x80); } (s)[(offset)++]=(uint8_t)(((__uc>>6)&0x3f)|0x80); } (s)[(offset)++]=(uint8_t)((__uc&0x3f)|0x80); } } while (0);
            i=i+offset;
        }
    }
    return i;
}

extern "C" UChar32
utf8_prevCharSafeBody_67(const uint8_t *s, int32_t start, int32_t *pi, UChar32 c, UBool strict) {

    int32_t i=*pi;
    if(((int8_t)(c)<-0x40) && i>start) {
        uint8_t b1=s[--i];
        if(((uint8_t)((b1)-0xc2)<=0x32)) {
            if(b1<0xe0) {
                *pi=i;
                return ((b1-0xc0)<<6)|(c&0x3f);
            } else if(b1<0xf0 ? ("\x20\x30\x30\x30\x30\x30\x30\x30\x30\x30\x30\x30\x30\x10\x30\x30"[(b1)&0xf]&(1<<((uint8_t)(c)>>5))) : ("\x00\x00\x00\x00\x00\x00\x00\x00\x1E\x0F\x0F\x0F\x00\x00\x00\x00"[(uint8_t)(c)>>4]&(1<<((b1)&7)))) {

                *pi=i;
                return errorValue(1, strict);
            }
        } else if(((int8_t)(b1)<-0x40) && i>start) {

            c&=0x3f;
            uint8_t b2=s[--i];
            if(0xe0<=b2 && b2<=0xf4) {
                if(b2<0xf0) {
                    b2&=0xf;
                    if(strict!=-2) {
                        if(("\x20\x30\x30\x30\x30\x30\x30\x30\x30\x30\x30\x30\x30\x10\x30\x30"[(b2)&0xf]&(1<<((uint8_t)(b1)>>5)))) {
                            *pi=i;
                            c=(b2<<12)|((b1&0x3f)<<6)|c;
                            if(strict<=0 || !((c)>=0xfdd0 && ((c)<=0xfdef || ((c)&0xfffe)==0xfffe) && (c)<=0x10ffff)) {
                                return c;
                            } else {

                                return errorValue(2, strict);
                            }
                        }
                    } else {

                        b1-=0x80;
                        if((b2>0 || b1>=0x20)) {
                            *pi=i;
                            return (b2<<12)|(b1<<6)|c;
                        }
                    }
                } else if(("\x00\x00\x00\x00\x00\x00\x00\x00\x1E\x0F\x0F\x0F\x00\x00\x00\x00"[(uint8_t)(b1)>>4]&(1<<((b2)&7)))) {

                    *pi=i;
                    return errorValue(2, strict);
                }
            } else if(((int8_t)(b2)<-0x40) && i>start) {
                uint8_t b3=s[--i];
                if(0xf0<=b3 && b3<=0xf4) {
                    b3&=7;
                    if(("\x00\x00\x00\x00\x00\x00\x00\x00\x1E\x0F\x0F\x0F\x00\x00\x00\x00"[(uint8_t)(b2)>>4]&(1<<((b3)&7)))) {
                        *pi=i;
                        c=(b3<<18)|((b2&0x3f)<<12)|((b1&0x3f)<<6)|c;
                        if(strict<=0 || !((c)>=0xfdd0 && ((c)<=0xfdef || ((c)&0xfffe)==0xfffe) && (c)<=0x10ffff)) {
                            return c;
                        } else {

                            return errorValue(3, strict);
                        }
                    }
                }
            }
        }
    }
    return errorValue(0, strict);
}

extern "C" int32_t
utf8_back1SafeBody_67(const uint8_t *s, int32_t start, int32_t i) {

    int32_t orig_i=i;
    uint8_t c=s[i];
    if(((int8_t)(c)<-0x40) && i>start) {
        uint8_t b1=s[--i];
        if(((uint8_t)((b1)-0xc2)<=0x32)) {
            if(b1<0xe0 ||
                    (b1<0xf0 ? ("\x20\x30\x30\x30\x30\x30\x30\x30\x30\x30\x30\x30\x30\x10\x30\x30"[(b1)&0xf]&(1<<((uint8_t)(c)>>5))) : ("\x00\x00\x00\x00\x00\x00\x00\x00\x1E\x0F\x0F\x0F\x00\x00\x00\x00"[(uint8_t)(c)>>4]&(1<<((b1)&7))))) {
                return i;
            }
        } else if(((int8_t)(b1)<-0x40) && i>start) {
            uint8_t b2=s[--i];
            if(0xe0<=b2 && b2<=0xf4) {
                if(b2<0xf0 ? ("\x20\x30\x30\x30\x30\x30\x30\x30\x30\x30\x30\x30\x30\x10\x30\x30"[(b2)&0xf]&(1<<((uint8_t)(b1)>>5))) : ("\x00\x00\x00\x00\x00\x00\x00\x00\x1E\x0F\x0F\x0F\x00\x00\x00\x00"[(uint8_t)(b1)>>4]&(1<<((b2)&7)))) {
                    return i;
                }
            } else if(((int8_t)(b2)<-0x40) && i>start) {
                uint8_t b3=s[--i];
                if(0xf0<=b3 && b3<=0xf4 && ("\x00\x00\x00\x00\x00\x00\x00\x00\x1E\x0F\x0F\x0F\x00\x00\x00\x00"[(uint8_t)(b2)>>4]&(1<<((b3)&7)))) {
                    return i;
                }
            }
        }
    }
    return orig_i;
}
