# 1 "../deps/uv/src/unix/linux-syscalls.c"
# 1 "/workspace/nodejsbuild/node-v12.18.4/out//"
# 1 "<built-in>"
# 1 "<command-line>"
# 1 "/usr/include/stdc-predef.h" 1 3 4
# 1 "<command-line>" 2
# 1 "../deps/uv/src/unix/linux-syscalls.c"
# 22 "../deps/uv/src/unix/linux-syscalls.c"
# 1 "../deps/uv/src/unix/linux-syscalls.h" 1
# 28 "../deps/uv/src/unix/linux-syscalls.h"
# 1 "/usr/lib/gcc/x86_64-linux-gnu/9/include/stdint.h" 1 3 4
# 9 "/usr/lib/gcc/x86_64-linux-gnu/9/include/stdint.h" 3 4
# 1 "/usr/include/stdint.h" 1 3 4
# 26 "/usr/include/stdint.h" 3 4
# 1 "/usr/include/x86_64-linux-gnu/bits/libc-header-start.h" 1 3 4
# 33 "/usr/include/x86_64-linux-gnu/bits/libc-header-start.h" 3 4
# 1 "/usr/include/features.h" 1 3 4
# 461 "/usr/include/features.h" 3 4
# 1 "/usr/include/x86_64-linux-gnu/sys/cdefs.h" 1 3 4
# 452 "/usr/include/x86_64-linux-gnu/sys/cdefs.h" 3 4
# 1 "/usr/include/x86_64-linux-gnu/bits/wordsize.h" 1 3 4
# 453 "/usr/include/x86_64-linux-gnu/sys/cdefs.h" 2 3 4
# 1 "/usr/include/x86_64-linux-gnu/bits/long-double.h" 1 3 4
# 454 "/usr/include/x86_64-linux-gnu/sys/cdefs.h" 2 3 4
# 462 "/usr/include/features.h" 2 3 4
# 485 "/usr/include/features.h" 3 4
# 1 "/usr/include/x86_64-linux-gnu/gnu/stubs.h" 1 3 4
# 10 "/usr/include/x86_64-linux-gnu/gnu/stubs.h" 3 4
# 1 "/usr/include/x86_64-linux-gnu/gnu/stubs-64.h" 1 3 4
# 11 "/usr/include/x86_64-linux-gnu/gnu/stubs.h" 2 3 4
# 486 "/usr/include/features.h" 2 3 4
# 34 "/usr/include/x86_64-linux-gnu/bits/libc-header-start.h" 2 3 4
# 27 "/usr/include/stdint.h" 2 3 4
# 1 "/usr/include/x86_64-linux-gnu/bits/types.h" 1 3 4
# 27 "/usr/include/x86_64-linux-gnu/bits/types.h" 3 4
# 1 "/usr/include/x86_64-linux-gnu/bits/wordsize.h" 1 3 4
# 28 "/usr/include/x86_64-linux-gnu/bits/types.h" 2 3 4
# 1 "/usr/include/x86_64-linux-gnu/bits/timesize.h" 1 3 4
# 29 "/usr/include/x86_64-linux-gnu/bits/types.h" 2 3 4



# 31 "/usr/include/x86_64-linux-gnu/bits/types.h" 3 4
typedef unsigned char __u_char;
typedef unsigned short int __u_short;
typedef unsigned int __u_int;
typedef unsigned long int __u_long;


typedef signed char __int8_t;
typedef unsigned char __uint8_t;
typedef signed short int __int16_t;
typedef unsigned short int __uint16_t;
typedef signed int __int32_t;
typedef unsigned int __uint32_t;

typedef signed long int __int64_t;
typedef unsigned long int __uint64_t;






typedef __int8_t __int_least8_t;
typedef __uint8_t __uint_least8_t;
typedef __int16_t __int_least16_t;
typedef __uint16_t __uint_least16_t;
typedef __int32_t __int_least32_t;
typedef __uint32_t __uint_least32_t;
typedef __int64_t __int_least64_t;
typedef __uint64_t __uint_least64_t;



typedef long int __quad_t;
typedef unsigned long int __u_quad_t;







typedef long int __intmax_t;
typedef unsigned long int __uintmax_t;
# 141 "/usr/include/x86_64-linux-gnu/bits/types.h" 3 4
# 1 "/usr/include/x86_64-linux-gnu/bits/typesizes.h" 1 3 4
# 142 "/usr/include/x86_64-linux-gnu/bits/types.h" 2 3 4
# 1 "/usr/include/x86_64-linux-gnu/bits/time64.h" 1 3 4
# 143 "/usr/include/x86_64-linux-gnu/bits/types.h" 2 3 4


typedef unsigned long int __dev_t;
typedef unsigned int __uid_t;
typedef unsigned int __gid_t;
typedef unsigned long int __ino_t;
typedef unsigned long int __ino64_t;
typedef unsigned int __mode_t;
typedef unsigned long int __nlink_t;
typedef long int __off_t;
typedef long int __off64_t;
typedef int __pid_t;
typedef struct { int __val[2]; } __fsid_t;
typedef long int __clock_t;
typedef unsigned long int __rlim_t;
typedef unsigned long int __rlim64_t;
typedef unsigned int __id_t;
typedef long int __time_t;
typedef unsigned int __useconds_t;
typedef long int __suseconds_t;

typedef int __daddr_t;
typedef int __key_t;


typedef int __clockid_t;


typedef void * __timer_t;


typedef long int __blksize_t;




typedef long int __blkcnt_t;
typedef long int __blkcnt64_t;


typedef unsigned long int __fsblkcnt_t;
typedef unsigned long int __fsblkcnt64_t;


typedef unsigned long int __fsfilcnt_t;
typedef unsigned long int __fsfilcnt64_t;


typedef long int __fsword_t;

typedef long int __ssize_t;


typedef long int __syscall_slong_t;

typedef unsigned long int __syscall_ulong_t;



typedef __off64_t __loff_t;
typedef char *__caddr_t;


typedef long int __intptr_t;


typedef unsigned int __socklen_t;




typedef int __sig_atomic_t;
# 28 "/usr/include/stdint.h" 2 3 4
# 1 "/usr/include/x86_64-linux-gnu/bits/wchar.h" 1 3 4
# 29 "/usr/include/stdint.h" 2 3 4
# 1 "/usr/include/x86_64-linux-gnu/bits/wordsize.h" 1 3 4
# 30 "/usr/include/stdint.h" 2 3 4




# 1 "/usr/include/x86_64-linux-gnu/bits/stdint-intn.h" 1 3 4
# 24 "/usr/include/x86_64-linux-gnu/bits/stdint-intn.h" 3 4
typedef __int8_t int8_t;
typedef __int16_t int16_t;
typedef __int32_t int32_t;
typedef __int64_t int64_t;
# 35 "/usr/include/stdint.h" 2 3 4


# 1 "/usr/include/x86_64-linux-gnu/bits/stdint-uintn.h" 1 3 4
# 24 "/usr/include/x86_64-linux-gnu/bits/stdint-uintn.h" 3 4
typedef __uint8_t uint8_t;
typedef __uint16_t uint16_t;
typedef __uint32_t uint32_t;
typedef __uint64_t uint64_t;
# 38 "/usr/include/stdint.h" 2 3 4





typedef __int_least8_t int_least8_t;
typedef __int_least16_t int_least16_t;
typedef __int_least32_t int_least32_t;
typedef __int_least64_t int_least64_t;


typedef __uint_least8_t uint_least8_t;
typedef __uint_least16_t uint_least16_t;
typedef __uint_least32_t uint_least32_t;
typedef __uint_least64_t uint_least64_t;





typedef signed char int_fast8_t;

typedef long int int_fast16_t;
typedef long int int_fast32_t;
typedef long int int_fast64_t;
# 71 "/usr/include/stdint.h" 3 4
typedef unsigned char uint_fast8_t;

typedef unsigned long int uint_fast16_t;
typedef unsigned long int uint_fast32_t;
typedef unsigned long int uint_fast64_t;
# 87 "/usr/include/stdint.h" 3 4
typedef long int intptr_t;


typedef unsigned long int uintptr_t;
# 101 "/usr/include/stdint.h" 3 4
typedef __intmax_t intmax_t;
typedef __uintmax_t uintmax_t;
# 10 "/usr/lib/gcc/x86_64-linux-gnu/9/include/stdint.h" 2 3 4
# 29 "../deps/uv/src/unix/linux-syscalls.h" 2
# 1 "/usr/include/signal.h" 1 3 4
# 27 "/usr/include/signal.h" 3 4



# 1 "/usr/include/x86_64-linux-gnu/bits/signum.h" 1 3 4
# 26 "/usr/include/x86_64-linux-gnu/bits/signum.h" 3 4
# 1 "/usr/include/x86_64-linux-gnu/bits/signum-generic.h" 1 3 4
# 27 "/usr/include/x86_64-linux-gnu/bits/signum.h" 2 3 4
# 31 "/usr/include/signal.h" 2 3 4

# 1 "/usr/include/x86_64-linux-gnu/bits/types/sig_atomic_t.h" 1 3 4







typedef __sig_atomic_t sig_atomic_t;
# 33 "/usr/include/signal.h" 2 3 4


# 1 "/usr/include/x86_64-linux-gnu/bits/types/sigset_t.h" 1 3 4



# 1 "/usr/include/x86_64-linux-gnu/bits/types/__sigset_t.h" 1 3 4




typedef struct
{
  unsigned long int __val[(1024 / (8 * sizeof (unsigned long int)))];
} __sigset_t;
# 5 "/usr/include/x86_64-linux-gnu/bits/types/sigset_t.h" 2 3 4


typedef __sigset_t sigset_t;
# 36 "/usr/include/signal.h" 2 3 4




typedef __pid_t pid_t;





typedef __uid_t uid_t;






# 1 "/usr/include/x86_64-linux-gnu/bits/types/struct_timespec.h" 1 3 4





# 1 "/usr/include/x86_64-linux-gnu/bits/endian.h" 1 3 4
# 35 "/usr/include/x86_64-linux-gnu/bits/endian.h" 3 4
# 1 "/usr/include/x86_64-linux-gnu/bits/endianness.h" 1 3 4
# 36 "/usr/include/x86_64-linux-gnu/bits/endian.h" 2 3 4
# 7 "/usr/include/x86_64-linux-gnu/bits/types/struct_timespec.h" 2 3 4



struct timespec
{
  __time_t tv_sec;



  __syscall_slong_t tv_nsec;
# 26 "/usr/include/x86_64-linux-gnu/bits/types/struct_timespec.h" 3 4
};
# 54 "/usr/include/signal.h" 2 3 4



# 1 "/usr/include/x86_64-linux-gnu/bits/types/siginfo_t.h" 1 3 4



# 1 "/usr/include/x86_64-linux-gnu/bits/wordsize.h" 1 3 4
# 5 "/usr/include/x86_64-linux-gnu/bits/types/siginfo_t.h" 2 3 4

# 1 "/usr/include/x86_64-linux-gnu/bits/types/__sigval_t.h" 1 3 4
# 24 "/usr/include/x86_64-linux-gnu/bits/types/__sigval_t.h" 3 4
union sigval
{
  int sival_int;
  void *sival_ptr;
};

typedef union sigval __sigval_t;
# 7 "/usr/include/x86_64-linux-gnu/bits/types/siginfo_t.h" 2 3 4
# 16 "/usr/include/x86_64-linux-gnu/bits/types/siginfo_t.h" 3 4
# 1 "/usr/include/x86_64-linux-gnu/bits/siginfo-arch.h" 1 3 4
# 17 "/usr/include/x86_64-linux-gnu/bits/types/siginfo_t.h" 2 3 4
# 36 "/usr/include/x86_64-linux-gnu/bits/types/siginfo_t.h" 3 4
typedef struct
  {
    int si_signo;

    int si_errno;

    int si_code;





    int __pad0;


    union
      {
 int _pad[((128 / sizeof (int)) - 4)];


 struct
   {
     __pid_t si_pid;
     __uid_t si_uid;
   } _kill;


 struct
   {
     int si_tid;
     int si_overrun;
     __sigval_t si_sigval;
   } _timer;


 struct
   {
     __pid_t si_pid;
     __uid_t si_uid;
     __sigval_t si_sigval;
   } _rt;


 struct
   {
     __pid_t si_pid;
     __uid_t si_uid;
     int si_status;
     __clock_t si_utime;
     __clock_t si_stime;
   } _sigchld;


 struct
   {
     void *si_addr;
    
     short int si_addr_lsb;
     union
       {

  struct
    {
      void *_lower;
      void *_upper;
    } _addr_bnd;

  __uint32_t _pkey;
       } _bounds;
   } _sigfault;


 struct
   {
     long int si_band;
     int si_fd;
   } _sigpoll;



 struct
   {
     void *_call_addr;
     int _syscall;
     unsigned int _arch;
   } _sigsys;

      } _sifields;
  } siginfo_t ;
# 58 "/usr/include/signal.h" 2 3 4
# 1 "/usr/include/x86_64-linux-gnu/bits/siginfo-consts.h" 1 3 4
# 35 "/usr/include/x86_64-linux-gnu/bits/siginfo-consts.h" 3 4
enum
{
  SI_ASYNCNL = -60,
  SI_DETHREAD = -7,

  SI_TKILL,
  SI_SIGIO,

  SI_ASYNCIO,
  SI_MESGQ,
  SI_TIMER,





  SI_QUEUE,
  SI_USER,
  SI_KERNEL = 0x80
# 66 "/usr/include/x86_64-linux-gnu/bits/siginfo-consts.h" 3 4
};




enum
{
  ILL_ILLOPC = 1,

  ILL_ILLOPN,

  ILL_ILLADR,

  ILL_ILLTRP,

  ILL_PRVOPC,

  ILL_PRVREG,

  ILL_COPROC,

  ILL_BADSTK,

  ILL_BADIADDR

};


enum
{
  FPE_INTDIV = 1,

  FPE_INTOVF,

  FPE_FLTDIV,

  FPE_FLTOVF,

  FPE_FLTUND,

  FPE_FLTRES,

  FPE_FLTINV,

  FPE_FLTSUB,

  FPE_FLTUNK = 14,

  FPE_CONDTRAP

};


enum
{
  SEGV_MAPERR = 1,

  SEGV_ACCERR,

  SEGV_BNDERR,

  SEGV_PKUERR,

  SEGV_ACCADI,

  SEGV_ADIDERR,

  SEGV_ADIPERR

};


enum
{
  BUS_ADRALN = 1,

  BUS_ADRERR,

  BUS_OBJERR,

  BUS_MCEERR_AR,

  BUS_MCEERR_AO

};




enum
{
  TRAP_BRKPT = 1,

  TRAP_TRACE,

  TRAP_BRANCH,

  TRAP_HWBKPT,

  TRAP_UNK

};




enum
{
  CLD_EXITED = 1,

  CLD_KILLED,

  CLD_DUMPED,

  CLD_TRAPPED,

  CLD_STOPPED,

  CLD_CONTINUED

};


enum
{
  POLL_IN = 1,

  POLL_OUT,

  POLL_MSG,

  POLL_ERR,

  POLL_PRI,

  POLL_HUP

};





# 1 "/usr/include/x86_64-linux-gnu/bits/siginfo-consts-arch.h" 1 3 4
# 210 "/usr/include/x86_64-linux-gnu/bits/siginfo-consts.h" 2 3 4
# 59 "/usr/include/signal.h" 2 3 4



# 1 "/usr/include/x86_64-linux-gnu/bits/types/sigval_t.h" 1 3 4
# 16 "/usr/include/x86_64-linux-gnu/bits/types/sigval_t.h" 3 4
typedef __sigval_t sigval_t;
# 63 "/usr/include/signal.h" 2 3 4



# 1 "/usr/include/x86_64-linux-gnu/bits/types/sigevent_t.h" 1 3 4



# 1 "/usr/include/x86_64-linux-gnu/bits/wordsize.h" 1 3 4
# 5 "/usr/include/x86_64-linux-gnu/bits/types/sigevent_t.h" 2 3 4
# 17 "/usr/include/x86_64-linux-gnu/bits/types/sigevent_t.h" 3 4
typedef union pthread_attr_t pthread_attr_t;




typedef struct sigevent
  {
    __sigval_t sigev_value;
    int sigev_signo;
    int sigev_notify;

    union
      {
 int _pad[((64 / sizeof (int)) - 4)];



 __pid_t _tid;

 struct
   {
     void (*_function) (__sigval_t);
     pthread_attr_t *_attribute;
   } _sigev_thread;
      } _sigev_un;
  } sigevent_t;
# 67 "/usr/include/signal.h" 2 3 4
# 1 "/usr/include/x86_64-linux-gnu/bits/sigevent-consts.h" 1 3 4
# 27 "/usr/include/x86_64-linux-gnu/bits/sigevent-consts.h" 3 4
enum
{
  SIGEV_SIGNAL = 0,

  SIGEV_NONE,

  SIGEV_THREAD,


  SIGEV_THREAD_ID = 4


};
# 68 "/usr/include/signal.h" 2 3 4




typedef void (*__sighandler_t) (int);




extern __sighandler_t __sysv_signal (int __sig, __sighandler_t __handler)
     __attribute__ ((__nothrow__ , __leaf__));

extern __sighandler_t sysv_signal (int __sig, __sighandler_t __handler)
     __attribute__ ((__nothrow__ , __leaf__));






extern __sighandler_t signal (int __sig, __sighandler_t __handler)
     __attribute__ ((__nothrow__ , __leaf__));
# 112 "/usr/include/signal.h" 3 4
extern int kill (__pid_t __pid, int __sig) __attribute__ ((__nothrow__ , __leaf__));






extern int killpg (__pid_t __pgrp, int __sig) __attribute__ ((__nothrow__ , __leaf__));



extern int raise (int __sig) __attribute__ ((__nothrow__ , __leaf__));



extern __sighandler_t ssignal (int __sig, __sighandler_t __handler)
     __attribute__ ((__nothrow__ , __leaf__));
extern int gsignal (int __sig) __attribute__ ((__nothrow__ , __leaf__));




extern void psignal (int __sig, const char *__s);


extern void psiginfo (const siginfo_t *__pinfo, const char *__s);
# 151 "/usr/include/signal.h" 3 4
extern int sigpause (int __sig) __asm__ ("__xpg_sigpause");
# 170 "/usr/include/signal.h" 3 4
extern int sigblock (int __mask) __attribute__ ((__nothrow__ , __leaf__)) __attribute__ ((__deprecated__));


extern int sigsetmask (int __mask) __attribute__ ((__nothrow__ , __leaf__)) __attribute__ ((__deprecated__));


extern int siggetmask (void) __attribute__ ((__nothrow__ , __leaf__)) __attribute__ ((__deprecated__));
# 185 "/usr/include/signal.h" 3 4
typedef __sighandler_t sighandler_t;




typedef __sighandler_t sig_t;





extern int sigemptyset (sigset_t *__set) __attribute__ ((__nothrow__ , __leaf__)) __attribute__ ((__nonnull__ (1)));


extern int sigfillset (sigset_t *__set) __attribute__ ((__nothrow__ , __leaf__)) __attribute__ ((__nonnull__ (1)));


extern int sigaddset (sigset_t *__set, int __signo) __attribute__ ((__nothrow__ , __leaf__)) __attribute__ ((__nonnull__ (1)));


extern int sigdelset (sigset_t *__set, int __signo) __attribute__ ((__nothrow__ , __leaf__)) __attribute__ ((__nonnull__ (1)));


extern int sigismember (const sigset_t *__set, int __signo)
     __attribute__ ((__nothrow__ , __leaf__)) __attribute__ ((__nonnull__ (1)));



extern int sigisemptyset (const sigset_t *__set) __attribute__ ((__nothrow__ , __leaf__)) __attribute__ ((__nonnull__ (1)));


extern int sigandset (sigset_t *__set, const sigset_t *__left,
        const sigset_t *__right) __attribute__ ((__nothrow__ , __leaf__)) __attribute__ ((__nonnull__ (1, 2, 3)));


extern int sigorset (sigset_t *__set, const sigset_t *__left,
       const sigset_t *__right) __attribute__ ((__nothrow__ , __leaf__)) __attribute__ ((__nonnull__ (1, 2, 3)));




# 1 "/usr/include/x86_64-linux-gnu/bits/sigaction.h" 1 3 4
# 27 "/usr/include/x86_64-linux-gnu/bits/sigaction.h" 3 4
struct sigaction
  {


    union
      {

 __sighandler_t sa_handler;

 void (*sa_sigaction) (int, siginfo_t *, void *);
      }
    __sigaction_handler;







    __sigset_t sa_mask;


    int sa_flags;


    void (*sa_restorer) (void);
  };
# 227 "/usr/include/signal.h" 2 3 4


extern int sigprocmask (int __how, const sigset_t *__restrict __set,
   sigset_t *__restrict __oset) __attribute__ ((__nothrow__ , __leaf__));






extern int sigsuspend (const sigset_t *__set) __attribute__ ((__nonnull__ (1)));


extern int sigaction (int __sig, const struct sigaction *__restrict __act,
        struct sigaction *__restrict __oact) __attribute__ ((__nothrow__ , __leaf__));


extern int sigpending (sigset_t *__set) __attribute__ ((__nothrow__ , __leaf__)) __attribute__ ((__nonnull__ (1)));







extern int sigwait (const sigset_t *__restrict __set, int *__restrict __sig)
     __attribute__ ((__nonnull__ (1, 2)));







extern int sigwaitinfo (const sigset_t *__restrict __set,
   siginfo_t *__restrict __info) __attribute__ ((__nonnull__ (1)));






extern int sigtimedwait (const sigset_t *__restrict __set,
    siginfo_t *__restrict __info,
    const struct timespec *__restrict __timeout)
     __attribute__ ((__nonnull__ (1)));



extern int sigqueue (__pid_t __pid, int __sig, const union sigval __val)
     __attribute__ ((__nothrow__ , __leaf__));
# 286 "/usr/include/signal.h" 3 4
extern const char *const _sys_siglist[(64 + 1)];
extern const char *const sys_siglist[(64 + 1)];



# 1 "/usr/include/x86_64-linux-gnu/bits/sigcontext.h" 1 3 4
# 31 "/usr/include/x86_64-linux-gnu/bits/sigcontext.h" 3 4
struct _fpx_sw_bytes
{
  __uint32_t magic1;
  __uint32_t extended_size;
  __uint64_t xstate_bv;
  __uint32_t xstate_size;
  __uint32_t __glibc_reserved1[7];
};

struct _fpreg
{
  unsigned short significand[4];
  unsigned short exponent;
};

struct _fpxreg
{
  unsigned short significand[4];
  unsigned short exponent;
  unsigned short __glibc_reserved1[3];
};

struct _xmmreg
{
  __uint32_t element[4];
};
# 123 "/usr/include/x86_64-linux-gnu/bits/sigcontext.h" 3 4
struct _fpstate
{

  __uint16_t cwd;
  __uint16_t swd;
  __uint16_t ftw;
  __uint16_t fop;
  __uint64_t rip;
  __uint64_t rdp;
  __uint32_t mxcsr;
  __uint32_t mxcr_mask;
  struct _fpxreg _st[8];
  struct _xmmreg _xmm[16];
  __uint32_t __glibc_reserved1[24];
};

struct sigcontext
{
  __uint64_t r8;
  __uint64_t r9;
  __uint64_t r10;
  __uint64_t r11;
  __uint64_t r12;
  __uint64_t r13;
  __uint64_t r14;
  __uint64_t r15;
  __uint64_t rdi;
  __uint64_t rsi;
  __uint64_t rbp;
  __uint64_t rbx;
  __uint64_t rdx;
  __uint64_t rax;
  __uint64_t rcx;
  __uint64_t rsp;
  __uint64_t rip;
  __uint64_t eflags;
  unsigned short cs;
  unsigned short gs;
  unsigned short fs;
  unsigned short __pad0;
  __uint64_t err;
  __uint64_t trapno;
  __uint64_t oldmask;
  __uint64_t cr2;
  __extension__ union
    {
      struct _fpstate * fpstate;
      __uint64_t __fpstate_word;
    };
  __uint64_t __reserved1 [8];
};



struct _xsave_hdr
{
  __uint64_t xstate_bv;
  __uint64_t __glibc_reserved1[2];
  __uint64_t __glibc_reserved2[5];
};

struct _ymmh_state
{
  __uint32_t ymmh_space[64];
};

struct _xstate
{
  struct _fpstate fpstate;
  struct _xsave_hdr xstate_hdr;
  struct _ymmh_state ymmh;
};
# 292 "/usr/include/signal.h" 2 3 4


extern int sigreturn (struct sigcontext *__scp) __attribute__ ((__nothrow__ , __leaf__));






# 1 "/usr/lib/gcc/x86_64-linux-gnu/9/include/stddef.h" 1 3 4
# 209 "/usr/lib/gcc/x86_64-linux-gnu/9/include/stddef.h" 3 4
typedef long unsigned int size_t;
# 302 "/usr/include/signal.h" 2 3 4

# 1 "/usr/include/x86_64-linux-gnu/bits/types/stack_t.h" 1 3 4
# 23 "/usr/include/x86_64-linux-gnu/bits/types/stack_t.h" 3 4
# 1 "/usr/lib/gcc/x86_64-linux-gnu/9/include/stddef.h" 1 3 4
# 24 "/usr/include/x86_64-linux-gnu/bits/types/stack_t.h" 2 3 4


typedef struct
  {
    void *ss_sp;
    int ss_flags;
    size_t ss_size;
  } stack_t;
# 304 "/usr/include/signal.h" 2 3 4


# 1 "/usr/include/x86_64-linux-gnu/sys/ucontext.h" 1 3 4
# 37 "/usr/include/x86_64-linux-gnu/sys/ucontext.h" 3 4
__extension__ typedef long long int greg_t;
# 46 "/usr/include/x86_64-linux-gnu/sys/ucontext.h" 3 4
typedef greg_t gregset_t[23];



enum
{
  REG_R8 = 0,

  REG_R9,

  REG_R10,

  REG_R11,

  REG_R12,

  REG_R13,

  REG_R14,

  REG_R15,

  REG_RDI,

  REG_RSI,

  REG_RBP,

  REG_RBX,

  REG_RDX,

  REG_RAX,

  REG_RCX,

  REG_RSP,

  REG_RIP,

  REG_EFL,

  REG_CSGSFS,

  REG_ERR,

  REG_TRAPNO,

  REG_OLDMASK,

  REG_CR2

};


struct _libc_fpxreg
{
  unsigned short int significand[4];
  unsigned short int exponent;
  unsigned short int __glibc_reserved1[3];
};

struct _libc_xmmreg
{
  __uint32_t element[4];
};

struct _libc_fpstate
{

  __uint16_t cwd;
  __uint16_t swd;
  __uint16_t ftw;
  __uint16_t fop;
  __uint64_t rip;
  __uint64_t rdp;
  __uint32_t mxcsr;
  __uint32_t mxcr_mask;
  struct _libc_fpxreg _st[8];
  struct _libc_xmmreg _xmm[16];
  __uint32_t __glibc_reserved1[24];
};


typedef struct _libc_fpstate *fpregset_t;


typedef struct
  {
    gregset_t gregs;

    fpregset_t fpregs;
    __extension__ unsigned long long __reserved1 [8];
} mcontext_t;


typedef struct ucontext_t
  {
    unsigned long int uc_flags;
    struct ucontext_t *uc_link;
    stack_t uc_stack;
    mcontext_t uc_mcontext;
    sigset_t uc_sigmask;
    struct _libc_fpstate __fpregs_mem;
    __extension__ unsigned long long int __ssp[4];
  } ucontext_t;
# 307 "/usr/include/signal.h" 2 3 4







extern int siginterrupt (int __sig, int __interrupt) __attribute__ ((__nothrow__ , __leaf__));

# 1 "/usr/include/x86_64-linux-gnu/bits/sigstack.h" 1 3 4
# 317 "/usr/include/signal.h" 2 3 4
# 1 "/usr/include/x86_64-linux-gnu/bits/ss_flags.h" 1 3 4
# 27 "/usr/include/x86_64-linux-gnu/bits/ss_flags.h" 3 4
enum
{
  SS_ONSTACK = 1,

  SS_DISABLE

};
# 318 "/usr/include/signal.h" 2 3 4



extern int sigaltstack (const stack_t *__restrict __ss,
   stack_t *__restrict __oss) __attribute__ ((__nothrow__ , __leaf__));




# 1 "/usr/include/x86_64-linux-gnu/bits/types/struct_sigstack.h" 1 3 4
# 23 "/usr/include/x86_64-linux-gnu/bits/types/struct_sigstack.h" 3 4
struct sigstack
  {
    void *ss_sp;
    int ss_onstack;
  };
# 328 "/usr/include/signal.h" 2 3 4







extern int sigstack (struct sigstack *__ss, struct sigstack *__oss)
     __attribute__ ((__nothrow__ , __leaf__)) __attribute__ ((__deprecated__));






extern int sighold (int __sig) __attribute__ ((__nothrow__ , __leaf__));


extern int sigrelse (int __sig) __attribute__ ((__nothrow__ , __leaf__));


extern int sigignore (int __sig) __attribute__ ((__nothrow__ , __leaf__));


extern __sighandler_t sigset (int __sig, __sighandler_t __disp) __attribute__ ((__nothrow__ , __leaf__));





# 1 "/usr/include/x86_64-linux-gnu/bits/pthreadtypes.h" 1 3 4
# 23 "/usr/include/x86_64-linux-gnu/bits/pthreadtypes.h" 3 4
# 1 "/usr/include/x86_64-linux-gnu/bits/thread-shared-types.h" 1 3 4
# 44 "/usr/include/x86_64-linux-gnu/bits/thread-shared-types.h" 3 4
# 1 "/usr/include/x86_64-linux-gnu/bits/pthreadtypes-arch.h" 1 3 4
# 21 "/usr/include/x86_64-linux-gnu/bits/pthreadtypes-arch.h" 3 4
# 1 "/usr/include/x86_64-linux-gnu/bits/wordsize.h" 1 3 4
# 22 "/usr/include/x86_64-linux-gnu/bits/pthreadtypes-arch.h" 2 3 4
# 45 "/usr/include/x86_64-linux-gnu/bits/thread-shared-types.h" 2 3 4




typedef struct __pthread_internal_list
{
  struct __pthread_internal_list *__prev;
  struct __pthread_internal_list *__next;
} __pthread_list_t;

typedef struct __pthread_internal_slist
{
  struct __pthread_internal_slist *__next;
} __pthread_slist_t;
# 74 "/usr/include/x86_64-linux-gnu/bits/thread-shared-types.h" 3 4
# 1 "/usr/include/x86_64-linux-gnu/bits/struct_mutex.h" 1 3 4
# 22 "/usr/include/x86_64-linux-gnu/bits/struct_mutex.h" 3 4
struct __pthread_mutex_s
{
  int __lock;
  unsigned int __count;
  int __owner;

  unsigned int __nusers;



  int __kind;

  short __spins;
  short __elision;
  __pthread_list_t __list;
# 53 "/usr/include/x86_64-linux-gnu/bits/struct_mutex.h" 3 4
};
# 75 "/usr/include/x86_64-linux-gnu/bits/thread-shared-types.h" 2 3 4
# 87 "/usr/include/x86_64-linux-gnu/bits/thread-shared-types.h" 3 4
# 1 "/usr/include/x86_64-linux-gnu/bits/struct_rwlock.h" 1 3 4
# 23 "/usr/include/x86_64-linux-gnu/bits/struct_rwlock.h" 3 4
struct __pthread_rwlock_arch_t
{
  unsigned int __readers;
  unsigned int __writers;
  unsigned int __wrphase_futex;
  unsigned int __writers_futex;
  unsigned int __pad3;
  unsigned int __pad4;

  int __cur_writer;
  int __shared;
  signed char __rwelision;




  unsigned char __pad1[7];


  unsigned long int __pad2;


  unsigned int __flags;
# 55 "/usr/include/x86_64-linux-gnu/bits/struct_rwlock.h" 3 4
};
# 88 "/usr/include/x86_64-linux-gnu/bits/thread-shared-types.h" 2 3 4




struct __pthread_cond_s
{
  __extension__ union
  {
    __extension__ unsigned long long int __wseq;
    struct
    {
      unsigned int __low;
      unsigned int __high;
    } __wseq32;
  };
  __extension__ union
  {
    __extension__ unsigned long long int __g1_start;
    struct
    {
      unsigned int __low;
      unsigned int __high;
    } __g1_start32;
  };
  unsigned int __g_refs[2] ;
  unsigned int __g_size[2];
  unsigned int __g1_orig_size;
  unsigned int __wrefs;
  unsigned int __g_signals[2];
};
# 24 "/usr/include/x86_64-linux-gnu/bits/pthreadtypes.h" 2 3 4



typedef unsigned long int pthread_t;




typedef union
{
  char __size[4];
  int __align;
} pthread_mutexattr_t;




typedef union
{
  char __size[4];
  int __align;
} pthread_condattr_t;



typedef unsigned int pthread_key_t;



typedef int pthread_once_t;


union pthread_attr_t
{
  char __size[56];
  long int __align;
};






typedef union
{
  struct __pthread_mutex_s __data;
  char __size[40];
  long int __align;
} pthread_mutex_t;


typedef union
{
  struct __pthread_cond_s __data;
  char __size[48];
  __extension__ long long int __align;
} pthread_cond_t;





typedef union
{
  struct __pthread_rwlock_arch_t __data;
  char __size[56];
  long int __align;
} pthread_rwlock_t;

typedef union
{
  char __size[8];
  long int __align;
} pthread_rwlockattr_t;





typedef volatile int pthread_spinlock_t;




typedef union
{
  char __size[32];
  long int __align;
} pthread_barrier_t;

typedef union
{
  char __size[4];
  int __align;
} pthread_barrierattr_t;
# 359 "/usr/include/signal.h" 2 3 4
# 1 "/usr/include/x86_64-linux-gnu/bits/sigthread.h" 1 3 4
# 31 "/usr/include/x86_64-linux-gnu/bits/sigthread.h" 3 4
extern int pthread_sigmask (int __how,
       const __sigset_t *__restrict __newmask,
       __sigset_t *__restrict __oldmask)__attribute__ ((__nothrow__ , __leaf__));


extern int pthread_kill (pthread_t __threadid, int __signo) __attribute__ ((__nothrow__ , __leaf__));



extern int pthread_sigqueue (pthread_t __threadid, int __signo,
        const union sigval __value) __attribute__ ((__nothrow__ , __leaf__));
# 360 "/usr/include/signal.h" 2 3 4






extern int __libc_current_sigrtmin (void) __attribute__ ((__nothrow__ , __leaf__));

extern int __libc_current_sigrtmax (void) __attribute__ ((__nothrow__ , __leaf__));





# 1 "/usr/include/x86_64-linux-gnu/bits/signal_ext.h" 1 3 4
# 29 "/usr/include/x86_64-linux-gnu/bits/signal_ext.h" 3 4
extern int tgkill (__pid_t __tgid, __pid_t __tid, int __signal);
# 375 "/usr/include/signal.h" 2 3 4


# 30 "../deps/uv/src/unix/linux-syscalls.h" 2
# 1 "/usr/include/x86_64-linux-gnu/sys/types.h" 1 3 4
# 27 "/usr/include/x86_64-linux-gnu/sys/types.h" 3 4






typedef __u_char u_char;
typedef __u_short u_short;
typedef __u_int u_int;
typedef __u_long u_long;
typedef __quad_t quad_t;
typedef __u_quad_t u_quad_t;
typedef __fsid_t fsid_t;


typedef __loff_t loff_t;






typedef __ino64_t ino_t;




typedef __ino64_t ino64_t;




typedef __dev_t dev_t;




typedef __gid_t gid_t;




typedef __mode_t mode_t;




typedef __nlink_t nlink_t;
# 87 "/usr/include/x86_64-linux-gnu/sys/types.h" 3 4
typedef __off64_t off_t;




typedef __off64_t off64_t;
# 103 "/usr/include/x86_64-linux-gnu/sys/types.h" 3 4
typedef __id_t id_t;




typedef __ssize_t ssize_t;





typedef __daddr_t daddr_t;
typedef __caddr_t caddr_t;





typedef __key_t key_t;




# 1 "/usr/include/x86_64-linux-gnu/bits/types/clock_t.h" 1 3 4






typedef __clock_t clock_t;
# 127 "/usr/include/x86_64-linux-gnu/sys/types.h" 2 3 4

# 1 "/usr/include/x86_64-linux-gnu/bits/types/clockid_t.h" 1 3 4






typedef __clockid_t clockid_t;
# 129 "/usr/include/x86_64-linux-gnu/sys/types.h" 2 3 4
# 1 "/usr/include/x86_64-linux-gnu/bits/types/time_t.h" 1 3 4






typedef __time_t time_t;
# 130 "/usr/include/x86_64-linux-gnu/sys/types.h" 2 3 4
# 1 "/usr/include/x86_64-linux-gnu/bits/types/timer_t.h" 1 3 4






typedef __timer_t timer_t;
# 131 "/usr/include/x86_64-linux-gnu/sys/types.h" 2 3 4



typedef __useconds_t useconds_t;



typedef __suseconds_t suseconds_t;





# 1 "/usr/lib/gcc/x86_64-linux-gnu/9/include/stddef.h" 1 3 4
# 145 "/usr/include/x86_64-linux-gnu/sys/types.h" 2 3 4



typedef unsigned long int ulong;
typedef unsigned short int ushort;
typedef unsigned int uint;







typedef __uint8_t u_int8_t;
typedef __uint16_t u_int16_t;
typedef __uint32_t u_int32_t;
typedef __uint64_t u_int64_t;


typedef int register_t __attribute__ ((__mode__ (__word__)));
# 176 "/usr/include/x86_64-linux-gnu/sys/types.h" 3 4
# 1 "/usr/include/endian.h" 1 3 4
# 35 "/usr/include/endian.h" 3 4
# 1 "/usr/include/x86_64-linux-gnu/bits/byteswap.h" 1 3 4
# 33 "/usr/include/x86_64-linux-gnu/bits/byteswap.h" 3 4
static __inline __uint16_t
__bswap_16 (__uint16_t __bsx)
{

  return __builtin_bswap16 (__bsx);



}






static __inline __uint32_t
__bswap_32 (__uint32_t __bsx)
{

  return __builtin_bswap32 (__bsx);



}
# 69 "/usr/include/x86_64-linux-gnu/bits/byteswap.h" 3 4
__extension__ static __inline __uint64_t
__bswap_64 (__uint64_t __bsx)
{

  return __builtin_bswap64 (__bsx);



}
# 36 "/usr/include/endian.h" 2 3 4
# 1 "/usr/include/x86_64-linux-gnu/bits/uintn-identity.h" 1 3 4
# 32 "/usr/include/x86_64-linux-gnu/bits/uintn-identity.h" 3 4
static __inline __uint16_t
__uint16_identity (__uint16_t __x)
{
  return __x;
}

static __inline __uint32_t
__uint32_identity (__uint32_t __x)
{
  return __x;
}

static __inline __uint64_t
__uint64_identity (__uint64_t __x)
{
  return __x;
}
# 37 "/usr/include/endian.h" 2 3 4
# 177 "/usr/include/x86_64-linux-gnu/sys/types.h" 2 3 4


# 1 "/usr/include/x86_64-linux-gnu/sys/select.h" 1 3 4
# 30 "/usr/include/x86_64-linux-gnu/sys/select.h" 3 4
# 1 "/usr/include/x86_64-linux-gnu/bits/select.h" 1 3 4
# 22 "/usr/include/x86_64-linux-gnu/bits/select.h" 3 4
# 1 "/usr/include/x86_64-linux-gnu/bits/wordsize.h" 1 3 4
# 23 "/usr/include/x86_64-linux-gnu/bits/select.h" 2 3 4
# 31 "/usr/include/x86_64-linux-gnu/sys/select.h" 2 3 4






# 1 "/usr/include/x86_64-linux-gnu/bits/types/struct_timeval.h" 1 3 4







struct timeval
{
  __time_t tv_sec;
  __suseconds_t tv_usec;
};
# 38 "/usr/include/x86_64-linux-gnu/sys/select.h" 2 3 4
# 49 "/usr/include/x86_64-linux-gnu/sys/select.h" 3 4
typedef long int __fd_mask;
# 59 "/usr/include/x86_64-linux-gnu/sys/select.h" 3 4
typedef struct
  {



    __fd_mask fds_bits[1024 / (8 * (int) sizeof (__fd_mask))];





  } fd_set;






typedef __fd_mask fd_mask;
# 91 "/usr/include/x86_64-linux-gnu/sys/select.h" 3 4

# 101 "/usr/include/x86_64-linux-gnu/sys/select.h" 3 4
extern int select (int __nfds, fd_set *__restrict __readfds,
     fd_set *__restrict __writefds,
     fd_set *__restrict __exceptfds,
     struct timeval *__restrict __timeout);
# 113 "/usr/include/x86_64-linux-gnu/sys/select.h" 3 4
extern int pselect (int __nfds, fd_set *__restrict __readfds,
      fd_set *__restrict __writefds,
      fd_set *__restrict __exceptfds,
      const struct timespec *__restrict __timeout,
      const __sigset_t *__restrict __sigmask);





# 1 "/usr/include/x86_64-linux-gnu/bits/select2.h" 1 3 4
# 24 "/usr/include/x86_64-linux-gnu/bits/select2.h" 3 4
extern long int __fdelt_chk (long int __d);
extern long int __fdelt_warn (long int __d)
  __attribute__((__warning__ ("bit outside of fd_set selected")));
# 124 "/usr/include/x86_64-linux-gnu/sys/select.h" 2 3 4



# 180 "/usr/include/x86_64-linux-gnu/sys/types.h" 2 3 4





typedef __blksize_t blksize_t;
# 205 "/usr/include/x86_64-linux-gnu/sys/types.h" 3 4
typedef __blkcnt64_t blkcnt_t;



typedef __fsblkcnt64_t fsblkcnt_t;



typedef __fsfilcnt64_t fsfilcnt_t;





typedef __blkcnt64_t blkcnt64_t;
typedef __fsblkcnt64_t fsblkcnt64_t;
typedef __fsfilcnt64_t fsfilcnt64_t;
# 230 "/usr/include/x86_64-linux-gnu/sys/types.h" 3 4

# 31 "../deps/uv/src/unix/linux-syscalls.h" 2
# 1 "/usr/include/x86_64-linux-gnu/sys/time.h" 1 3 4
# 34 "/usr/include/x86_64-linux-gnu/sys/time.h" 3 4

# 52 "/usr/include/x86_64-linux-gnu/sys/time.h" 3 4
struct timezone
  {
    int tz_minuteswest;
    int tz_dsttime;
  };
# 66 "/usr/include/x86_64-linux-gnu/sys/time.h" 3 4
extern int gettimeofday (struct timeval *__restrict __tv,
    void *__restrict __tz) __attribute__ ((__nothrow__ , __leaf__)) __attribute__ ((__nonnull__ (1)));







extern int settimeofday (const struct timeval *__tv,
    const struct timezone *__tz)
     __attribute__ ((__nothrow__ , __leaf__));





extern int adjtime (const struct timeval *__delta,
      struct timeval *__olddelta) __attribute__ ((__nothrow__ , __leaf__));




enum __itimer_which
  {

    ITIMER_REAL = 0,


    ITIMER_VIRTUAL = 1,



    ITIMER_PROF = 2

  };



struct itimerval
  {

    struct timeval it_interval;

    struct timeval it_value;
  };




typedef enum __itimer_which __itimer_which_t;






extern int getitimer (__itimer_which_t __which,
        struct itimerval *__value) __attribute__ ((__nothrow__ , __leaf__));




extern int setitimer (__itimer_which_t __which,
        const struct itimerval *__restrict __new,
        struct itimerval *__restrict __old) __attribute__ ((__nothrow__ , __leaf__));




extern int utimes (const char *__file, const struct timeval __tvp[2])
     __attribute__ ((__nothrow__ , __leaf__)) __attribute__ ((__nonnull__ (1)));



extern int lutimes (const char *__file, const struct timeval __tvp[2])
     __attribute__ ((__nothrow__ , __leaf__)) __attribute__ ((__nonnull__ (1)));


extern int futimes (int __fd, const struct timeval __tvp[2]) __attribute__ ((__nothrow__ , __leaf__));






extern int futimesat (int __fd, const char *__file,
        const struct timeval __tvp[2]) __attribute__ ((__nothrow__ , __leaf__));
# 187 "/usr/include/x86_64-linux-gnu/sys/time.h" 3 4

# 32 "../deps/uv/src/unix/linux-syscalls.h" 2
# 1 "/usr/include/x86_64-linux-gnu/sys/socket.h" 1 3 4
# 24 "/usr/include/x86_64-linux-gnu/sys/socket.h" 3 4


# 1 "/usr/include/x86_64-linux-gnu/bits/types/struct_iovec.h" 1 3 4
# 23 "/usr/include/x86_64-linux-gnu/bits/types/struct_iovec.h" 3 4
# 1 "/usr/lib/gcc/x86_64-linux-gnu/9/include/stddef.h" 1 3 4
# 24 "/usr/include/x86_64-linux-gnu/bits/types/struct_iovec.h" 2 3 4


struct iovec
  {
    void *iov_base;
    size_t iov_len;
  };
# 27 "/usr/include/x86_64-linux-gnu/sys/socket.h" 2 3 4

# 1 "/usr/lib/gcc/x86_64-linux-gnu/9/include/stddef.h" 1 3 4
# 29 "/usr/include/x86_64-linux-gnu/sys/socket.h" 2 3 4




# 1 "/usr/include/x86_64-linux-gnu/bits/socket.h" 1 3 4
# 27 "/usr/include/x86_64-linux-gnu/bits/socket.h" 3 4
# 1 "/usr/lib/gcc/x86_64-linux-gnu/9/include/stddef.h" 1 3 4
# 28 "/usr/include/x86_64-linux-gnu/bits/socket.h" 2 3 4





typedef __socklen_t socklen_t;




# 1 "/usr/include/x86_64-linux-gnu/bits/socket_type.h" 1 3 4
# 24 "/usr/include/x86_64-linux-gnu/bits/socket_type.h" 3 4
enum __socket_type
{
  SOCK_STREAM = 1,


  SOCK_DGRAM = 2,


  SOCK_RAW = 3,

  SOCK_RDM = 4,

  SOCK_SEQPACKET = 5,


  SOCK_DCCP = 6,

  SOCK_PACKET = 10,







  SOCK_CLOEXEC = 02000000,


  SOCK_NONBLOCK = 00004000


};
# 39 "/usr/include/x86_64-linux-gnu/bits/socket.h" 2 3 4
# 175 "/usr/include/x86_64-linux-gnu/bits/socket.h" 3 4
# 1 "/usr/include/x86_64-linux-gnu/bits/sockaddr.h" 1 3 4
# 28 "/usr/include/x86_64-linux-gnu/bits/sockaddr.h" 3 4
typedef unsigned short int sa_family_t;
# 176 "/usr/include/x86_64-linux-gnu/bits/socket.h" 2 3 4


struct sockaddr
  {
    sa_family_t sa_family;
    char sa_data[14];
  };
# 191 "/usr/include/x86_64-linux-gnu/bits/socket.h" 3 4
struct sockaddr_storage
  {
    sa_family_t ss_family;
    char __ss_padding[(128 - (sizeof (unsigned short int)) - sizeof (unsigned long int))];
    unsigned long int __ss_align;
  };



enum
  {
    MSG_OOB = 0x01,

    MSG_PEEK = 0x02,

    MSG_DONTROUTE = 0x04,



    MSG_TRYHARD = MSG_DONTROUTE,


    MSG_CTRUNC = 0x08,

    MSG_PROXY = 0x10,

    MSG_TRUNC = 0x20,

    MSG_DONTWAIT = 0x40,

    MSG_EOR = 0x80,

    MSG_WAITALL = 0x100,

    MSG_FIN = 0x200,

    MSG_SYN = 0x400,

    MSG_CONFIRM = 0x800,

    MSG_RST = 0x1000,

    MSG_ERRQUEUE = 0x2000,

    MSG_NOSIGNAL = 0x4000,

    MSG_MORE = 0x8000,

    MSG_WAITFORONE = 0x10000,

    MSG_BATCH = 0x40000,

    MSG_ZEROCOPY = 0x4000000,

    MSG_FASTOPEN = 0x20000000,


    MSG_CMSG_CLOEXEC = 0x40000000



  };




struct msghdr
  {
    void *msg_name;
    socklen_t msg_namelen;

    struct iovec *msg_iov;
    size_t msg_iovlen;

    void *msg_control;
    size_t msg_controllen;




    int msg_flags;
  };


struct cmsghdr
  {
    size_t cmsg_len;




    int cmsg_level;
    int cmsg_type;

    __extension__ unsigned char __cmsg_data [];

  };
# 305 "/usr/include/x86_64-linux-gnu/bits/socket.h" 3 4
extern struct cmsghdr *__cmsg_nxthdr (struct msghdr *__mhdr,
          struct cmsghdr *__cmsg) __attribute__ ((__nothrow__ , __leaf__));




extern __inline struct cmsghdr *
__attribute__ ((__nothrow__ , __leaf__)) __cmsg_nxthdr (struct msghdr *__mhdr, struct cmsghdr *__cmsg)
{
  if ((size_t) __cmsg->cmsg_len < sizeof (struct cmsghdr))

    return (struct cmsghdr *) 0;

  __cmsg = (struct cmsghdr *) ((unsigned char *) __cmsg
          + (((__cmsg->cmsg_len) + sizeof (size_t) - 1) & (size_t) ~(sizeof (size_t) - 1)));
  if ((unsigned char *) (__cmsg + 1) > ((unsigned char *) __mhdr->msg_control
     + __mhdr->msg_controllen)
      || ((unsigned char *) __cmsg + (((__cmsg->cmsg_len) + sizeof (size_t) - 1) & (size_t) ~(sizeof (size_t) - 1))
   > ((unsigned char *) __mhdr->msg_control + __mhdr->msg_controllen)))

    return (struct cmsghdr *) 0;
  return __cmsg;
}




enum
  {
    SCM_RIGHTS = 0x01


    , SCM_CREDENTIALS = 0x02


  };



struct ucred
{
  pid_t pid;
  uid_t uid;
  gid_t gid;
};




# 1 "/usr/include/x86_64-linux-gnu/asm/socket.h" 1 3 4
# 1 "/usr/include/asm-generic/socket.h" 1 3 4




# 1 "/usr/include/linux/posix_types.h" 1 3 4




# 1 "/usr/include/linux/stddef.h" 1 3 4
# 6 "/usr/include/linux/posix_types.h" 2 3 4
# 25 "/usr/include/linux/posix_types.h" 3 4
typedef struct {
 unsigned long fds_bits[1024 / (8 * sizeof(long))];
} __kernel_fd_set;


typedef void (*__kernel_sighandler_t)(int);


typedef int __kernel_key_t;
typedef int __kernel_mqd_t;

# 1 "/usr/include/x86_64-linux-gnu/asm/posix_types.h" 1 3 4






# 1 "/usr/include/x86_64-linux-gnu/asm/posix_types_64.h" 1 3 4
# 11 "/usr/include/x86_64-linux-gnu/asm/posix_types_64.h" 3 4
typedef unsigned short __kernel_old_uid_t;
typedef unsigned short __kernel_old_gid_t;


typedef unsigned long __kernel_old_dev_t;


# 1 "/usr/include/asm-generic/posix_types.h" 1 3 4




# 1 "/usr/include/x86_64-linux-gnu/asm/bitsperlong.h" 1 3 4
# 11 "/usr/include/x86_64-linux-gnu/asm/bitsperlong.h" 3 4
# 1 "/usr/include/asm-generic/bitsperlong.h" 1 3 4
# 12 "/usr/include/x86_64-linux-gnu/asm/bitsperlong.h" 2 3 4
# 6 "/usr/include/asm-generic/posix_types.h" 2 3 4
# 15 "/usr/include/asm-generic/posix_types.h" 3 4
typedef long __kernel_long_t;
typedef unsigned long __kernel_ulong_t;



typedef __kernel_ulong_t __kernel_ino_t;



typedef unsigned int __kernel_mode_t;



typedef int __kernel_pid_t;



typedef int __kernel_ipc_pid_t;



typedef unsigned int __kernel_uid_t;
typedef unsigned int __kernel_gid_t;



typedef __kernel_long_t __kernel_suseconds_t;



typedef int __kernel_daddr_t;



typedef unsigned int __kernel_uid32_t;
typedef unsigned int __kernel_gid32_t;
# 72 "/usr/include/asm-generic/posix_types.h" 3 4
typedef __kernel_ulong_t __kernel_size_t;
typedef __kernel_long_t __kernel_ssize_t;
typedef __kernel_long_t __kernel_ptrdiff_t;




typedef struct {
 int val[2];
} __kernel_fsid_t;





typedef __kernel_long_t __kernel_off_t;
typedef long long __kernel_loff_t;
typedef __kernel_long_t __kernel_time_t;
typedef long long __kernel_time64_t;
typedef __kernel_long_t __kernel_clock_t;
typedef int __kernel_timer_t;
typedef int __kernel_clockid_t;
typedef char * __kernel_caddr_t;
typedef unsigned short __kernel_uid16_t;
typedef unsigned short __kernel_gid16_t;
# 19 "/usr/include/x86_64-linux-gnu/asm/posix_types_64.h" 2 3 4
# 8 "/usr/include/x86_64-linux-gnu/asm/posix_types.h" 2 3 4
# 37 "/usr/include/linux/posix_types.h" 2 3 4
# 6 "/usr/include/asm-generic/socket.h" 2 3 4
# 1 "/usr/include/x86_64-linux-gnu/asm/sockios.h" 1 3 4
# 1 "/usr/include/asm-generic/sockios.h" 1 3 4
# 1 "/usr/include/x86_64-linux-gnu/asm/sockios.h" 2 3 4
# 7 "/usr/include/asm-generic/socket.h" 2 3 4
# 1 "/usr/include/x86_64-linux-gnu/asm/socket.h" 2 3 4
# 355 "/usr/include/x86_64-linux-gnu/bits/socket.h" 2 3 4






struct linger
  {
    int l_onoff;
    int l_linger;
  };
# 34 "/usr/include/x86_64-linux-gnu/sys/socket.h" 2 3 4


# 1 "/usr/include/x86_64-linux-gnu/bits/types/struct_osockaddr.h" 1 3 4





struct osockaddr
{
  unsigned short int sa_family;
  unsigned char sa_data[14];
};
# 37 "/usr/include/x86_64-linux-gnu/sys/socket.h" 2 3 4




enum
{
  SHUT_RD = 0,

  SHUT_WR,

  SHUT_RDWR

};
# 79 "/usr/include/x86_64-linux-gnu/sys/socket.h" 3 4
typedef union { struct sockaddr *__restrict __sockaddr__; struct sockaddr_at *__restrict __sockaddr_at__; struct sockaddr_ax25 *__restrict __sockaddr_ax25__; struct sockaddr_dl *__restrict __sockaddr_dl__; struct sockaddr_eon *__restrict __sockaddr_eon__; struct sockaddr_in *__restrict __sockaddr_in__; struct sockaddr_in6 *__restrict __sockaddr_in6__; struct sockaddr_inarp *__restrict __sockaddr_inarp__; struct sockaddr_ipx *__restrict __sockaddr_ipx__; struct sockaddr_iso *__restrict __sockaddr_iso__; struct sockaddr_ns *__restrict __sockaddr_ns__; struct sockaddr_un *__restrict __sockaddr_un__; struct sockaddr_x25 *__restrict __sockaddr_x25__;
       } __SOCKADDR_ARG __attribute__ ((__transparent_union__));


typedef union { const struct sockaddr *__restrict __sockaddr__; const struct sockaddr_at *__restrict __sockaddr_at__; const struct sockaddr_ax25 *__restrict __sockaddr_ax25__; const struct sockaddr_dl *__restrict __sockaddr_dl__; const struct sockaddr_eon *__restrict __sockaddr_eon__; const struct sockaddr_in *__restrict __sockaddr_in__; const struct sockaddr_in6 *__restrict __sockaddr_in6__; const struct sockaddr_inarp *__restrict __sockaddr_inarp__; const struct sockaddr_ipx *__restrict __sockaddr_ipx__; const struct sockaddr_iso *__restrict __sockaddr_iso__; const struct sockaddr_ns *__restrict __sockaddr_ns__; const struct sockaddr_un *__restrict __sockaddr_un__; const struct sockaddr_x25 *__restrict __sockaddr_x25__;
       } __CONST_SOCKADDR_ARG __attribute__ ((__transparent_union__));





struct mmsghdr
  {
    struct msghdr msg_hdr;
    unsigned int msg_len;

  };






extern int socket (int __domain, int __type, int __protocol) __attribute__ ((__nothrow__ , __leaf__));





extern int socketpair (int __domain, int __type, int __protocol,
         int __fds[2]) __attribute__ ((__nothrow__ , __leaf__));


extern int bind (int __fd, __CONST_SOCKADDR_ARG __addr, socklen_t __len)
     __attribute__ ((__nothrow__ , __leaf__));


extern int getsockname (int __fd, __SOCKADDR_ARG __addr,
   socklen_t *__restrict __len) __attribute__ ((__nothrow__ , __leaf__));
# 126 "/usr/include/x86_64-linux-gnu/sys/socket.h" 3 4
extern int connect (int __fd, __CONST_SOCKADDR_ARG __addr, socklen_t __len);



extern int getpeername (int __fd, __SOCKADDR_ARG __addr,
   socklen_t *__restrict __len) __attribute__ ((__nothrow__ , __leaf__));






extern ssize_t send (int __fd, const void *__buf, size_t __n, int __flags);






extern ssize_t recv (int __fd, void *__buf, size_t __n, int __flags);






extern ssize_t sendto (int __fd, const void *__buf, size_t __n,
         int __flags, __CONST_SOCKADDR_ARG __addr,
         socklen_t __addr_len);
# 163 "/usr/include/x86_64-linux-gnu/sys/socket.h" 3 4
extern ssize_t recvfrom (int __fd, void *__restrict __buf, size_t __n,
    int __flags, __SOCKADDR_ARG __addr,
    socklen_t *__restrict __addr_len);







extern ssize_t sendmsg (int __fd, const struct msghdr *__message,
   int __flags);







extern int sendmmsg (int __fd, struct mmsghdr *__vmessages,
       unsigned int __vlen, int __flags);







extern ssize_t recvmsg (int __fd, struct msghdr *__message, int __flags);







extern int recvmmsg (int __fd, struct mmsghdr *__vmessages,
       unsigned int __vlen, int __flags,
       struct timespec *__tmo);






extern int getsockopt (int __fd, int __level, int __optname,
         void *__restrict __optval,
         socklen_t *__restrict __optlen) __attribute__ ((__nothrow__ , __leaf__));




extern int setsockopt (int __fd, int __level, int __optname,
         const void *__optval, socklen_t __optlen) __attribute__ ((__nothrow__ , __leaf__));





extern int listen (int __fd, int __n) __attribute__ ((__nothrow__ , __leaf__));
# 232 "/usr/include/x86_64-linux-gnu/sys/socket.h" 3 4
extern int accept (int __fd, __SOCKADDR_ARG __addr,
     socklen_t *__restrict __addr_len);






extern int accept4 (int __fd, __SOCKADDR_ARG __addr,
      socklen_t *__restrict __addr_len, int __flags);
# 250 "/usr/include/x86_64-linux-gnu/sys/socket.h" 3 4
extern int shutdown (int __fd, int __how) __attribute__ ((__nothrow__ , __leaf__));




extern int sockatmark (int __fd) __attribute__ ((__nothrow__ , __leaf__));







extern int isfdtype (int __fd, int __fdtype) __attribute__ ((__nothrow__ , __leaf__));





# 1 "/usr/include/x86_64-linux-gnu/bits/socket2.h" 1 3 4
# 23 "/usr/include/x86_64-linux-gnu/bits/socket2.h" 3 4
extern ssize_t __recv_chk (int __fd, void *__buf, size_t __n, size_t __buflen,
      int __flags);
extern ssize_t __recv_alias (int __fd, void *__buf, size_t __n, int __flags) __asm__ ("" "recv")
                          ;
extern ssize_t __recv_chk_warn (int __fd, void *__buf, size_t __n, size_t __buflen, int __flags) __asm__ ("" "__recv_chk")


     __attribute__((__warning__ ("recv called with bigger length than size of destination " "buffer")))
            ;

extern __inline __attribute__ ((__always_inline__)) __attribute__ ((__artificial__)) ssize_t
recv (int __fd, void *__buf, size_t __n, int __flags)
{
  if (__builtin_object_size (__buf, 0) != (size_t) -1)
    {
      if (!__builtin_constant_p (__n))
 return __recv_chk (__fd, __buf, __n, __builtin_object_size (__buf, 0), __flags);

      if (__n > __builtin_object_size (__buf, 0))
 return __recv_chk_warn (__fd, __buf, __n, __builtin_object_size (__buf, 0), __flags);
    }
  return __recv_alias (__fd, __buf, __n, __flags);
}

extern ssize_t __recvfrom_chk (int __fd, void *__restrict __buf, size_t __n,
          size_t __buflen, int __flags,
          __SOCKADDR_ARG __addr,
          socklen_t *__restrict __addr_len);
extern ssize_t __recvfrom_alias (int __fd, void *__restrict __buf, size_t __n, int __flags, __SOCKADDR_ARG __addr, socklen_t *__restrict __addr_len) __asm__ ("" "recvfrom")


                                                   ;
extern ssize_t __recvfrom_chk_warn (int __fd, void *__restrict __buf, size_t __n, size_t __buflen, int __flags, __SOCKADDR_ARG __addr, socklen_t *__restrict __addr_len) __asm__ ("" "__recvfrom_chk")




     __attribute__((__warning__ ("recvfrom called with bigger length than size of " "destination buffer")))
                        ;

extern __inline __attribute__ ((__always_inline__)) __attribute__ ((__artificial__)) ssize_t
recvfrom (int __fd, void *__restrict __buf, size_t __n, int __flags,
   __SOCKADDR_ARG __addr, socklen_t *__restrict __addr_len)
{
  if (__builtin_object_size (__buf, 0) != (size_t) -1)
    {
      if (!__builtin_constant_p (__n))
 return __recvfrom_chk (__fd, __buf, __n, __builtin_object_size (__buf, 0), __flags,
          __addr, __addr_len);
      if (__n > __builtin_object_size (__buf, 0))
 return __recvfrom_chk_warn (__fd, __buf, __n, __builtin_object_size (__buf, 0), __flags,
        __addr, __addr_len);
    }
  return __recvfrom_alias (__fd, __buf, __n, __flags, __addr, __addr_len);
}
# 270 "/usr/include/x86_64-linux-gnu/sys/socket.h" 2 3 4



# 33 "../deps/uv/src/unix/linux-syscalls.h" 2


# 34 "../deps/uv/src/unix/linux-syscalls.h"
struct uv__statx_timestamp {
  int64_t tv_sec;
  uint32_t tv_nsec;
  int32_t unused0;
};

struct uv__statx {
  uint32_t stx_mask;
  uint32_t stx_blksize;
  uint64_t stx_attributes;
  uint32_t stx_nlink;
  uint32_t stx_uid;
  uint32_t stx_gid;
  uint16_t stx_mode;
  uint16_t unused0;
  uint64_t stx_ino;
  uint64_t stx_size;
  uint64_t stx_blocks;
  uint64_t stx_attributes_mask;
  struct uv__statx_timestamp stx_atime;
  struct uv__statx_timestamp stx_btime;
  struct uv__statx_timestamp stx_ctime;
  struct uv__statx_timestamp stx_mtime;
  uint32_t stx_rdev_major;
  uint32_t stx_rdev_minor;
  uint32_t stx_dev_major;
  uint32_t stx_dev_minor;
  uint64_t unused1[14];
};

ssize_t uv__preadv(int fd, const struct iovec *iov, int iovcnt, int64_t offset);
ssize_t uv__pwritev(int fd, const struct iovec *iov, int iovcnt, int64_t offset);
int uv__dup3(int oldfd, int newfd, int flags);
int uv__statx(int dirfd,
              const char* path,
              int flags,
              unsigned int mask,
              struct uv__statx* statxbuf);
ssize_t uv__getrandom(void* buf, size_t buflen, unsigned flags);
# 23 "../deps/uv/src/unix/linux-syscalls.c" 2
# 1 "/usr/include/unistd.h" 1 3 4
# 27 "/usr/include/unistd.h" 3 4

# 202 "/usr/include/unistd.h" 3 4
# 1 "/usr/include/x86_64-linux-gnu/bits/posix_opt.h" 1 3 4
# 203 "/usr/include/unistd.h" 2 3 4



# 1 "/usr/include/x86_64-linux-gnu/bits/environments.h" 1 3 4
# 22 "/usr/include/x86_64-linux-gnu/bits/environments.h" 3 4
# 1 "/usr/include/x86_64-linux-gnu/bits/wordsize.h" 1 3 4
# 23 "/usr/include/x86_64-linux-gnu/bits/environments.h" 2 3 4
# 207 "/usr/include/unistd.h" 2 3 4
# 226 "/usr/include/unistd.h" 3 4
# 1 "/usr/lib/gcc/x86_64-linux-gnu/9/include/stddef.h" 1 3 4
# 227 "/usr/include/unistd.h" 2 3 4
# 287 "/usr/include/unistd.h" 3 4

# 287 "/usr/include/unistd.h" 3 4
extern int access (const char *__name, int __type) __attribute__ ((__nothrow__ , __leaf__)) __attribute__ ((__nonnull__ (1)));




extern int euidaccess (const char *__name, int __type)
     __attribute__ ((__nothrow__ , __leaf__)) __attribute__ ((__nonnull__ (1)));


extern int eaccess (const char *__name, int __type)
     __attribute__ ((__nothrow__ , __leaf__)) __attribute__ ((__nonnull__ (1)));






extern int faccessat (int __fd, const char *__file, int __type, int __flag)
     __attribute__ ((__nothrow__ , __leaf__)) __attribute__ ((__nonnull__ (2))) __attribute__ ((__warn_unused_result__));
# 337 "/usr/include/unistd.h" 3 4
extern __off64_t lseek (int __fd, __off64_t __offset, int __whence) __asm__ ("" "lseek64") __attribute__ ((__nothrow__ , __leaf__))

             ;





extern __off64_t lseek64 (int __fd, __off64_t __offset, int __whence)
     __attribute__ ((__nothrow__ , __leaf__));






extern int close (int __fd);






extern ssize_t read (int __fd, void *__buf, size_t __nbytes) __attribute__ ((__warn_unused_result__));





extern ssize_t write (int __fd, const void *__buf, size_t __n) __attribute__ ((__warn_unused_result__));
# 388 "/usr/include/unistd.h" 3 4
extern ssize_t pread (int __fd, void *__buf, size_t __nbytes, __off64_t __offset) __asm__ ("" "pread64")

               __attribute__ ((__warn_unused_result__));
extern ssize_t pwrite (int __fd, const void *__buf, size_t __nbytes, __off64_t __offset) __asm__ ("" "pwrite64")

                __attribute__ ((__warn_unused_result__));
# 404 "/usr/include/unistd.h" 3 4
extern ssize_t pread64 (int __fd, void *__buf, size_t __nbytes,
   __off64_t __offset) __attribute__ ((__warn_unused_result__));


extern ssize_t pwrite64 (int __fd, const void *__buf, size_t __n,
    __off64_t __offset) __attribute__ ((__warn_unused_result__));







extern int pipe (int __pipedes[2]) __attribute__ ((__nothrow__ , __leaf__)) __attribute__ ((__warn_unused_result__));




extern int pipe2 (int __pipedes[2], int __flags) __attribute__ ((__nothrow__ , __leaf__)) __attribute__ ((__warn_unused_result__));
# 432 "/usr/include/unistd.h" 3 4
extern unsigned int alarm (unsigned int __seconds) __attribute__ ((__nothrow__ , __leaf__));
# 444 "/usr/include/unistd.h" 3 4
extern unsigned int sleep (unsigned int __seconds);







extern __useconds_t ualarm (__useconds_t __value, __useconds_t __interval)
     __attribute__ ((__nothrow__ , __leaf__));






extern int usleep (__useconds_t __useconds);
# 469 "/usr/include/unistd.h" 3 4
extern int pause (void);



extern int chown (const char *__file, __uid_t __owner, __gid_t __group)
     __attribute__ ((__nothrow__ , __leaf__)) __attribute__ ((__nonnull__ (1))) __attribute__ ((__warn_unused_result__));



extern int fchown (int __fd, __uid_t __owner, __gid_t __group) __attribute__ ((__nothrow__ , __leaf__)) __attribute__ ((__warn_unused_result__));




extern int lchown (const char *__file, __uid_t __owner, __gid_t __group)
     __attribute__ ((__nothrow__ , __leaf__)) __attribute__ ((__nonnull__ (1))) __attribute__ ((__warn_unused_result__));






extern int fchownat (int __fd, const char *__file, __uid_t __owner,
       __gid_t __group, int __flag)
     __attribute__ ((__nothrow__ , __leaf__)) __attribute__ ((__nonnull__ (2))) __attribute__ ((__warn_unused_result__));



extern int chdir (const char *__path) __attribute__ ((__nothrow__ , __leaf__)) __attribute__ ((__nonnull__ (1))) __attribute__ ((__warn_unused_result__));



extern int fchdir (int __fd) __attribute__ ((__nothrow__ , __leaf__)) __attribute__ ((__warn_unused_result__));
# 511 "/usr/include/unistd.h" 3 4
extern char *getcwd (char *__buf, size_t __size) __attribute__ ((__nothrow__ , __leaf__)) __attribute__ ((__warn_unused_result__));





extern char *get_current_dir_name (void) __attribute__ ((__nothrow__ , __leaf__));







extern char *getwd (char *__buf)
     __attribute__ ((__nothrow__ , __leaf__)) __attribute__ ((__nonnull__ (1))) __attribute__ ((__deprecated__)) __attribute__ ((__warn_unused_result__));




extern int dup (int __fd) __attribute__ ((__nothrow__ , __leaf__)) __attribute__ ((__warn_unused_result__));


extern int dup2 (int __fd, int __fd2) __attribute__ ((__nothrow__ , __leaf__));




extern int dup3 (int __fd, int __fd2, int __flags) __attribute__ ((__nothrow__ , __leaf__));



extern char **__environ;

extern char **environ;





extern int execve (const char *__path, char *const __argv[],
     char *const __envp[]) __attribute__ ((__nothrow__ , __leaf__)) __attribute__ ((__nonnull__ (1, 2)));




extern int fexecve (int __fd, char *const __argv[], char *const __envp[])
     __attribute__ ((__nothrow__ , __leaf__)) __attribute__ ((__nonnull__ (2)));




extern int execv (const char *__path, char *const __argv[])
     __attribute__ ((__nothrow__ , __leaf__)) __attribute__ ((__nonnull__ (1, 2)));



extern int execle (const char *__path, const char *__arg, ...)
     __attribute__ ((__nothrow__ , __leaf__)) __attribute__ ((__nonnull__ (1, 2)));



extern int execl (const char *__path, const char *__arg, ...)
     __attribute__ ((__nothrow__ , __leaf__)) __attribute__ ((__nonnull__ (1, 2)));



extern int execvp (const char *__file, char *const __argv[])
     __attribute__ ((__nothrow__ , __leaf__)) __attribute__ ((__nonnull__ (1, 2)));




extern int execlp (const char *__file, const char *__arg, ...)
     __attribute__ ((__nothrow__ , __leaf__)) __attribute__ ((__nonnull__ (1, 2)));




extern int execvpe (const char *__file, char *const __argv[],
      char *const __envp[])
     __attribute__ ((__nothrow__ , __leaf__)) __attribute__ ((__nonnull__ (1, 2)));





extern int nice (int __inc) __attribute__ ((__nothrow__ , __leaf__)) __attribute__ ((__warn_unused_result__));




extern void _exit (int __status) __attribute__ ((__noreturn__));





# 1 "/usr/include/x86_64-linux-gnu/bits/confname.h" 1 3 4
# 24 "/usr/include/x86_64-linux-gnu/bits/confname.h" 3 4
enum
  {
    _PC_LINK_MAX,

    _PC_MAX_CANON,

    _PC_MAX_INPUT,

    _PC_NAME_MAX,

    _PC_PATH_MAX,

    _PC_PIPE_BUF,

    _PC_CHOWN_RESTRICTED,

    _PC_NO_TRUNC,

    _PC_VDISABLE,

    _PC_SYNC_IO,

    _PC_ASYNC_IO,

    _PC_PRIO_IO,

    _PC_SOCK_MAXBUF,

    _PC_FILESIZEBITS,

    _PC_REC_INCR_XFER_SIZE,

    _PC_REC_MAX_XFER_SIZE,

    _PC_REC_MIN_XFER_SIZE,

    _PC_REC_XFER_ALIGN,

    _PC_ALLOC_SIZE_MIN,

    _PC_SYMLINK_MAX,

    _PC_2_SYMLINKS

  };


enum
  {
    _SC_ARG_MAX,

    _SC_CHILD_MAX,

    _SC_CLK_TCK,

    _SC_NGROUPS_MAX,

    _SC_OPEN_MAX,

    _SC_STREAM_MAX,

    _SC_TZNAME_MAX,

    _SC_JOB_CONTROL,

    _SC_SAVED_IDS,

    _SC_REALTIME_SIGNALS,

    _SC_PRIORITY_SCHEDULING,

    _SC_TIMERS,

    _SC_ASYNCHRONOUS_IO,

    _SC_PRIORITIZED_IO,

    _SC_SYNCHRONIZED_IO,

    _SC_FSYNC,

    _SC_MAPPED_FILES,

    _SC_MEMLOCK,

    _SC_MEMLOCK_RANGE,

    _SC_MEMORY_PROTECTION,

    _SC_MESSAGE_PASSING,

    _SC_SEMAPHORES,

    _SC_SHARED_MEMORY_OBJECTS,

    _SC_AIO_LISTIO_MAX,

    _SC_AIO_MAX,

    _SC_AIO_PRIO_DELTA_MAX,

    _SC_DELAYTIMER_MAX,

    _SC_MQ_OPEN_MAX,

    _SC_MQ_PRIO_MAX,

    _SC_VERSION,

    _SC_PAGESIZE,


    _SC_RTSIG_MAX,

    _SC_SEM_NSEMS_MAX,

    _SC_SEM_VALUE_MAX,

    _SC_SIGQUEUE_MAX,

    _SC_TIMER_MAX,




    _SC_BC_BASE_MAX,

    _SC_BC_DIM_MAX,

    _SC_BC_SCALE_MAX,

    _SC_BC_STRING_MAX,

    _SC_COLL_WEIGHTS_MAX,

    _SC_EQUIV_CLASS_MAX,

    _SC_EXPR_NEST_MAX,

    _SC_LINE_MAX,

    _SC_RE_DUP_MAX,

    _SC_CHARCLASS_NAME_MAX,


    _SC_2_VERSION,

    _SC_2_C_BIND,

    _SC_2_C_DEV,

    _SC_2_FORT_DEV,

    _SC_2_FORT_RUN,

    _SC_2_SW_DEV,

    _SC_2_LOCALEDEF,


    _SC_PII,

    _SC_PII_XTI,

    _SC_PII_SOCKET,

    _SC_PII_INTERNET,

    _SC_PII_OSI,

    _SC_POLL,

    _SC_SELECT,

    _SC_UIO_MAXIOV,

    _SC_IOV_MAX = _SC_UIO_MAXIOV,

    _SC_PII_INTERNET_STREAM,

    _SC_PII_INTERNET_DGRAM,

    _SC_PII_OSI_COTS,

    _SC_PII_OSI_CLTS,

    _SC_PII_OSI_M,

    _SC_T_IOV_MAX,



    _SC_THREADS,

    _SC_THREAD_SAFE_FUNCTIONS,

    _SC_GETGR_R_SIZE_MAX,

    _SC_GETPW_R_SIZE_MAX,

    _SC_LOGIN_NAME_MAX,

    _SC_TTY_NAME_MAX,

    _SC_THREAD_DESTRUCTOR_ITERATIONS,

    _SC_THREAD_KEYS_MAX,

    _SC_THREAD_STACK_MIN,

    _SC_THREAD_THREADS_MAX,

    _SC_THREAD_ATTR_STACKADDR,

    _SC_THREAD_ATTR_STACKSIZE,

    _SC_THREAD_PRIORITY_SCHEDULING,

    _SC_THREAD_PRIO_INHERIT,

    _SC_THREAD_PRIO_PROTECT,

    _SC_THREAD_PROCESS_SHARED,


    _SC_NPROCESSORS_CONF,

    _SC_NPROCESSORS_ONLN,

    _SC_PHYS_PAGES,

    _SC_AVPHYS_PAGES,

    _SC_ATEXIT_MAX,

    _SC_PASS_MAX,


    _SC_XOPEN_VERSION,

    _SC_XOPEN_XCU_VERSION,

    _SC_XOPEN_UNIX,

    _SC_XOPEN_CRYPT,

    _SC_XOPEN_ENH_I18N,

    _SC_XOPEN_SHM,


    _SC_2_CHAR_TERM,

    _SC_2_C_VERSION,

    _SC_2_UPE,


    _SC_XOPEN_XPG2,

    _SC_XOPEN_XPG3,

    _SC_XOPEN_XPG4,


    _SC_CHAR_BIT,

    _SC_CHAR_MAX,

    _SC_CHAR_MIN,

    _SC_INT_MAX,

    _SC_INT_MIN,

    _SC_LONG_BIT,

    _SC_WORD_BIT,

    _SC_MB_LEN_MAX,

    _SC_NZERO,

    _SC_SSIZE_MAX,

    _SC_SCHAR_MAX,

    _SC_SCHAR_MIN,

    _SC_SHRT_MAX,

    _SC_SHRT_MIN,

    _SC_UCHAR_MAX,

    _SC_UINT_MAX,

    _SC_ULONG_MAX,

    _SC_USHRT_MAX,


    _SC_NL_ARGMAX,

    _SC_NL_LANGMAX,

    _SC_NL_MSGMAX,

    _SC_NL_NMAX,

    _SC_NL_SETMAX,

    _SC_NL_TEXTMAX,


    _SC_XBS5_ILP32_OFF32,

    _SC_XBS5_ILP32_OFFBIG,

    _SC_XBS5_LP64_OFF64,

    _SC_XBS5_LPBIG_OFFBIG,


    _SC_XOPEN_LEGACY,

    _SC_XOPEN_REALTIME,

    _SC_XOPEN_REALTIME_THREADS,


    _SC_ADVISORY_INFO,

    _SC_BARRIERS,

    _SC_BASE,

    _SC_C_LANG_SUPPORT,

    _SC_C_LANG_SUPPORT_R,

    _SC_CLOCK_SELECTION,

    _SC_CPUTIME,

    _SC_THREAD_CPUTIME,

    _SC_DEVICE_IO,

    _SC_DEVICE_SPECIFIC,

    _SC_DEVICE_SPECIFIC_R,

    _SC_FD_MGMT,

    _SC_FIFO,

    _SC_PIPE,

    _SC_FILE_ATTRIBUTES,

    _SC_FILE_LOCKING,

    _SC_FILE_SYSTEM,

    _SC_MONOTONIC_CLOCK,

    _SC_MULTI_PROCESS,

    _SC_SINGLE_PROCESS,

    _SC_NETWORKING,

    _SC_READER_WRITER_LOCKS,

    _SC_SPIN_LOCKS,

    _SC_REGEXP,

    _SC_REGEX_VERSION,

    _SC_SHELL,

    _SC_SIGNALS,

    _SC_SPAWN,

    _SC_SPORADIC_SERVER,

    _SC_THREAD_SPORADIC_SERVER,

    _SC_SYSTEM_DATABASE,

    _SC_SYSTEM_DATABASE_R,

    _SC_TIMEOUTS,

    _SC_TYPED_MEMORY_OBJECTS,

    _SC_USER_GROUPS,

    _SC_USER_GROUPS_R,

    _SC_2_PBS,

    _SC_2_PBS_ACCOUNTING,

    _SC_2_PBS_LOCATE,

    _SC_2_PBS_MESSAGE,

    _SC_2_PBS_TRACK,

    _SC_SYMLOOP_MAX,

    _SC_STREAMS,

    _SC_2_PBS_CHECKPOINT,


    _SC_V6_ILP32_OFF32,

    _SC_V6_ILP32_OFFBIG,

    _SC_V6_LP64_OFF64,

    _SC_V6_LPBIG_OFFBIG,


    _SC_HOST_NAME_MAX,

    _SC_TRACE,

    _SC_TRACE_EVENT_FILTER,

    _SC_TRACE_INHERIT,

    _SC_TRACE_LOG,


    _SC_LEVEL1_ICACHE_SIZE,

    _SC_LEVEL1_ICACHE_ASSOC,

    _SC_LEVEL1_ICACHE_LINESIZE,

    _SC_LEVEL1_DCACHE_SIZE,

    _SC_LEVEL1_DCACHE_ASSOC,

    _SC_LEVEL1_DCACHE_LINESIZE,

    _SC_LEVEL2_CACHE_SIZE,

    _SC_LEVEL2_CACHE_ASSOC,

    _SC_LEVEL2_CACHE_LINESIZE,

    _SC_LEVEL3_CACHE_SIZE,

    _SC_LEVEL3_CACHE_ASSOC,

    _SC_LEVEL3_CACHE_LINESIZE,

    _SC_LEVEL4_CACHE_SIZE,

    _SC_LEVEL4_CACHE_ASSOC,

    _SC_LEVEL4_CACHE_LINESIZE,



    _SC_IPV6 = _SC_LEVEL1_ICACHE_SIZE + 50,

    _SC_RAW_SOCKETS,


    _SC_V7_ILP32_OFF32,

    _SC_V7_ILP32_OFFBIG,

    _SC_V7_LP64_OFF64,

    _SC_V7_LPBIG_OFFBIG,


    _SC_SS_REPL_MAX,


    _SC_TRACE_EVENT_NAME_MAX,

    _SC_TRACE_NAME_MAX,

    _SC_TRACE_SYS_MAX,

    _SC_TRACE_USER_EVENT_MAX,


    _SC_XOPEN_STREAMS,


    _SC_THREAD_ROBUST_PRIO_INHERIT,

    _SC_THREAD_ROBUST_PRIO_PROTECT

  };


enum
  {
    _CS_PATH,


    _CS_V6_WIDTH_RESTRICTED_ENVS,



    _CS_GNU_LIBC_VERSION,

    _CS_GNU_LIBPTHREAD_VERSION,


    _CS_V5_WIDTH_RESTRICTED_ENVS,



    _CS_V7_WIDTH_RESTRICTED_ENVS,



    _CS_LFS_CFLAGS = 1000,

    _CS_LFS_LDFLAGS,

    _CS_LFS_LIBS,

    _CS_LFS_LINTFLAGS,

    _CS_LFS64_CFLAGS,

    _CS_LFS64_LDFLAGS,

    _CS_LFS64_LIBS,

    _CS_LFS64_LINTFLAGS,


    _CS_XBS5_ILP32_OFF32_CFLAGS = 1100,

    _CS_XBS5_ILP32_OFF32_LDFLAGS,

    _CS_XBS5_ILP32_OFF32_LIBS,

    _CS_XBS5_ILP32_OFF32_LINTFLAGS,

    _CS_XBS5_ILP32_OFFBIG_CFLAGS,

    _CS_XBS5_ILP32_OFFBIG_LDFLAGS,

    _CS_XBS5_ILP32_OFFBIG_LIBS,

    _CS_XBS5_ILP32_OFFBIG_LINTFLAGS,

    _CS_XBS5_LP64_OFF64_CFLAGS,

    _CS_XBS5_LP64_OFF64_LDFLAGS,

    _CS_XBS5_LP64_OFF64_LIBS,

    _CS_XBS5_LP64_OFF64_LINTFLAGS,

    _CS_XBS5_LPBIG_OFFBIG_CFLAGS,

    _CS_XBS5_LPBIG_OFFBIG_LDFLAGS,

    _CS_XBS5_LPBIG_OFFBIG_LIBS,

    _CS_XBS5_LPBIG_OFFBIG_LINTFLAGS,


    _CS_POSIX_V6_ILP32_OFF32_CFLAGS,

    _CS_POSIX_V6_ILP32_OFF32_LDFLAGS,

    _CS_POSIX_V6_ILP32_OFF32_LIBS,

    _CS_POSIX_V6_ILP32_OFF32_LINTFLAGS,

    _CS_POSIX_V6_ILP32_OFFBIG_CFLAGS,

    _CS_POSIX_V6_ILP32_OFFBIG_LDFLAGS,

    _CS_POSIX_V6_ILP32_OFFBIG_LIBS,

    _CS_POSIX_V6_ILP32_OFFBIG_LINTFLAGS,

    _CS_POSIX_V6_LP64_OFF64_CFLAGS,

    _CS_POSIX_V6_LP64_OFF64_LDFLAGS,

    _CS_POSIX_V6_LP64_OFF64_LIBS,

    _CS_POSIX_V6_LP64_OFF64_LINTFLAGS,

    _CS_POSIX_V6_LPBIG_OFFBIG_CFLAGS,

    _CS_POSIX_V6_LPBIG_OFFBIG_LDFLAGS,

    _CS_POSIX_V6_LPBIG_OFFBIG_LIBS,

    _CS_POSIX_V6_LPBIG_OFFBIG_LINTFLAGS,


    _CS_POSIX_V7_ILP32_OFF32_CFLAGS,

    _CS_POSIX_V7_ILP32_OFF32_LDFLAGS,

    _CS_POSIX_V7_ILP32_OFF32_LIBS,

    _CS_POSIX_V7_ILP32_OFF32_LINTFLAGS,

    _CS_POSIX_V7_ILP32_OFFBIG_CFLAGS,

    _CS_POSIX_V7_ILP32_OFFBIG_LDFLAGS,

    _CS_POSIX_V7_ILP32_OFFBIG_LIBS,

    _CS_POSIX_V7_ILP32_OFFBIG_LINTFLAGS,

    _CS_POSIX_V7_LP64_OFF64_CFLAGS,

    _CS_POSIX_V7_LP64_OFF64_LDFLAGS,

    _CS_POSIX_V7_LP64_OFF64_LIBS,

    _CS_POSIX_V7_LP64_OFF64_LINTFLAGS,

    _CS_POSIX_V7_LPBIG_OFFBIG_CFLAGS,

    _CS_POSIX_V7_LPBIG_OFFBIG_LDFLAGS,

    _CS_POSIX_V7_LPBIG_OFFBIG_LIBS,

    _CS_POSIX_V7_LPBIG_OFFBIG_LINTFLAGS,


    _CS_V6_ENV,

    _CS_V7_ENV

  };
# 610 "/usr/include/unistd.h" 2 3 4


extern long int pathconf (const char *__path, int __name)
     __attribute__ ((__nothrow__ , __leaf__)) __attribute__ ((__nonnull__ (1)));


extern long int fpathconf (int __fd, int __name) __attribute__ ((__nothrow__ , __leaf__));


extern long int sysconf (int __name) __attribute__ ((__nothrow__ , __leaf__));



extern size_t confstr (int __name, char *__buf, size_t __len) __attribute__ ((__nothrow__ , __leaf__));




extern __pid_t getpid (void) __attribute__ ((__nothrow__ , __leaf__));


extern __pid_t getppid (void) __attribute__ ((__nothrow__ , __leaf__));


extern __pid_t getpgrp (void) __attribute__ ((__nothrow__ , __leaf__));


extern __pid_t __getpgid (__pid_t __pid) __attribute__ ((__nothrow__ , __leaf__));

extern __pid_t getpgid (__pid_t __pid) __attribute__ ((__nothrow__ , __leaf__));






extern int setpgid (__pid_t __pid, __pid_t __pgid) __attribute__ ((__nothrow__ , __leaf__));
# 660 "/usr/include/unistd.h" 3 4
extern int setpgrp (void) __attribute__ ((__nothrow__ , __leaf__));






extern __pid_t setsid (void) __attribute__ ((__nothrow__ , __leaf__));



extern __pid_t getsid (__pid_t __pid) __attribute__ ((__nothrow__ , __leaf__));



extern __uid_t getuid (void) __attribute__ ((__nothrow__ , __leaf__));


extern __uid_t geteuid (void) __attribute__ ((__nothrow__ , __leaf__));


extern __gid_t getgid (void) __attribute__ ((__nothrow__ , __leaf__));


extern __gid_t getegid (void) __attribute__ ((__nothrow__ , __leaf__));




extern int getgroups (int __size, __gid_t __list[]) __attribute__ ((__nothrow__ , __leaf__)) __attribute__ ((__warn_unused_result__));



extern int group_member (__gid_t __gid) __attribute__ ((__nothrow__ , __leaf__));






extern int setuid (__uid_t __uid) __attribute__ ((__nothrow__ , __leaf__)) __attribute__ ((__warn_unused_result__));




extern int setreuid (__uid_t __ruid, __uid_t __euid) __attribute__ ((__nothrow__ , __leaf__)) __attribute__ ((__warn_unused_result__));




extern int seteuid (__uid_t __uid) __attribute__ ((__nothrow__ , __leaf__)) __attribute__ ((__warn_unused_result__));






extern int setgid (__gid_t __gid) __attribute__ ((__nothrow__ , __leaf__)) __attribute__ ((__warn_unused_result__));




extern int setregid (__gid_t __rgid, __gid_t __egid) __attribute__ ((__nothrow__ , __leaf__)) __attribute__ ((__warn_unused_result__));




extern int setegid (__gid_t __gid) __attribute__ ((__nothrow__ , __leaf__)) __attribute__ ((__warn_unused_result__));





extern int getresuid (__uid_t *__ruid, __uid_t *__euid, __uid_t *__suid)
     __attribute__ ((__nothrow__ , __leaf__));



extern int getresgid (__gid_t *__rgid, __gid_t *__egid, __gid_t *__sgid)
     __attribute__ ((__nothrow__ , __leaf__));



extern int setresuid (__uid_t __ruid, __uid_t __euid, __uid_t __suid)
     __attribute__ ((__nothrow__ , __leaf__)) __attribute__ ((__warn_unused_result__));



extern int setresgid (__gid_t __rgid, __gid_t __egid, __gid_t __sgid)
     __attribute__ ((__nothrow__ , __leaf__)) __attribute__ ((__warn_unused_result__));






extern __pid_t fork (void) __attribute__ ((__nothrow__));







extern __pid_t vfork (void) __attribute__ ((__nothrow__ , __leaf__));





extern char *ttyname (int __fd) __attribute__ ((__nothrow__ , __leaf__));



extern int ttyname_r (int __fd, char *__buf, size_t __buflen)
     __attribute__ ((__nothrow__ , __leaf__)) __attribute__ ((__nonnull__ (2))) __attribute__ ((__warn_unused_result__));



extern int isatty (int __fd) __attribute__ ((__nothrow__ , __leaf__));




extern int ttyslot (void) __attribute__ ((__nothrow__ , __leaf__));




extern int link (const char *__from, const char *__to)
     __attribute__ ((__nothrow__ , __leaf__)) __attribute__ ((__nonnull__ (1, 2))) __attribute__ ((__warn_unused_result__));




extern int linkat (int __fromfd, const char *__from, int __tofd,
     const char *__to, int __flags)
     __attribute__ ((__nothrow__ , __leaf__)) __attribute__ ((__nonnull__ (2, 4))) __attribute__ ((__warn_unused_result__));




extern int symlink (const char *__from, const char *__to)
     __attribute__ ((__nothrow__ , __leaf__)) __attribute__ ((__nonnull__ (1, 2))) __attribute__ ((__warn_unused_result__));




extern ssize_t readlink (const char *__restrict __path,
    char *__restrict __buf, size_t __len)
     __attribute__ ((__nothrow__ , __leaf__)) __attribute__ ((__nonnull__ (1, 2))) __attribute__ ((__warn_unused_result__));




extern int symlinkat (const char *__from, int __tofd,
        const char *__to) __attribute__ ((__nothrow__ , __leaf__)) __attribute__ ((__nonnull__ (1, 3))) __attribute__ ((__warn_unused_result__));


extern ssize_t readlinkat (int __fd, const char *__restrict __path,
      char *__restrict __buf, size_t __len)
     __attribute__ ((__nothrow__ , __leaf__)) __attribute__ ((__nonnull__ (2, 3))) __attribute__ ((__warn_unused_result__));



extern int unlink (const char *__name) __attribute__ ((__nothrow__ , __leaf__)) __attribute__ ((__nonnull__ (1)));



extern int unlinkat (int __fd, const char *__name, int __flag)
     __attribute__ ((__nothrow__ , __leaf__)) __attribute__ ((__nonnull__ (2)));



extern int rmdir (const char *__path) __attribute__ ((__nothrow__ , __leaf__)) __attribute__ ((__nonnull__ (1)));



extern __pid_t tcgetpgrp (int __fd) __attribute__ ((__nothrow__ , __leaf__));


extern int tcsetpgrp (int __fd, __pid_t __pgrp_id) __attribute__ ((__nothrow__ , __leaf__));






extern char *getlogin (void);







extern int getlogin_r (char *__name, size_t __name_len) __attribute__ ((__nonnull__ (1)));




extern int setlogin (const char *__name) __attribute__ ((__nothrow__ , __leaf__)) __attribute__ ((__nonnull__ (1)));







# 1 "/usr/include/x86_64-linux-gnu/bits/getopt_posix.h" 1 3 4
# 27 "/usr/include/x86_64-linux-gnu/bits/getopt_posix.h" 3 4
# 1 "/usr/include/x86_64-linux-gnu/bits/getopt_core.h" 1 3 4
# 28 "/usr/include/x86_64-linux-gnu/bits/getopt_core.h" 3 4








extern char *optarg;
# 50 "/usr/include/x86_64-linux-gnu/bits/getopt_core.h" 3 4
extern int optind;




extern int opterr;



extern int optopt;
# 91 "/usr/include/x86_64-linux-gnu/bits/getopt_core.h" 3 4
extern int getopt (int ___argc, char *const *___argv, const char *__shortopts)
       __attribute__ ((__nothrow__ , __leaf__)) __attribute__ ((__nonnull__ (2, 3)));


# 28 "/usr/include/x86_64-linux-gnu/bits/getopt_posix.h" 2 3 4


# 49 "/usr/include/x86_64-linux-gnu/bits/getopt_posix.h" 3 4

# 870 "/usr/include/unistd.h" 2 3 4







extern int gethostname (char *__name, size_t __len) __attribute__ ((__nothrow__ , __leaf__)) __attribute__ ((__nonnull__ (1)));






extern int sethostname (const char *__name, size_t __len)
     __attribute__ ((__nothrow__ , __leaf__)) __attribute__ ((__nonnull__ (1))) __attribute__ ((__warn_unused_result__));



extern int sethostid (long int __id) __attribute__ ((__nothrow__ , __leaf__)) __attribute__ ((__warn_unused_result__));





extern int getdomainname (char *__name, size_t __len)
     __attribute__ ((__nothrow__ , __leaf__)) __attribute__ ((__nonnull__ (1))) __attribute__ ((__warn_unused_result__));
extern int setdomainname (const char *__name, size_t __len)
     __attribute__ ((__nothrow__ , __leaf__)) __attribute__ ((__nonnull__ (1))) __attribute__ ((__warn_unused_result__));





extern int vhangup (void) __attribute__ ((__nothrow__ , __leaf__));


extern int revoke (const char *__file) __attribute__ ((__nothrow__ , __leaf__)) __attribute__ ((__nonnull__ (1))) __attribute__ ((__warn_unused_result__));







extern int profil (unsigned short int *__sample_buffer, size_t __size,
     size_t __offset, unsigned int __scale)
     __attribute__ ((__nothrow__ , __leaf__)) __attribute__ ((__nonnull__ (1)));





extern int acct (const char *__name) __attribute__ ((__nothrow__ , __leaf__));



extern char *getusershell (void) __attribute__ ((__nothrow__ , __leaf__));
extern void endusershell (void) __attribute__ ((__nothrow__ , __leaf__));
extern void setusershell (void) __attribute__ ((__nothrow__ , __leaf__));





extern int daemon (int __nochdir, int __noclose) __attribute__ ((__nothrow__ , __leaf__)) __attribute__ ((__warn_unused_result__));






extern int chroot (const char *__path) __attribute__ ((__nothrow__ , __leaf__)) __attribute__ ((__nonnull__ (1))) __attribute__ ((__warn_unused_result__));



extern char *getpass (const char *__prompt) __attribute__ ((__nonnull__ (1)));







extern int fsync (int __fd);





extern int syncfs (int __fd) __attribute__ ((__nothrow__ , __leaf__));






extern long int gethostid (void);


extern void sync (void) __attribute__ ((__nothrow__ , __leaf__));





extern int getpagesize (void) __attribute__ ((__nothrow__ , __leaf__)) __attribute__ ((__const__));




extern int getdtablesize (void) __attribute__ ((__nothrow__ , __leaf__));
# 995 "/usr/include/unistd.h" 3 4
extern int truncate (const char *__file, __off64_t __length) __asm__ ("" "truncate64") __attribute__ ((__nothrow__ , __leaf__))

                  __attribute__ ((__nonnull__ (1))) __attribute__ ((__warn_unused_result__));





extern int truncate64 (const char *__file, __off64_t __length)
     __attribute__ ((__nothrow__ , __leaf__)) __attribute__ ((__nonnull__ (1))) __attribute__ ((__warn_unused_result__));
# 1017 "/usr/include/unistd.h" 3 4
extern int ftruncate (int __fd, __off64_t __length) __asm__ ("" "ftruncate64") __attribute__ ((__nothrow__ , __leaf__))
                   __attribute__ ((__warn_unused_result__));





extern int ftruncate64 (int __fd, __off64_t __length) __attribute__ ((__nothrow__ , __leaf__)) __attribute__ ((__warn_unused_result__));
# 1035 "/usr/include/unistd.h" 3 4
extern int brk (void *__addr) __attribute__ ((__nothrow__ , __leaf__)) __attribute__ ((__warn_unused_result__));





extern void *sbrk (intptr_t __delta) __attribute__ ((__nothrow__ , __leaf__));
# 1056 "/usr/include/unistd.h" 3 4
extern long int syscall (long int __sysno, ...) __attribute__ ((__nothrow__ , __leaf__));
# 1082 "/usr/include/unistd.h" 3 4
extern int lockf (int __fd, int __cmd, __off64_t __len) __asm__ ("" "lockf64")
                  __attribute__ ((__warn_unused_result__));





extern int lockf64 (int __fd, int __cmd, __off64_t __len) __attribute__ ((__warn_unused_result__));
# 1107 "/usr/include/unistd.h" 3 4
ssize_t copy_file_range (int __infd, __off64_t *__pinoff,
    int __outfd, __off64_t *__poutoff,
    size_t __length, unsigned int __flags);





extern int fdatasync (int __fildes);
# 1124 "/usr/include/unistd.h" 3 4
extern char *crypt (const char *__key, const char *__salt)
     __attribute__ ((__nothrow__ , __leaf__)) __attribute__ ((__nonnull__ (1, 2)));







extern void swab (const void *__restrict __from, void *__restrict __to,
    ssize_t __n) __attribute__ ((__nothrow__ , __leaf__)) __attribute__ ((__nonnull__ (1, 2)));
# 1161 "/usr/include/unistd.h" 3 4
int getentropy (void *__buffer, size_t __length) __attribute__ ((__warn_unused_result__));




# 1 "/usr/include/x86_64-linux-gnu/bits/unistd.h" 1 3 4
# 23 "/usr/include/x86_64-linux-gnu/bits/unistd.h" 3 4
extern ssize_t __read_chk (int __fd, void *__buf, size_t __nbytes,
      size_t __buflen) __attribute__ ((__warn_unused_result__));
extern ssize_t __read_alias (int __fd, void *__buf, size_t __nbytes) __asm__ ("" "read")
                               __attribute__ ((__warn_unused_result__));
extern ssize_t __read_chk_warn (int __fd, void *__buf, size_t __nbytes, size_t __buflen) __asm__ ("" "__read_chk")


     __attribute__ ((__warn_unused_result__)) __attribute__((__warning__ ("read called with bigger length than size of " "the destination buffer")))
                                  ;

extern __inline __attribute__ ((__always_inline__)) __attribute__ ((__artificial__)) __attribute__ ((__warn_unused_result__)) ssize_t
read (int __fd, void *__buf, size_t __nbytes)
{
  if (__builtin_object_size (__buf, 0) != (size_t) -1)
    {
      if (!__builtin_constant_p (__nbytes))
 return __read_chk (__fd, __buf, __nbytes, __builtin_object_size (__buf, 0));

      if (__nbytes > __builtin_object_size (__buf, 0))
 return __read_chk_warn (__fd, __buf, __nbytes, __builtin_object_size (__buf, 0));
    }
  return __read_alias (__fd, __buf, __nbytes);
}


extern ssize_t __pread_chk (int __fd, void *__buf, size_t __nbytes,
       __off_t __offset, size_t __bufsize) __attribute__ ((__warn_unused_result__));
extern ssize_t __pread64_chk (int __fd, void *__buf, size_t __nbytes,
         __off64_t __offset, size_t __bufsize) __attribute__ ((__warn_unused_result__));
extern ssize_t __pread_alias (int __fd, void *__buf, size_t __nbytes, __off_t __offset) __asm__ ("" "pread")

                                 __attribute__ ((__warn_unused_result__));
extern ssize_t __pread64_alias (int __fd, void *__buf, size_t __nbytes, __off64_t __offset) __asm__ ("" "pread64")

                                     __attribute__ ((__warn_unused_result__));
extern ssize_t __pread_chk_warn (int __fd, void *__buf, size_t __nbytes, __off_t __offset, size_t __bufsize) __asm__ ("" "__pread_chk")


     __attribute__ ((__warn_unused_result__)) __attribute__((__warning__ ("pread called with bigger length than size of " "the destination buffer")))
                                  ;
extern ssize_t __pread64_chk_warn (int __fd, void *__buf, size_t __nbytes, __off64_t __offset, size_t __bufsize) __asm__ ("" "__pread64_chk")



     __attribute__ ((__warn_unused_result__)) __attribute__((__warning__ ("pread64 called with bigger length than size of " "the destination buffer")))
                                  ;
# 86 "/usr/include/x86_64-linux-gnu/bits/unistd.h" 3 4
extern __inline __attribute__ ((__always_inline__)) __attribute__ ((__artificial__)) __attribute__ ((__warn_unused_result__)) ssize_t
pread (int __fd, void *__buf, size_t __nbytes, __off64_t __offset)
{
  if (__builtin_object_size (__buf, 0) != (size_t) -1)
    {
      if (!__builtin_constant_p (__nbytes))
 return __pread64_chk (__fd, __buf, __nbytes, __offset, __builtin_object_size (__buf, 0));

      if ( __nbytes > __builtin_object_size (__buf, 0))
 return __pread64_chk_warn (__fd, __buf, __nbytes, __offset,
       __builtin_object_size (__buf, 0));
    }

  return __pread64_alias (__fd, __buf, __nbytes, __offset);
}



extern __inline __attribute__ ((__always_inline__)) __attribute__ ((__artificial__)) __attribute__ ((__warn_unused_result__)) ssize_t
pread64 (int __fd, void *__buf, size_t __nbytes, __off64_t __offset)
{
  if (__builtin_object_size (__buf, 0) != (size_t) -1)
    {
      if (!__builtin_constant_p (__nbytes))
 return __pread64_chk (__fd, __buf, __nbytes, __offset, __builtin_object_size (__buf, 0));

      if ( __nbytes > __builtin_object_size (__buf, 0))
 return __pread64_chk_warn (__fd, __buf, __nbytes, __offset,
       __builtin_object_size (__buf, 0));
    }

  return __pread64_alias (__fd, __buf, __nbytes, __offset);
}




extern ssize_t __readlink_chk (const char *__restrict __path,
          char *__restrict __buf, size_t __len,
          size_t __buflen)
     __attribute__ ((__nothrow__ , __leaf__)) __attribute__ ((__nonnull__ (1, 2))) __attribute__ ((__warn_unused_result__));
extern ssize_t __readlink_alias (const char *__restrict __path, char *__restrict __buf, size_t __len) __asm__ ("" "readlink") __attribute__ ((__nothrow__ , __leaf__))


     __attribute__ ((__nonnull__ (1, 2))) __attribute__ ((__warn_unused_result__));
extern ssize_t __readlink_chk_warn (const char *__restrict __path, char *__restrict __buf, size_t __len, size_t __buflen) __asm__ ("" "__readlink_chk") __attribute__ ((__nothrow__ , __leaf__))



     __attribute__ ((__nonnull__ (1, 2))) __attribute__ ((__warn_unused_result__)) __attribute__((__warning__ ("readlink called with bigger length " "than size of destination buffer")))
                                         ;

extern __inline __attribute__ ((__always_inline__)) __attribute__ ((__artificial__)) __attribute__ ((__nonnull__ (1, 2))) __attribute__ ((__warn_unused_result__)) ssize_t
__attribute__ ((__nothrow__ , __leaf__)) readlink (const char *__restrict __path, char *__restrict __buf, size_t __len)

{
  if (__builtin_object_size (__buf, 2 > 1) != (size_t) -1)
    {
      if (!__builtin_constant_p (__len))
 return __readlink_chk (__path, __buf, __len, __builtin_object_size (__buf, 2 > 1));

      if ( __len > __builtin_object_size (__buf, 2 > 1))
 return __readlink_chk_warn (__path, __buf, __len, __builtin_object_size (__buf, 2 > 1));
    }
  return __readlink_alias (__path, __buf, __len);
}



extern ssize_t __readlinkat_chk (int __fd, const char *__restrict __path,
     char *__restrict __buf, size_t __len,
     size_t __buflen)
     __attribute__ ((__nothrow__ , __leaf__)) __attribute__ ((__nonnull__ (2, 3))) __attribute__ ((__warn_unused_result__));
extern ssize_t __readlinkat_alias (int __fd, const char *__restrict __path, char *__restrict __buf, size_t __len) __asm__ ("" "readlinkat") __attribute__ ((__nothrow__ , __leaf__))



     __attribute__ ((__nonnull__ (2, 3))) __attribute__ ((__warn_unused_result__));
extern ssize_t __readlinkat_chk_warn (int __fd, const char *__restrict __path, char *__restrict __buf, size_t __len, size_t __buflen) __asm__ ("" "__readlinkat_chk") __attribute__ ((__nothrow__ , __leaf__))



     __attribute__ ((__nonnull__ (2, 3))) __attribute__ ((__warn_unused_result__)) __attribute__((__warning__ ("readlinkat called with bigger " "length than size of destination " "buffer")))

                ;

extern __inline __attribute__ ((__always_inline__)) __attribute__ ((__artificial__)) __attribute__ ((__nonnull__ (2, 3))) __attribute__ ((__warn_unused_result__)) ssize_t
__attribute__ ((__nothrow__ , __leaf__)) readlinkat (int __fd, const char *__restrict __path, char *__restrict __buf, size_t __len)

{
  if (__builtin_object_size (__buf, 2 > 1) != (size_t) -1)
    {
      if (!__builtin_constant_p (__len))
 return __readlinkat_chk (__fd, __path, __buf, __len, __builtin_object_size (__buf, 2 > 1));

      if (__len > __builtin_object_size (__buf, 2 > 1))
 return __readlinkat_chk_warn (__fd, __path, __buf, __len,
          __builtin_object_size (__buf, 2 > 1));
    }
  return __readlinkat_alias (__fd, __path, __buf, __len);
}


extern char *__getcwd_chk (char *__buf, size_t __size, size_t __buflen)
     __attribute__ ((__nothrow__ , __leaf__)) __attribute__ ((__warn_unused_result__));
extern char *__getcwd_alias (char *__buf, size_t __size) __asm__ ("" "getcwd") __attribute__ ((__nothrow__ , __leaf__))
                                              __attribute__ ((__warn_unused_result__));
extern char *__getcwd_chk_warn (char *__buf, size_t __size, size_t __buflen) __asm__ ("" "__getcwd_chk") __attribute__ ((__nothrow__ , __leaf__))


     __attribute__ ((__warn_unused_result__)) __attribute__((__warning__ ("getcwd caller with bigger length than size of " "destination buffer")))
                              ;

extern __inline __attribute__ ((__always_inline__)) __attribute__ ((__artificial__)) __attribute__ ((__warn_unused_result__)) char *
__attribute__ ((__nothrow__ , __leaf__)) getcwd (char *__buf, size_t __size)
{
  if (__builtin_object_size (__buf, 2 > 1) != (size_t) -1)
    {
      if (!__builtin_constant_p (__size))
 return __getcwd_chk (__buf, __size, __builtin_object_size (__buf, 2 > 1));

      if (__size > __builtin_object_size (__buf, 2 > 1))
 return __getcwd_chk_warn (__buf, __size, __builtin_object_size (__buf, 2 > 1));
    }
  return __getcwd_alias (__buf, __size);
}


extern char *__getwd_chk (char *__buf, size_t buflen)
     __attribute__ ((__nothrow__ , __leaf__)) __attribute__ ((__nonnull__ (1))) __attribute__ ((__warn_unused_result__));
extern char *__getwd_warn (char *__buf) __asm__ ("" "getwd") __attribute__ ((__nothrow__ , __leaf__))
     __attribute__ ((__nonnull__ (1))) __attribute__ ((__warn_unused_result__)) __attribute__((__warning__ ("please use getcwd instead, as getwd " "doesn't specify buffer size")))
                                         ;

extern __inline __attribute__ ((__always_inline__)) __attribute__ ((__artificial__)) __attribute__ ((__nonnull__ (1))) __attribute__ ((__deprecated__)) __attribute__ ((__warn_unused_result__)) char *
__attribute__ ((__nothrow__ , __leaf__)) getwd (char *__buf)
{
  if (__builtin_object_size (__buf, 2 > 1) != (size_t) -1)
    return __getwd_chk (__buf, __builtin_object_size (__buf, 2 > 1));
  return __getwd_warn (__buf);
}


extern size_t __confstr_chk (int __name, char *__buf, size_t __len,
        size_t __buflen) __attribute__ ((__nothrow__ , __leaf__));
extern size_t __confstr_alias (int __name, char *__buf, size_t __len) __asm__ ("" "confstr") __attribute__ ((__nothrow__ , __leaf__))
                             ;
extern size_t __confstr_chk_warn (int __name, char *__buf, size_t __len, size_t __buflen) __asm__ ("" "__confstr_chk") __attribute__ ((__nothrow__ , __leaf__))


     __attribute__((__warning__ ("confstr called with bigger length than size of destination " "buffer")))
            ;

extern __inline __attribute__ ((__always_inline__)) __attribute__ ((__artificial__)) size_t
__attribute__ ((__nothrow__ , __leaf__)) confstr (int __name, char *__buf, size_t __len)
{
  if (__builtin_object_size (__buf, 2 > 1) != (size_t) -1)
    {
      if (!__builtin_constant_p (__len))
 return __confstr_chk (__name, __buf, __len, __builtin_object_size (__buf, 2 > 1));

      if (__builtin_object_size (__buf, 2 > 1) < __len)
 return __confstr_chk_warn (__name, __buf, __len, __builtin_object_size (__buf, 2 > 1));
    }
  return __confstr_alias (__name, __buf, __len);
}


extern int __getgroups_chk (int __size, __gid_t __list[], size_t __listlen)
     __attribute__ ((__nothrow__ , __leaf__)) __attribute__ ((__warn_unused_result__));
extern int __getgroups_alias (int __size, __gid_t __list[]) __asm__ ("" "getgroups") __attribute__ ((__nothrow__ , __leaf__))
                 __attribute__ ((__warn_unused_result__));
extern int __getgroups_chk_warn (int __size, __gid_t __list[], size_t __listlen) __asm__ ("" "__getgroups_chk") __attribute__ ((__nothrow__ , __leaf__))


     __attribute__ ((__warn_unused_result__)) __attribute__((__warning__ ("getgroups called with bigger group count than what " "can fit into destination buffer")))
                                           ;

extern __inline __attribute__ ((__always_inline__)) __attribute__ ((__artificial__)) int
__attribute__ ((__nothrow__ , __leaf__)) getgroups (int __size, __gid_t __list[])
{
  if (__builtin_object_size (__list, 2 > 1) != (size_t) -1)
    {
      if (!__builtin_constant_p (__size) || __size < 0)
 return __getgroups_chk (__size, __list, __builtin_object_size (__list, 2 > 1));

      if (__size * sizeof (__gid_t) > __builtin_object_size (__list, 2 > 1))
 return __getgroups_chk_warn (__size, __list, __builtin_object_size (__list, 2 > 1));
    }
  return __getgroups_alias (__size, __list);
}


extern int __ttyname_r_chk (int __fd, char *__buf, size_t __buflen,
       size_t __nreal) __attribute__ ((__nothrow__ , __leaf__)) __attribute__ ((__nonnull__ (2)));
extern int __ttyname_r_alias (int __fd, char *__buf, size_t __buflen) __asm__ ("" "ttyname_r") __attribute__ ((__nothrow__ , __leaf__))

     __attribute__ ((__nonnull__ (2)));
extern int __ttyname_r_chk_warn (int __fd, char *__buf, size_t __buflen, size_t __nreal) __asm__ ("" "__ttyname_r_chk") __attribute__ ((__nothrow__ , __leaf__))


     __attribute__ ((__nonnull__ (2))) __attribute__((__warning__ ("ttyname_r called with bigger buflen than " "size of destination buffer")))
                                  ;

extern __inline __attribute__ ((__always_inline__)) __attribute__ ((__artificial__)) int
__attribute__ ((__nothrow__ , __leaf__)) ttyname_r (int __fd, char *__buf, size_t __buflen)
{
  if (__builtin_object_size (__buf, 2 > 1) != (size_t) -1)
    {
      if (!__builtin_constant_p (__buflen))
 return __ttyname_r_chk (__fd, __buf, __buflen, __builtin_object_size (__buf, 2 > 1));

      if (__buflen > __builtin_object_size (__buf, 2 > 1))
 return __ttyname_r_chk_warn (__fd, __buf, __buflen, __builtin_object_size (__buf, 2 > 1));
    }
  return __ttyname_r_alias (__fd, __buf, __buflen);
}



extern int __getlogin_r_chk (char *__buf, size_t __buflen, size_t __nreal)
     __attribute__ ((__nonnull__ (1)));
extern int __getlogin_r_alias (char *__buf, size_t __buflen) __asm__ ("" "getlogin_r")
                     __attribute__ ((__nonnull__ (1)));
extern int __getlogin_r_chk_warn (char *__buf, size_t __buflen, size_t __nreal) __asm__ ("" "__getlogin_r_chk")


     __attribute__ ((__nonnull__ (1))) __attribute__((__warning__ ("getlogin_r called with bigger buflen than " "size of destination buffer")))
                                  ;

extern __inline __attribute__ ((__always_inline__)) __attribute__ ((__artificial__)) int
getlogin_r (char *__buf, size_t __buflen)
{
  if (__builtin_object_size (__buf, 2 > 1) != (size_t) -1)
    {
      if (!__builtin_constant_p (__buflen))
 return __getlogin_r_chk (__buf, __buflen, __builtin_object_size (__buf, 2 > 1));

      if (__buflen > __builtin_object_size (__buf, 2 > 1))
 return __getlogin_r_chk_warn (__buf, __buflen, __builtin_object_size (__buf, 2 > 1));
    }
  return __getlogin_r_alias (__buf, __buflen);
}




extern int __gethostname_chk (char *__buf, size_t __buflen, size_t __nreal)
     __attribute__ ((__nothrow__ , __leaf__)) __attribute__ ((__nonnull__ (1)));
extern int __gethostname_alias (char *__buf, size_t __buflen) __asm__ ("" "gethostname") __attribute__ ((__nothrow__ , __leaf__))
                   __attribute__ ((__nonnull__ (1)));
extern int __gethostname_chk_warn (char *__buf, size_t __buflen, size_t __nreal) __asm__ ("" "__gethostname_chk") __attribute__ ((__nothrow__ , __leaf__))


     __attribute__ ((__nonnull__ (1))) __attribute__((__warning__ ("gethostname called with bigger buflen than " "size of destination buffer")))
                                  ;

extern __inline __attribute__ ((__always_inline__)) __attribute__ ((__artificial__)) int
__attribute__ ((__nothrow__ , __leaf__)) gethostname (char *__buf, size_t __buflen)
{
  if (__builtin_object_size (__buf, 2 > 1) != (size_t) -1)
    {
      if (!__builtin_constant_p (__buflen))
 return __gethostname_chk (__buf, __buflen, __builtin_object_size (__buf, 2 > 1));

      if (__buflen > __builtin_object_size (__buf, 2 > 1))
 return __gethostname_chk_warn (__buf, __buflen, __builtin_object_size (__buf, 2 > 1));
    }
  return __gethostname_alias (__buf, __buflen);
}




extern int __getdomainname_chk (char *__buf, size_t __buflen, size_t __nreal)
     __attribute__ ((__nothrow__ , __leaf__)) __attribute__ ((__nonnull__ (1))) __attribute__ ((__warn_unused_result__));
extern int __getdomainname_alias (char *__buf, size_t __buflen) __asm__ ("" "getdomainname") __attribute__ ((__nothrow__ , __leaf__))

                     __attribute__ ((__nonnull__ (1))) __attribute__ ((__warn_unused_result__));
extern int __getdomainname_chk_warn (char *__buf, size_t __buflen, size_t __nreal) __asm__ ("" "__getdomainname_chk") __attribute__ ((__nothrow__ , __leaf__))


     __attribute__ ((__nonnull__ (1))) __attribute__ ((__warn_unused_result__)) __attribute__((__warning__ ("getdomainname called with bigger " "buflen than size of destination " "buffer")))

                    ;

extern __inline __attribute__ ((__always_inline__)) __attribute__ ((__artificial__)) int
__attribute__ ((__nothrow__ , __leaf__)) getdomainname (char *__buf, size_t __buflen)
{
  if (__builtin_object_size (__buf, 2 > 1) != (size_t) -1)
    {
      if (!__builtin_constant_p (__buflen))
 return __getdomainname_chk (__buf, __buflen, __builtin_object_size (__buf, 2 > 1));

      if (__buflen > __builtin_object_size (__buf, 2 > 1))
 return __getdomainname_chk_warn (__buf, __buflen, __builtin_object_size (__buf, 2 > 1));
    }
  return __getdomainname_alias (__buf, __buflen);
}
# 1167 "/usr/include/unistd.h" 2 3 4



# 1 "/usr/include/x86_64-linux-gnu/bits/unistd_ext.h" 1 3 4
# 34 "/usr/include/x86_64-linux-gnu/bits/unistd_ext.h" 3 4
extern __pid_t gettid (void) __attribute__ ((__nothrow__ , __leaf__));
# 1171 "/usr/include/unistd.h" 2 3 4


# 24 "../deps/uv/src/unix/linux-syscalls.c" 2

# 1 "/usr/include/x86_64-linux-gnu/sys/syscall.h" 1 3 4
# 24 "/usr/include/x86_64-linux-gnu/sys/syscall.h" 3 4
# 1 "/usr/include/x86_64-linux-gnu/asm/unistd.h" 1 3 4
# 13 "/usr/include/x86_64-linux-gnu/asm/unistd.h" 3 4
# 1 "/usr/include/x86_64-linux-gnu/asm/unistd_64.h" 1 3 4
# 14 "/usr/include/x86_64-linux-gnu/asm/unistd.h" 2 3 4
# 25 "/usr/include/x86_64-linux-gnu/sys/syscall.h" 2 3 4




# 1 "/usr/include/x86_64-linux-gnu/bits/syscall.h" 1 3 4
# 30 "/usr/include/x86_64-linux-gnu/sys/syscall.h" 2 3 4
# 26 "../deps/uv/src/unix/linux-syscalls.c" 2

# 1 "/usr/include/errno.h" 1 3 4
# 28 "/usr/include/errno.h" 3 4
# 1 "/usr/include/x86_64-linux-gnu/bits/errno.h" 1 3 4
# 26 "/usr/include/x86_64-linux-gnu/bits/errno.h" 3 4
# 1 "/usr/include/linux/errno.h" 1 3 4
# 1 "/usr/include/x86_64-linux-gnu/asm/errno.h" 1 3 4
# 1 "/usr/include/asm-generic/errno.h" 1 3 4




# 1 "/usr/include/asm-generic/errno-base.h" 1 3 4
# 6 "/usr/include/asm-generic/errno.h" 2 3 4
# 1 "/usr/include/x86_64-linux-gnu/asm/errno.h" 2 3 4
# 1 "/usr/include/linux/errno.h" 2 3 4
# 27 "/usr/include/x86_64-linux-gnu/bits/errno.h" 2 3 4
# 29 "/usr/include/errno.h" 2 3 4








extern int *__errno_location (void) __attribute__ ((__nothrow__ , __leaf__)) __attribute__ ((__const__));







extern char *program_invocation_name;
extern char *program_invocation_short_name;

# 1 "/usr/include/x86_64-linux-gnu/bits/types/error_t.h" 1 3 4
# 22 "/usr/include/x86_64-linux-gnu/bits/types/error_t.h" 3 4
typedef int error_t;
# 49 "/usr/include/errno.h" 2 3 4




# 28 "../deps/uv/src/unix/linux-syscalls.c" 2
# 129 "../deps/uv/src/unix/linux-syscalls.c"

# 129 "../deps/uv/src/unix/linux-syscalls.c"
struct uv__mmsghdr;

int uv__sendmmsg(int fd,
                 struct uv__mmsghdr* mmsg,
                 unsigned int vlen,
                 unsigned int flags) {

  return syscall(
# 136 "../deps/uv/src/unix/linux-syscalls.c" 3 4
                307
# 136 "../deps/uv/src/unix/linux-syscalls.c"
                             , fd, mmsg, vlen, flags);



}


int uv__recvmmsg(int fd,
                 struct uv__mmsghdr* mmsg,
                 unsigned int vlen,
                 unsigned int flags,
                 struct timespec* timeout) {

  return syscall(
# 149 "../deps/uv/src/unix/linux-syscalls.c" 3 4
                299
# 149 "../deps/uv/src/unix/linux-syscalls.c"
                             , fd, mmsg, vlen, flags, timeout);



}


ssize_t uv__preadv(int fd, const struct iovec *iov, int iovcnt, int64_t offset) {

  return syscall(
# 158 "../deps/uv/src/unix/linux-syscalls.c" 3 4
                295
# 158 "../deps/uv/src/unix/linux-syscalls.c"
                           , fd, iov, iovcnt, (long)offset, (long)(offset >> 32));



}


ssize_t uv__pwritev(int fd, const struct iovec *iov, int iovcnt, int64_t offset) {

  return syscall(
# 167 "../deps/uv/src/unix/linux-syscalls.c" 3 4
                296
# 167 "../deps/uv/src/unix/linux-syscalls.c"
                            , fd, iov, iovcnt, (long)offset, (long)(offset >> 32));



}


int uv__dup3(int oldfd, int newfd, int flags) {

  return syscall(
# 176 "../deps/uv/src/unix/linux-syscalls.c" 3 4
                292
# 176 "../deps/uv/src/unix/linux-syscalls.c"
                         , oldfd, newfd, flags);



}


int uv__statx(int dirfd,
              const char* path,
              int flags,
              unsigned int mask,
              struct uv__statx* statxbuf) {




  return syscall(
# 192 "../deps/uv/src/unix/linux-syscalls.c" 3 4
                332
# 192 "../deps/uv/src/unix/linux-syscalls.c"
                          , dirfd, path, flags, mask, statxbuf);



}


ssize_t uv__getrandom(void* buf, size_t buflen, unsigned flags) {

  return syscall(
# 201 "../deps/uv/src/unix/linux-syscalls.c" 3 4
                318
# 201 "../deps/uv/src/unix/linux-syscalls.c"
                              , buf, buflen, flags);



}
