# 1 "../deps/openssl/openssl/crypto/camellia/cmll_misc.c"
# 1 "<built-in>"
# 1 "<command-line>"
# 1 "/usr/include/stdc-predef.h" 1 3 4
# 1 "<command-line>" 2
# 1 "../deps/openssl/openssl/crypto/camellia/cmll_misc.c"
# 10 "../deps/openssl/openssl/crypto/camellia/cmll_misc.c"
# 1 "../deps/openssl/openssl/include/openssl/opensslv.h" 1
# 11 "../deps/openssl/openssl/crypto/camellia/cmll_misc.c" 2
# 1 "../deps/openssl/openssl/include/openssl/camellia.h" 1
# 13 "../deps/openssl/openssl/include/openssl/camellia.h"
# 1 "../deps/openssl/openssl/include/openssl/opensslconf.h" 1
# 1 "../deps/openssl/openssl/include/../../config/opensslconf.h" 1
# 9 "../deps/openssl/openssl/include/../../config/opensslconf.h"
# 1 "../deps/openssl/openssl/include/../../config/./opensslconf_asm.h" 1
# 98 "../deps/openssl/openssl/include/../../config/./opensslconf_asm.h"
# 1 "../deps/openssl/openssl/include/../../config/././archs/linux-x86_64/asm/include/openssl/opensslconf.h" 1
# 99 "../deps/openssl/openssl/include/../../config/./opensslconf_asm.h" 2
# 10 "../deps/openssl/openssl/include/../../config/opensslconf.h" 2
# 1 "../deps/openssl/openssl/include/openssl/opensslconf.h" 2
# 14 "../deps/openssl/openssl/include/openssl/camellia.h" 2


# 1 "/usr/lib/gcc/x86_64-linux-gnu/9/include/stddef.h" 1 3 4
# 143 "/usr/lib/gcc/x86_64-linux-gnu/9/include/stddef.h" 3 4

# 143 "/usr/lib/gcc/x86_64-linux-gnu/9/include/stddef.h" 3 4
typedef long int ptrdiff_t;
# 209 "/usr/lib/gcc/x86_64-linux-gnu/9/include/stddef.h" 3 4
typedef long unsigned int size_t;
# 321 "/usr/lib/gcc/x86_64-linux-gnu/9/include/stddef.h" 3 4
typedef int wchar_t;
# 415 "/usr/lib/gcc/x86_64-linux-gnu/9/include/stddef.h" 3 4
typedef struct {
  long long __max_align_ll __attribute__((__aligned__(__alignof__(long long))));
  long double __max_align_ld __attribute__((__aligned__(__alignof__(long double))));
# 426 "/usr/lib/gcc/x86_64-linux-gnu/9/include/stddef.h" 3 4
} max_align_t;
# 17 "../deps/openssl/openssl/include/openssl/camellia.h" 2
# 35 "../deps/openssl/openssl/include/openssl/camellia.h"

# 35 "../deps/openssl/openssl/include/openssl/camellia.h"
typedef unsigned int KEY_TABLE_TYPE[(272 / 4)];


struct camellia_key_st {
    union {
        double d;
        KEY_TABLE_TYPE rd_key;
    } u;
    int grand_rounds;
};
typedef struct camellia_key_st CAMELLIA_KEY;

int Camellia_set_key(const unsigned char *userKey, const int bits,
                     CAMELLIA_KEY *key);

void Camellia_encrypt(const unsigned char *in, unsigned char *out,
                      const CAMELLIA_KEY *key);
void Camellia_decrypt(const unsigned char *in, unsigned char *out,
                      const CAMELLIA_KEY *key);

void Camellia_ecb_encrypt(const unsigned char *in, unsigned char *out,
                          const CAMELLIA_KEY *key, const int enc);
void Camellia_cbc_encrypt(const unsigned char *in, unsigned char *out,
                          size_t length, const CAMELLIA_KEY *key,
                          unsigned char *ivec, const int enc);
void Camellia_cfb128_encrypt(const unsigned char *in, unsigned char *out,
                             size_t length, const CAMELLIA_KEY *key,
                             unsigned char *ivec, int *num, const int enc);
void Camellia_cfb1_encrypt(const unsigned char *in, unsigned char *out,
                           size_t length, const CAMELLIA_KEY *key,
                           unsigned char *ivec, int *num, const int enc);
void Camellia_cfb8_encrypt(const unsigned char *in, unsigned char *out,
                           size_t length, const CAMELLIA_KEY *key,
                           unsigned char *ivec, int *num, const int enc);
void Camellia_ofb128_encrypt(const unsigned char *in, unsigned char *out,
                             size_t length, const CAMELLIA_KEY *key,
                             unsigned char *ivec, int *num);
void Camellia_ctr128_encrypt(const unsigned char *in, unsigned char *out,
                             size_t length, const CAMELLIA_KEY *key,
                             unsigned char ivec[16],
                             unsigned char ecount_buf[16],
                             unsigned int *num);
# 12 "../deps/openssl/openssl/crypto/camellia/cmll_misc.c" 2
# 1 "../deps/openssl/openssl/crypto/camellia/cmll_local.h" 1
# 28 "../deps/openssl/openssl/crypto/camellia/cmll_local.h"
typedef unsigned int u32;
typedef unsigned char u8;

int Camellia_Ekeygen(int keyBitLength, const u8 *rawKey,
                     KEY_TABLE_TYPE keyTable);
void Camellia_EncryptBlock_Rounds(int grandRounds, const u8 plaintext[],
                                  const KEY_TABLE_TYPE keyTable,
                                  u8 ciphertext[]);
void Camellia_DecryptBlock_Rounds(int grandRounds, const u8 ciphertext[],
                                  const KEY_TABLE_TYPE keyTable,
                                  u8 plaintext[]);
void Camellia_EncryptBlock(int keyBitLength, const u8 plaintext[],
                           const KEY_TABLE_TYPE keyTable, u8 ciphertext[]);
void Camellia_DecryptBlock(int keyBitLength, const u8 ciphertext[],
                           const KEY_TABLE_TYPE keyTable, u8 plaintext[]);
# 13 "../deps/openssl/openssl/crypto/camellia/cmll_misc.c" 2

int Camellia_set_key(const unsigned char *userKey, const int bits,
                     CAMELLIA_KEY *key)
{
    if (!userKey || !key)
        return -1;
    if (bits != 128 && bits != 192 && bits != 256)
        return -2;
    key->grand_rounds = Camellia_Ekeygen(bits, userKey, key->u.rd_key);
    return 0;
}

void Camellia_encrypt(const unsigned char *in, unsigned char *out,
                      const CAMELLIA_KEY *key)
{
    Camellia_EncryptBlock_Rounds(key->grand_rounds, in, key->u.rd_key, out);
}

void Camellia_decrypt(const unsigned char *in, unsigned char *out,
                      const CAMELLIA_KEY *key)
{
    Camellia_DecryptBlock_Rounds(key->grand_rounds, in, key->u.rd_key, out);
}
