# 1 "../deps/brotli/c/common/transform.c"
# 1 "<built-in>"
# 1 "<command-line>"
# 1 "/usr/include/stdc-predef.h" 1 3 4
# 1 "<command-line>" 2
# 1 "../deps/brotli/c/common/transform.c"






# 1 "../deps/brotli/c/common/./transform.h" 1
# 11 "../deps/brotli/c/common/./transform.h"
# 1 "../deps/brotli/c/include/brotli/port.h" 1
# 12 "../deps/brotli/c/common/./transform.h" 2
# 1 "../deps/brotli/c/include/brotli/types.h" 1
# 15 "../deps/brotli/c/include/brotli/types.h"
# 1 "/usr/lib/gcc/x86_64-linux-gnu/9/include/stddef.h" 1 3 4
# 143 "/usr/lib/gcc/x86_64-linux-gnu/9/include/stddef.h" 3 4

# 143 "/usr/lib/gcc/x86_64-linux-gnu/9/include/stddef.h" 3 4
typedef long int ptrdiff_t;
# 209 "/usr/lib/gcc/x86_64-linux-gnu/9/include/stddef.h" 3 4
typedef long unsigned int size_t;
# 321 "/usr/lib/gcc/x86_64-linux-gnu/9/include/stddef.h" 3 4
typedef int wchar_t;
# 415 "/usr/lib/gcc/x86_64-linux-gnu/9/include/stddef.h" 3 4
typedef struct {
  long long __max_align_ll __attribute__((__aligned__(__alignof__(long long))));
  long double __max_align_ld __attribute__((__aligned__(__alignof__(long double))));
# 426 "/usr/lib/gcc/x86_64-linux-gnu/9/include/stddef.h" 3 4
} max_align_t;
# 16 "../deps/brotli/c/include/brotli/types.h" 2
# 27 "../deps/brotli/c/include/brotli/types.h"
# 1 "/usr/lib/gcc/x86_64-linux-gnu/9/include/stdint.h" 1 3 4
# 9 "/usr/lib/gcc/x86_64-linux-gnu/9/include/stdint.h" 3 4
# 1 "/usr/include/stdint.h" 1 3 4
# 26 "/usr/include/stdint.h" 3 4
# 1 "/usr/include/x86_64-linux-gnu/bits/libc-header-start.h" 1 3 4
# 33 "/usr/include/x86_64-linux-gnu/bits/libc-header-start.h" 3 4
# 1 "/usr/include/features.h" 1 3 4
# 461 "/usr/include/features.h" 3 4
# 1 "/usr/include/x86_64-linux-gnu/sys/cdefs.h" 1 3 4
# 452 "/usr/include/x86_64-linux-gnu/sys/cdefs.h" 3 4
# 1 "/usr/include/x86_64-linux-gnu/bits/wordsize.h" 1 3 4
# 453 "/usr/include/x86_64-linux-gnu/sys/cdefs.h" 2 3 4
# 1 "/usr/include/x86_64-linux-gnu/bits/long-double.h" 1 3 4
# 454 "/usr/include/x86_64-linux-gnu/sys/cdefs.h" 2 3 4
# 462 "/usr/include/features.h" 2 3 4
# 485 "/usr/include/features.h" 3 4
# 1 "/usr/include/x86_64-linux-gnu/gnu/stubs.h" 1 3 4
# 10 "/usr/include/x86_64-linux-gnu/gnu/stubs.h" 3 4
# 1 "/usr/include/x86_64-linux-gnu/gnu/stubs-64.h" 1 3 4
# 11 "/usr/include/x86_64-linux-gnu/gnu/stubs.h" 2 3 4
# 486 "/usr/include/features.h" 2 3 4
# 34 "/usr/include/x86_64-linux-gnu/bits/libc-header-start.h" 2 3 4
# 27 "/usr/include/stdint.h" 2 3 4
# 1 "/usr/include/x86_64-linux-gnu/bits/types.h" 1 3 4
# 27 "/usr/include/x86_64-linux-gnu/bits/types.h" 3 4
# 1 "/usr/include/x86_64-linux-gnu/bits/wordsize.h" 1 3 4
# 28 "/usr/include/x86_64-linux-gnu/bits/types.h" 2 3 4
# 1 "/usr/include/x86_64-linux-gnu/bits/timesize.h" 1 3 4
# 29 "/usr/include/x86_64-linux-gnu/bits/types.h" 2 3 4


typedef unsigned char __u_char;
typedef unsigned short int __u_short;
typedef unsigned int __u_int;
typedef unsigned long int __u_long;


typedef signed char __int8_t;
typedef unsigned char __uint8_t;
typedef signed short int __int16_t;
typedef unsigned short int __uint16_t;
typedef signed int __int32_t;
typedef unsigned int __uint32_t;

typedef signed long int __int64_t;
typedef unsigned long int __uint64_t;






typedef __int8_t __int_least8_t;
typedef __uint8_t __uint_least8_t;
typedef __int16_t __int_least16_t;
typedef __uint16_t __uint_least16_t;
typedef __int32_t __int_least32_t;
typedef __uint32_t __uint_least32_t;
typedef __int64_t __int_least64_t;
typedef __uint64_t __uint_least64_t;



typedef long int __quad_t;
typedef unsigned long int __u_quad_t;







typedef long int __intmax_t;
typedef unsigned long int __uintmax_t;
# 141 "/usr/include/x86_64-linux-gnu/bits/types.h" 3 4
# 1 "/usr/include/x86_64-linux-gnu/bits/typesizes.h" 1 3 4
# 142 "/usr/include/x86_64-linux-gnu/bits/types.h" 2 3 4
# 1 "/usr/include/x86_64-linux-gnu/bits/time64.h" 1 3 4
# 143 "/usr/include/x86_64-linux-gnu/bits/types.h" 2 3 4


typedef unsigned long int __dev_t;
typedef unsigned int __uid_t;
typedef unsigned int __gid_t;
typedef unsigned long int __ino_t;
typedef unsigned long int __ino64_t;
typedef unsigned int __mode_t;
typedef unsigned long int __nlink_t;
typedef long int __off_t;
typedef long int __off64_t;
typedef int __pid_t;
typedef struct { int __val[2]; } __fsid_t;
typedef long int __clock_t;
typedef unsigned long int __rlim_t;
typedef unsigned long int __rlim64_t;
typedef unsigned int __id_t;
typedef long int __time_t;
typedef unsigned int __useconds_t;
typedef long int __suseconds_t;

typedef int __daddr_t;
typedef int __key_t;


typedef int __clockid_t;


typedef void * __timer_t;


typedef long int __blksize_t;




typedef long int __blkcnt_t;
typedef long int __blkcnt64_t;


typedef unsigned long int __fsblkcnt_t;
typedef unsigned long int __fsblkcnt64_t;


typedef unsigned long int __fsfilcnt_t;
typedef unsigned long int __fsfilcnt64_t;


typedef long int __fsword_t;

typedef long int __ssize_t;


typedef long int __syscall_slong_t;

typedef unsigned long int __syscall_ulong_t;



typedef __off64_t __loff_t;
typedef char *__caddr_t;


typedef long int __intptr_t;


typedef unsigned int __socklen_t;




typedef int __sig_atomic_t;
# 28 "/usr/include/stdint.h" 2 3 4
# 1 "/usr/include/x86_64-linux-gnu/bits/wchar.h" 1 3 4
# 29 "/usr/include/stdint.h" 2 3 4
# 1 "/usr/include/x86_64-linux-gnu/bits/wordsize.h" 1 3 4
# 30 "/usr/include/stdint.h" 2 3 4




# 1 "/usr/include/x86_64-linux-gnu/bits/stdint-intn.h" 1 3 4
# 24 "/usr/include/x86_64-linux-gnu/bits/stdint-intn.h" 3 4
typedef __int8_t int8_t;
typedef __int16_t int16_t;
typedef __int32_t int32_t;
typedef __int64_t int64_t;
# 35 "/usr/include/stdint.h" 2 3 4


# 1 "/usr/include/x86_64-linux-gnu/bits/stdint-uintn.h" 1 3 4
# 24 "/usr/include/x86_64-linux-gnu/bits/stdint-uintn.h" 3 4
typedef __uint8_t uint8_t;
typedef __uint16_t uint16_t;
typedef __uint32_t uint32_t;
typedef __uint64_t uint64_t;
# 38 "/usr/include/stdint.h" 2 3 4





typedef __int_least8_t int_least8_t;
typedef __int_least16_t int_least16_t;
typedef __int_least32_t int_least32_t;
typedef __int_least64_t int_least64_t;


typedef __uint_least8_t uint_least8_t;
typedef __uint_least16_t uint_least16_t;
typedef __uint_least32_t uint_least32_t;
typedef __uint_least64_t uint_least64_t;





typedef signed char int_fast8_t;

typedef long int int_fast16_t;
typedef long int int_fast32_t;
typedef long int int_fast64_t;
# 71 "/usr/include/stdint.h" 3 4
typedef unsigned char uint_fast8_t;

typedef unsigned long int uint_fast16_t;
typedef unsigned long int uint_fast32_t;
typedef unsigned long int uint_fast64_t;
# 87 "/usr/include/stdint.h" 3 4
typedef long int intptr_t;


typedef unsigned long int uintptr_t;
# 101 "/usr/include/stdint.h" 3 4
typedef __intmax_t intmax_t;
typedef __uintmax_t uintmax_t;
# 10 "/usr/lib/gcc/x86_64-linux-gnu/9/include/stdint.h" 2 3 4
# 28 "../deps/brotli/c/include/brotli/types.h" 2
# 71 "../deps/brotli/c/include/brotli/types.h"

# 71 "../deps/brotli/c/include/brotli/types.h"
typedef void* (*brotli_alloc_func)(void* opaque, size_t size);
# 81 "../deps/brotli/c/include/brotli/types.h"
typedef void (*brotli_free_func)(void* opaque, void* address);
# 13 "../deps/brotli/c/common/./transform.h" 2





enum BrotliWordTransformType {
  BROTLI_TRANSFORM_IDENTITY = 0,
  BROTLI_TRANSFORM_OMIT_LAST_1 = 1,
  BROTLI_TRANSFORM_OMIT_LAST_2 = 2,
  BROTLI_TRANSFORM_OMIT_LAST_3 = 3,
  BROTLI_TRANSFORM_OMIT_LAST_4 = 4,
  BROTLI_TRANSFORM_OMIT_LAST_5 = 5,
  BROTLI_TRANSFORM_OMIT_LAST_6 = 6,
  BROTLI_TRANSFORM_OMIT_LAST_7 = 7,
  BROTLI_TRANSFORM_OMIT_LAST_8 = 8,
  BROTLI_TRANSFORM_OMIT_LAST_9 = 9,
  BROTLI_TRANSFORM_UPPERCASE_FIRST = 10,
  BROTLI_TRANSFORM_UPPERCASE_ALL = 11,
  BROTLI_TRANSFORM_OMIT_FIRST_1 = 12,
  BROTLI_TRANSFORM_OMIT_FIRST_2 = 13,
  BROTLI_TRANSFORM_OMIT_FIRST_3 = 14,
  BROTLI_TRANSFORM_OMIT_FIRST_4 = 15,
  BROTLI_TRANSFORM_OMIT_FIRST_5 = 16,
  BROTLI_TRANSFORM_OMIT_FIRST_6 = 17,
  BROTLI_TRANSFORM_OMIT_FIRST_7 = 18,
  BROTLI_TRANSFORM_OMIT_FIRST_8 = 19,
  BROTLI_TRANSFORM_OMIT_FIRST_9 = 20,
  BROTLI_NUM_TRANSFORM_TYPES
};



typedef struct BrotliTransforms {
  uint16_t prefix_suffix_size;

  const uint8_t* prefix_suffix;
  const uint16_t* prefix_suffix_map;
  uint32_t num_transforms;

  const uint8_t* transforms;



  int16_t cutOffTransforms[BROTLI_TRANSFORM_OMIT_LAST_9 + 1];
} BrotliTransforms;
# 70 "../deps/brotli/c/common/./transform.h"
 const BrotliTransforms* BrotliGetTransforms(void);

 int BrotliTransformDictionaryWord(
    uint8_t* dst, const uint8_t* word, int len,
    const BrotliTransforms* transforms, int transform_idx);
# 8 "../deps/brotli/c/common/transform.c" 2






static const char kPrefixSuffix[217] =
      "\1 \2, \10 of the \4 of \2s \1.\5 and \4 "

      "in \1\"\4 to \2\">\1\n\2. \1]\5 for \3 a \6 "

      "that \1\'\6 with \6 from \4 by \1(\6. T"

      "he \4 on \4 as \4 is \4ing \2\n\t\1:\3ed "

      "\2=\"\4 at \3ly \1,\2=\'\5.com/\7. This \5"

      " not \3er \3al \4ful \4ive \5less \4es"

      "t \4ize \2\xc2\xa0\4ous \5 the \2e \0";


static const uint16_t kPrefixSuffixMap[50] = {
  0x00, 0x02, 0x05, 0x0E, 0x13, 0x16, 0x18, 0x1E, 0x23, 0x25,
  0x2A, 0x2D, 0x2F, 0x32, 0x34, 0x3A, 0x3E, 0x45, 0x47, 0x4E,
  0x55, 0x5A, 0x5C, 0x63, 0x68, 0x6D, 0x72, 0x77, 0x7A, 0x7C,
  0x80, 0x83, 0x88, 0x8C, 0x8E, 0x91, 0x97, 0x9F, 0xA5, 0xA9,
  0xAD, 0xB2, 0xB7, 0xBD, 0xC2, 0xC7, 0xCA, 0xCF, 0xD5, 0xD8
};


static const uint8_t kTransformsData[] = {
  49, BROTLI_TRANSFORM_IDENTITY, 49,
  49, BROTLI_TRANSFORM_IDENTITY, 0,
   0, BROTLI_TRANSFORM_IDENTITY, 0,
  49, BROTLI_TRANSFORM_OMIT_FIRST_1, 49,
  49, BROTLI_TRANSFORM_UPPERCASE_FIRST, 0,
  49, BROTLI_TRANSFORM_IDENTITY, 47,
   0, BROTLI_TRANSFORM_IDENTITY, 49,
   4, BROTLI_TRANSFORM_IDENTITY, 0,
  49, BROTLI_TRANSFORM_IDENTITY, 3,
  49, BROTLI_TRANSFORM_UPPERCASE_FIRST, 49,
  49, BROTLI_TRANSFORM_IDENTITY, 6,
  49, BROTLI_TRANSFORM_OMIT_FIRST_2, 49,
  49, BROTLI_TRANSFORM_OMIT_LAST_1, 49,
   1, BROTLI_TRANSFORM_IDENTITY, 0,
  49, BROTLI_TRANSFORM_IDENTITY, 1,
   0, BROTLI_TRANSFORM_UPPERCASE_FIRST, 0,
  49, BROTLI_TRANSFORM_IDENTITY, 7,
  49, BROTLI_TRANSFORM_IDENTITY, 9,
  48, BROTLI_TRANSFORM_IDENTITY, 0,
  49, BROTLI_TRANSFORM_IDENTITY, 8,
  49, BROTLI_TRANSFORM_IDENTITY, 5,
  49, BROTLI_TRANSFORM_IDENTITY, 10,
  49, BROTLI_TRANSFORM_IDENTITY, 11,
  49, BROTLI_TRANSFORM_OMIT_LAST_3, 49,
  49, BROTLI_TRANSFORM_IDENTITY, 13,
  49, BROTLI_TRANSFORM_IDENTITY, 14,
  49, BROTLI_TRANSFORM_OMIT_FIRST_3, 49,
  49, BROTLI_TRANSFORM_OMIT_LAST_2, 49,
  49, BROTLI_TRANSFORM_IDENTITY, 15,
  49, BROTLI_TRANSFORM_IDENTITY, 16,
   0, BROTLI_TRANSFORM_UPPERCASE_FIRST, 49,
  49, BROTLI_TRANSFORM_IDENTITY, 12,
   5, BROTLI_TRANSFORM_IDENTITY, 49,
   0, BROTLI_TRANSFORM_IDENTITY, 1,
  49, BROTLI_TRANSFORM_OMIT_FIRST_4, 49,
  49, BROTLI_TRANSFORM_IDENTITY, 18,
  49, BROTLI_TRANSFORM_IDENTITY, 17,
  49, BROTLI_TRANSFORM_IDENTITY, 19,
  49, BROTLI_TRANSFORM_IDENTITY, 20,
  49, BROTLI_TRANSFORM_OMIT_FIRST_5, 49,
  49, BROTLI_TRANSFORM_OMIT_FIRST_6, 49,
  47, BROTLI_TRANSFORM_IDENTITY, 49,
  49, BROTLI_TRANSFORM_OMIT_LAST_4, 49,
  49, BROTLI_TRANSFORM_IDENTITY, 22,
  49, BROTLI_TRANSFORM_UPPERCASE_ALL, 49,
  49, BROTLI_TRANSFORM_IDENTITY, 23,
  49, BROTLI_TRANSFORM_IDENTITY, 24,
  49, BROTLI_TRANSFORM_IDENTITY, 25,
  49, BROTLI_TRANSFORM_OMIT_LAST_7, 49,
  49, BROTLI_TRANSFORM_OMIT_LAST_1, 26,
  49, BROTLI_TRANSFORM_IDENTITY, 27,
  49, BROTLI_TRANSFORM_IDENTITY, 28,
   0, BROTLI_TRANSFORM_IDENTITY, 12,
  49, BROTLI_TRANSFORM_IDENTITY, 29,
  49, BROTLI_TRANSFORM_OMIT_FIRST_9, 49,
  49, BROTLI_TRANSFORM_OMIT_FIRST_7, 49,
  49, BROTLI_TRANSFORM_OMIT_LAST_6, 49,
  49, BROTLI_TRANSFORM_IDENTITY, 21,
  49, BROTLI_TRANSFORM_UPPERCASE_FIRST, 1,
  49, BROTLI_TRANSFORM_OMIT_LAST_8, 49,
  49, BROTLI_TRANSFORM_IDENTITY, 31,
  49, BROTLI_TRANSFORM_IDENTITY, 32,
  47, BROTLI_TRANSFORM_IDENTITY, 3,
  49, BROTLI_TRANSFORM_OMIT_LAST_5, 49,
  49, BROTLI_TRANSFORM_OMIT_LAST_9, 49,
   0, BROTLI_TRANSFORM_UPPERCASE_FIRST, 1,
  49, BROTLI_TRANSFORM_UPPERCASE_FIRST, 8,
   5, BROTLI_TRANSFORM_IDENTITY, 21,
  49, BROTLI_TRANSFORM_UPPERCASE_ALL, 0,
  49, BROTLI_TRANSFORM_UPPERCASE_FIRST, 10,
  49, BROTLI_TRANSFORM_IDENTITY, 30,
   0, BROTLI_TRANSFORM_IDENTITY, 5,
  35, BROTLI_TRANSFORM_IDENTITY, 49,
  47, BROTLI_TRANSFORM_IDENTITY, 2,
  49, BROTLI_TRANSFORM_UPPERCASE_FIRST, 17,
  49, BROTLI_TRANSFORM_IDENTITY, 36,
  49, BROTLI_TRANSFORM_IDENTITY, 33,
   5, BROTLI_TRANSFORM_IDENTITY, 0,
  49, BROTLI_TRANSFORM_UPPERCASE_FIRST, 21,
  49, BROTLI_TRANSFORM_UPPERCASE_FIRST, 5,
  49, BROTLI_TRANSFORM_IDENTITY, 37,
   0, BROTLI_TRANSFORM_IDENTITY, 30,
  49, BROTLI_TRANSFORM_IDENTITY, 38,
   0, BROTLI_TRANSFORM_UPPERCASE_ALL, 0,
  49, BROTLI_TRANSFORM_IDENTITY, 39,
   0, BROTLI_TRANSFORM_UPPERCASE_ALL, 49,
  49, BROTLI_TRANSFORM_IDENTITY, 34,
  49, BROTLI_TRANSFORM_UPPERCASE_ALL, 8,
  49, BROTLI_TRANSFORM_UPPERCASE_FIRST, 12,
   0, BROTLI_TRANSFORM_IDENTITY, 21,
  49, BROTLI_TRANSFORM_IDENTITY, 40,
   0, BROTLI_TRANSFORM_UPPERCASE_FIRST, 12,
  49, BROTLI_TRANSFORM_IDENTITY, 41,
  49, BROTLI_TRANSFORM_IDENTITY, 42,
  49, BROTLI_TRANSFORM_UPPERCASE_ALL, 17,
  49, BROTLI_TRANSFORM_IDENTITY, 43,
   0, BROTLI_TRANSFORM_UPPERCASE_FIRST, 5,
  49, BROTLI_TRANSFORM_UPPERCASE_ALL, 10,
   0, BROTLI_TRANSFORM_IDENTITY, 34,
  49, BROTLI_TRANSFORM_UPPERCASE_FIRST, 33,
  49, BROTLI_TRANSFORM_IDENTITY, 44,
  49, BROTLI_TRANSFORM_UPPERCASE_ALL, 5,
  45, BROTLI_TRANSFORM_IDENTITY, 49,
   0, BROTLI_TRANSFORM_IDENTITY, 33,
  49, BROTLI_TRANSFORM_UPPERCASE_FIRST, 30,
  49, BROTLI_TRANSFORM_UPPERCASE_ALL, 30,
  49, BROTLI_TRANSFORM_IDENTITY, 46,
  49, BROTLI_TRANSFORM_UPPERCASE_ALL, 1,
  49, BROTLI_TRANSFORM_UPPERCASE_FIRST, 34,
   0, BROTLI_TRANSFORM_UPPERCASE_FIRST, 33,
   0, BROTLI_TRANSFORM_UPPERCASE_ALL, 30,
   0, BROTLI_TRANSFORM_UPPERCASE_ALL, 1,
  49, BROTLI_TRANSFORM_UPPERCASE_ALL, 33,
  49, BROTLI_TRANSFORM_UPPERCASE_ALL, 21,
  49, BROTLI_TRANSFORM_UPPERCASE_ALL, 12,
   0, BROTLI_TRANSFORM_UPPERCASE_ALL, 5,
  49, BROTLI_TRANSFORM_UPPERCASE_ALL, 34,
   0, BROTLI_TRANSFORM_UPPERCASE_ALL, 12,
   0, BROTLI_TRANSFORM_UPPERCASE_FIRST, 30,
   0, BROTLI_TRANSFORM_UPPERCASE_ALL, 34,
   0, BROTLI_TRANSFORM_UPPERCASE_FIRST, 34,
};

static BrotliTransforms kBrotliTransforms = {
  sizeof(kPrefixSuffix),
  (const uint8_t*)kPrefixSuffix,
  kPrefixSuffixMap,
  sizeof(kTransformsData) / (3 * sizeof(kTransformsData[0])),
  kTransformsData,
  {0, 12, 27, 23, 42, 63, 56, 48, 59, 64}
};

const BrotliTransforms* BrotliGetTransforms(void) {
  return &kBrotliTransforms;
}

static int ToUpperCase(uint8_t* p) {
  if (p[0] < 0xC0) {
    if (p[0] >= 'a' && p[0] <= 'z') {
      p[0] ^= 32;
    }
    return 1;
  }

  if (p[0] < 0xE0) {
    p[1] ^= 32;
    return 2;
  }

  p[2] ^= 5;
  return 3;
}

int BrotliTransformDictionaryWord(uint8_t* dst, const uint8_t* word, int len,
    const BrotliTransforms* transforms, int transform_idx) {
  int idx = 0;
  const uint8_t* prefix = (&(transforms)->prefix_suffix[ (transforms)->prefix_suffix_map[((transforms)->transforms[((transform_idx) * 3) + 0])]]);
  uint8_t type = ((transforms)->transforms[((transform_idx) * 3) + 1]);
  const uint8_t* suffix = (&(transforms)->prefix_suffix[ (transforms)->prefix_suffix_map[((transforms)->transforms[((transform_idx) * 3) + 2])]]);
  {
    int prefix_len = *prefix++;
    while (prefix_len--) { dst[idx++] = *prefix++; }
  }
  {
    const int t = type;
    int i = 0;
    if (t <= BROTLI_TRANSFORM_OMIT_LAST_9) {
      len -= t;
    } else if (t >= BROTLI_TRANSFORM_OMIT_FIRST_1
        && t <= BROTLI_TRANSFORM_OMIT_FIRST_9) {
      int skip = t - (BROTLI_TRANSFORM_OMIT_FIRST_1 - 1);
      word += skip;
      len -= skip;
    }
    while (i < len) { dst[idx++] = word[i++]; }
    if (t == BROTLI_TRANSFORM_UPPERCASE_FIRST) {
      ToUpperCase(&dst[idx - len]);
    } else if (t == BROTLI_TRANSFORM_UPPERCASE_ALL) {
      uint8_t* uppercase = &dst[idx - len];
      while (len > 0) {
        int step = ToUpperCase(uppercase);
        uppercase += step;
        len -= step;
      }
    }
  }
  {
    int suffix_len = *suffix++;
    while (suffix_len--) { dst[idx++] = *suffix++; }
    return idx;
  }
}
